PCBNEW-LibModule-V1  2019-10-16 20:58:19
# encoding utf-8
Units mm
$INDEX
FAT22051E
$EndINDEX
$MODULE FAT22051E
Po 0 0 0 15 5da7765b 00000000 ~~
Li FAT22051E
Cd FA-T220-51E-3
Kw Hardware
Sc 0
At STD
AR 
Op 0 0 0
T0 12.700 -0 1.27 1.27 0 0.254 N V 21 N "H**"
T1 12.700 -0 1.27 1.27 0 0.254 N I 21 N "FAT22051E"
DS -8.6 -13 34 -13 0.1 24
DS 34 -13 34 13 0.1 24
DS 34 13 -8.6 13 0.1 24
DS -8.6 13 -8.6 -13 0.1 24
DS 33.5 -12.5 33.5 12.5 0.2 24
DS 33.5 12.5 21.2 12.5 0.2 24
DS 21.2 12.5 21.2 0.75 0.2 24
DS 21.2 0.75 4.2 0.75 0.2 24
DS 4.2 0.75 4.2 12.5 0.2 24
DS 4.2 12.5 -8.1 12.5 0.2 24
DS -8.1 12.5 -8.1 -12.5 0.2 24
DS -8.1 -12.5 4.2 -12.5 0.2 24
DS 4.2 -12.5 4.2 -0.75 0.2 24
DS 4.2 -0.75 21.2 -0.75 0.2 24
DS 21.2 -0.75 21.2 -12.5 0.2 24
DS 21.2 -12.5 33.5 -12.5 0.2 24
DS -8.1 -12.5 4.2 -12.5 0.1 21
DS 4.2 -12.5 4.2 -0.75 0.1 21
DS 4.2 -0.75 21.2 -0.75 0.1 21
DS 21.2 -0.75 21.2 -12.5 0.1 21
DS 21.2 -12.5 33.5 -12.5 0.1 21
DS 33.5 -12.5 33.5 12.5 0.1 21
DS 33.5 12.5 21.2 12.5 0.1 21
DS 21.2 12.5 21.2 0.75 0.1 21
DS 21.2 0.75 4.2 0.75 0.1 21
DS 4.2 0.75 4.2 12.5 0.1 21
DS 4.2 12.5 -8.1 12.5 0.1 21
DS -8.1 12.5 -8.1 -12.5 0.1 21
$PAD
Po -0.000 -0
Sh "1" C 3.750 3.750 0 0 900
Dr 2.5 0 0
At STD N 00E0FFFF
Ne 0 ""
$EndPAD
$PAD
Po 25.400 -0
Sh "2" C 3.750 3.750 0 0 900
Dr 2.5 0 0
At STD N 00E0FFFF
Ne 0 ""
$EndPAD
$EndMODULE FAT22051E
$EndLIBRARY
