G04*
G04 #@! TF.GenerationSoftware,Altium Limited,Altium Designer,21.0.9 (235)*
G04*
G04 Layer_Physical_Order=2*
G04 Layer_Color=16711680*
%FSLAX25Y25*%
%MOIN*%
G70*
G04*
G04 #@! TF.SameCoordinates,77E72696-7277-4A8F-916D-0A10CF5A46CB*
G04*
G04*
G04 #@! TF.FilePolarity,Positive*
G04*
G01*
G75*
%ADD16C,0.06000*%
%ADD22C,0.02362*%
%ADD23C,0.23622*%
%ADD24C,0.03150*%
%ADD25C,0.12598*%
D16*
X227559Y15748D02*
D03*
X283071Y82940D02*
D03*
X172047Y15748D02*
D03*
Y82677D02*
D03*
X61024Y15748D02*
D03*
X227559Y82677D02*
D03*
X61024D02*
D03*
X116535D02*
D03*
X283071Y15748D02*
D03*
X144488Y118110D02*
D03*
X88976Y51181D02*
D03*
Y118110D02*
D03*
X338583Y15748D02*
D03*
X200000Y118110D02*
D03*
X33465Y51181D02*
D03*
Y118110D02*
D03*
X144488Y50919D02*
D03*
X255512Y118110D02*
D03*
X200000Y50919D02*
D03*
X338583Y82677D02*
D03*
X255512Y50919D02*
D03*
X311024D02*
D03*
Y118110D02*
D03*
X116535Y15748D02*
D03*
D22*
X362355Y92670D02*
X364173Y94488D01*
X212749Y92670D02*
X362355D01*
X212598Y92520D02*
X212749Y92670D01*
X361403Y37402D02*
X364173D01*
X357860Y40945D02*
X361403Y37402D01*
X185039Y40945D02*
X357860D01*
X68701Y127756D02*
X68914D01*
X69308Y128150D01*
X351772D01*
X356890D02*
X362992Y122047D01*
X364173D01*
X351772Y128150D02*
X356890D01*
X362852Y11811D02*
X364173D01*
X356553Y5512D02*
X362852Y11811D01*
X303543Y5512D02*
X356553D01*
X18110D02*
X303543D01*
X187008Y92520D02*
X212598D01*
X159449Y40945D02*
X185039D01*
D23*
X360236Y64961D02*
D03*
X13780D02*
D03*
D24*
X351772Y128150D02*
D03*
X68701Y127756D02*
D03*
X303543Y5512D02*
D03*
X18110D02*
D03*
X187008Y92520D02*
D03*
X212598D02*
D03*
X185039Y40945D02*
D03*
X159449D02*
D03*
D25*
X364173Y11811D02*
D03*
Y37402D02*
D03*
Y94488D02*
D03*
Y122047D02*
D03*
M02*
