G04*
G04 #@! TF.GenerationSoftware,Altium Limited,Altium Designer,19.1.8 (144)*
G04*
G04 Layer_Physical_Order=2*
G04 Layer_Color=16711680*
%FSLAX25Y25*%
%MOIN*%
G70*
G01*
G75*
%ADD14C,0.01000*%
%ADD15C,0.00787*%
%ADD41O,0.06496X0.02559*%
%ADD42R,0.02559X0.04724*%
%ADD44R,0.04134X0.03150*%
%ADD45R,0.04331X0.03937*%
%ADD46R,0.04724X0.02559*%
%ADD48R,0.07480X0.05906*%
%ADD49R,0.03937X0.04331*%
%ADD50R,0.03150X0.04134*%
%ADD53R,0.03347X0.01575*%
%ADD58C,0.07874*%
%ADD59C,0.04724*%
%ADD60R,0.04724X0.04724*%
%ADD61C,0.27559*%
%ADD62C,0.02362*%
%ADD63R,0.05512X0.01772*%
%ADD64R,0.04724X0.01575*%
%ADD65R,0.01700X0.05900*%
%ADD66R,0.06102X0.05906*%
%ADD67R,0.05197X0.04252*%
%ADD68R,0.05906X0.07480*%
%ADD69R,0.07284X0.05709*%
%ADD70R,0.04331X0.03150*%
%ADD71R,0.03150X0.02165*%
%ADD72R,0.02165X0.03150*%
G36*
X143662Y2007D02*
X2007D01*
Y218465D01*
X143662D01*
Y2007D01*
D02*
G37*
%LPC*%
G36*
X55905Y201423D02*
X55214Y201285D01*
X54628Y200894D01*
X54445Y200620D01*
X37913D01*
X37528Y200544D01*
X37203Y200326D01*
X5747Y168870D01*
X5530Y168545D01*
X5453Y168161D01*
Y47370D01*
X5530Y46986D01*
X5747Y46661D01*
X11385Y41023D01*
X11711Y40805D01*
X11865Y40774D01*
Y37717D01*
X21346D01*
Y40729D01*
X26165D01*
Y37614D01*
X35646D01*
Y40729D01*
X40942D01*
Y37614D01*
X50423D01*
Y40729D01*
X55094D01*
X55295Y40243D01*
X55768Y39626D01*
X56385Y39153D01*
X57103Y38855D01*
X57874Y38754D01*
X58645Y38855D01*
X59363Y39153D01*
X59980Y39626D01*
X60453Y40243D01*
X60751Y40962D01*
X60852Y41732D01*
X60751Y42503D01*
X60453Y43221D01*
X59980Y43838D01*
X59363Y44311D01*
X58645Y44609D01*
X57874Y44710D01*
X57103Y44609D01*
X56385Y44311D01*
X55768Y43838D01*
X55295Y43221D01*
X55094Y42736D01*
X52031D01*
X51935Y43236D01*
X52158Y43385D01*
X57395Y48622D01*
X60827D01*
Y54527D01*
X54921D01*
Y48986D01*
X51033Y45098D01*
X50407D01*
Y52862D01*
X40958D01*
Y49929D01*
X35630D01*
Y52862D01*
X26982D01*
X26791Y53324D01*
X32896Y59430D01*
X46358D01*
X46742Y59506D01*
X47068Y59724D01*
X54755Y67410D01*
X55216Y67219D01*
Y63386D01*
X59900D01*
X61398Y61888D01*
Y45079D01*
X61474Y44695D01*
X61692Y44369D01*
X63072Y42989D01*
X62871Y42503D01*
X62770Y41732D01*
X62871Y40962D01*
X63169Y40243D01*
X63642Y39626D01*
X64259Y39153D01*
X64977Y38855D01*
X65748Y38754D01*
X66519Y38855D01*
X67237Y39153D01*
X67854Y39626D01*
X68327Y40243D01*
X68625Y40962D01*
X68726Y41732D01*
X68625Y42503D01*
X68327Y43221D01*
X67854Y43838D01*
X67237Y44311D01*
X66519Y44609D01*
X65748Y44710D01*
X64977Y44609D01*
X64492Y44408D01*
X63405Y45494D01*
Y62303D01*
X63329Y62687D01*
X63111Y63013D01*
X61319Y64805D01*
Y67719D01*
X61781Y67910D01*
X65847Y63845D01*
Y60146D01*
X69980D01*
Y65264D01*
X67266D01*
X61319Y71210D01*
Y74409D01*
X55216D01*
Y70710D01*
X45943Y61437D01*
X32480D01*
X32096Y61360D01*
X31771Y61143D01*
X23945Y53317D01*
X23622Y53381D01*
X22931Y53244D01*
X22345Y52852D01*
X21953Y52266D01*
X21912Y52059D01*
X21373Y51910D01*
X21330Y51957D01*
Y52965D01*
X17645D01*
Y55587D01*
X19193D01*
Y60705D01*
X13091D01*
Y58158D01*
X13060D01*
X12676Y58081D01*
X12350Y57864D01*
X12095Y57609D01*
X11633Y57800D01*
Y85433D01*
X15961D01*
Y90551D01*
X9859D01*
Y86641D01*
X9703Y86408D01*
X9626Y86024D01*
Y56341D01*
X9337Y56130D01*
X8838Y56330D01*
Y144458D01*
X9338Y144725D01*
X9409Y144677D01*
Y140476D01*
X12685D01*
Y136803D01*
X10984D01*
Y133260D01*
X16299D01*
Y133346D01*
X16799Y133553D01*
X18196Y132157D01*
X18521Y131939D01*
X18905Y131863D01*
X19197D01*
X19630Y131701D01*
Y130413D01*
X22303D01*
X24976D01*
Y131701D01*
X24961D01*
Y133260D01*
X24961D01*
Y136803D01*
X24450D01*
X24298Y137303D01*
X24301Y137305D01*
X24693Y137891D01*
X24830Y138583D01*
X24693Y139274D01*
X24301Y139860D01*
X24027Y140043D01*
Y141453D01*
X25000D01*
Y143996D01*
X25016D01*
Y145283D01*
X21654D01*
Y146283D01*
X25016D01*
Y147571D01*
X25000D01*
Y150114D01*
X23860D01*
X23593Y150614D01*
X23671Y150731D01*
X23808Y151422D01*
X23671Y152114D01*
X23279Y152700D01*
X22693Y153091D01*
X22002Y153229D01*
X21310Y153091D01*
X20725Y152700D01*
X20333Y152114D01*
X20195Y151422D01*
X20333Y150731D01*
X20411Y150614D01*
X20144Y150114D01*
X18307D01*
Y148930D01*
X18037Y148876D01*
X17712Y148658D01*
X16613Y147560D01*
X16396Y147234D01*
X16319Y146850D01*
Y137295D01*
X16299Y136803D01*
X15819Y136803D01*
X14693D01*
Y140476D01*
X15709D01*
Y146169D01*
X15724D01*
Y148638D01*
X12559D01*
Y149138D01*
X12059D01*
Y152106D01*
X10216D01*
Y165154D01*
X10500Y165387D01*
X11191Y165524D01*
X11777Y165916D01*
X12169Y166502D01*
X12306Y167193D01*
X12242Y167516D01*
X22766Y178040D01*
X27264D01*
Y176484D01*
X32899D01*
X33182Y176484D01*
X33391Y176063D01*
X33097Y175697D01*
X27264D01*
Y170579D01*
X29311D01*
Y168020D01*
X27165D01*
Y162327D01*
X27150D01*
Y159858D01*
X33480D01*
Y162327D01*
X33465D01*
Y163119D01*
X37121D01*
X37541Y162490D01*
X38290Y161990D01*
X38856Y161877D01*
Y161367D01*
X38290Y161255D01*
X37541Y160754D01*
X37041Y160005D01*
X36865Y159122D01*
X37041Y158239D01*
X37541Y157490D01*
X38290Y156990D01*
X39173Y156814D01*
X40138D01*
Y154969D01*
X40031Y154514D01*
X37365D01*
Y151545D01*
X36865D01*
Y151045D01*
X33700D01*
Y148577D01*
X33716D01*
Y146787D01*
X32480D01*
Y147555D01*
X32480D01*
Y150114D01*
X30137D01*
Y151969D01*
X30061Y152352D01*
X29844Y152678D01*
X21082Y161439D01*
Y164394D01*
X21356Y164577D01*
X21748Y165163D01*
X21885Y165854D01*
X21748Y166546D01*
X21356Y167132D01*
X20770Y167523D01*
X20079Y167661D01*
X19387Y167523D01*
X18801Y167132D01*
X18410Y166546D01*
X18272Y165854D01*
X18410Y165163D01*
X18801Y164577D01*
X19075Y164394D01*
Y161024D01*
X19152Y160640D01*
X19369Y160314D01*
X28130Y151553D01*
Y150114D01*
X25787D01*
Y146571D01*
X25787D01*
Y144996D01*
X25787D01*
Y141453D01*
X28130D01*
Y139862D01*
X26280D01*
Y134744D01*
X32382D01*
Y139862D01*
X30137D01*
Y141453D01*
X32480D01*
Y144012D01*
X32480D01*
Y144780D01*
X33716D01*
Y142884D01*
X35964D01*
X36051Y142768D01*
X36185Y142384D01*
X35867Y141908D01*
X35730Y141217D01*
X35867Y140525D01*
X36259Y139939D01*
X36533Y139756D01*
Y132604D01*
X32898Y128969D01*
X32398Y129176D01*
Y130898D01*
X29831D01*
Y128823D01*
X32044D01*
X32251Y128323D01*
X32216Y128288D01*
X31999Y127962D01*
X31922Y127578D01*
Y118179D01*
X31999Y117795D01*
X32216Y117470D01*
X33942Y115744D01*
Y113827D01*
X33445Y113557D01*
X33061Y113634D01*
X22654D01*
Y115976D01*
X18126D01*
Y109283D01*
X22654D01*
Y111626D01*
X32646D01*
X33942Y110330D01*
Y108491D01*
X32394Y106943D01*
X32361Y106921D01*
X17597Y92158D01*
X17380Y91832D01*
X17304Y91448D01*
Y77450D01*
X17380Y77065D01*
X17597Y76740D01*
X18866Y75472D01*
X19192Y75254D01*
X19576Y75178D01*
X73106D01*
X73490Y75254D01*
X73816Y75472D01*
X75616Y77272D01*
X79315D01*
Y81358D01*
X79752Y81545D01*
X80102Y81256D01*
Y77272D01*
X81969D01*
Y75008D01*
X82045Y74624D01*
X82117Y74516D01*
X81988Y74016D01*
X81988D01*
Y71309D01*
X81475Y70796D01*
X81277Y70499D01*
X76041Y65264D01*
X73327D01*
Y60146D01*
X77461D01*
Y63845D01*
X81488Y67872D01*
X81988Y67665D01*
Y62992D01*
X82363D01*
Y54926D01*
X81932Y54496D01*
X81496Y54553D01*
X80725Y54452D01*
X80007Y54154D01*
X79390Y53681D01*
X78917Y53064D01*
X78619Y52346D01*
X78518Y51575D01*
X78619Y50804D01*
X78917Y50086D01*
X79361Y49507D01*
X79391Y49431D01*
X79401Y49150D01*
X79344Y48874D01*
X74879Y44408D01*
X74393Y44609D01*
X73622Y44710D01*
X72851Y44609D01*
X72133Y44311D01*
X71516Y43838D01*
X71043Y43221D01*
X70745Y42503D01*
X70644Y41732D01*
X70745Y40962D01*
X71043Y40243D01*
X71516Y39626D01*
X72133Y39153D01*
X72851Y38855D01*
X73622Y38754D01*
X74393Y38855D01*
X75111Y39153D01*
X75728Y39626D01*
X76201Y40243D01*
X76499Y40962D01*
X76600Y41732D01*
X76499Y42503D01*
X76298Y42989D01*
X80534Y47225D01*
X84862D01*
X85069Y46725D01*
X82753Y44408D01*
X82267Y44609D01*
X81496Y44710D01*
X80725Y44609D01*
X80007Y44311D01*
X79390Y43838D01*
X78917Y43221D01*
X78619Y42503D01*
X78518Y41732D01*
X78619Y40962D01*
X78917Y40243D01*
X79390Y39626D01*
X80007Y39153D01*
X80725Y38855D01*
X81496Y38754D01*
X82267Y38855D01*
X82985Y39153D01*
X83602Y39626D01*
X84075Y40243D01*
X84373Y40962D01*
X84474Y41732D01*
X84373Y42503D01*
X84172Y42989D01*
X86636Y45453D01*
X112281D01*
X116437Y41297D01*
Y37598D01*
X122736D01*
Y42717D01*
X117856D01*
X113406Y47166D01*
X113081Y47384D01*
X112697Y47460D01*
X98102D01*
X97895Y47960D01*
X105140Y55205D01*
X115945D01*
Y54142D01*
X121063D01*
Y58276D01*
X118326D01*
Y62705D01*
X121161D01*
Y67823D01*
X115059D01*
Y62705D01*
X116319D01*
Y58276D01*
X115945D01*
Y57212D01*
X105728D01*
Y79882D01*
X105651Y80266D01*
X105434Y80591D01*
X99950Y86075D01*
Y89774D01*
X93848D01*
Y84656D01*
X98531D01*
X103721Y79466D01*
Y56624D01*
X96328Y49232D01*
X84050D01*
X83804Y49732D01*
X84075Y50086D01*
X84373Y50804D01*
X84474Y51575D01*
X84373Y52346D01*
X84075Y53064D01*
X83756Y53480D01*
X84076Y53801D01*
X84293Y54126D01*
X84370Y54510D01*
Y62992D01*
X88090D01*
Y68110D01*
X82528D01*
X82328Y68567D01*
X82592Y68898D01*
X88090D01*
Y74016D01*
X85384D01*
X83976Y75424D01*
Y77272D01*
X85220D01*
Y82877D01*
X86999Y84656D01*
X91682D01*
Y89774D01*
X85580D01*
Y86075D01*
X82879Y83374D01*
X80825D01*
X75694Y88505D01*
X75368Y88722D01*
X74984Y88799D01*
X70224D01*
X63894Y95130D01*
Y105582D01*
X64167Y105765D01*
X64559Y106351D01*
X64697Y107042D01*
X64559Y107733D01*
X64167Y108319D01*
X63581Y108711D01*
X63256Y108776D01*
X63091Y109318D01*
X69305Y115532D01*
X70223D01*
X70490Y115032D01*
X70378Y114865D01*
X70241Y114173D01*
X70378Y113482D01*
X70770Y112896D01*
X70847Y112845D01*
Y92930D01*
X70376Y92616D01*
X69985Y92030D01*
X69847Y91339D01*
X69985Y90647D01*
X70376Y90061D01*
X70962Y89670D01*
X71653Y89532D01*
X72345Y89670D01*
X72931Y90061D01*
X73322Y90647D01*
X73460Y91339D01*
X73322Y92030D01*
X72931Y92616D01*
X72854Y92667D01*
Y112582D01*
X73325Y112896D01*
X73716Y113482D01*
X73854Y114173D01*
X73716Y114865D01*
X73604Y115032D01*
X73871Y115532D01*
X76099D01*
X76282Y115258D01*
X76868Y114867D01*
X77559Y114729D01*
X78250Y114867D01*
X78836Y115258D01*
X79228Y115844D01*
X79365Y116535D01*
X79228Y117227D01*
X78950Y117643D01*
X79004Y117774D01*
X79330Y117991D01*
X90459Y129121D01*
X90921Y128929D01*
Y127648D01*
X90170D01*
X89786Y127571D01*
X89460Y127354D01*
X85117Y123011D01*
X84900Y122685D01*
X84823Y122301D01*
Y108529D01*
X84900Y108145D01*
X85117Y107819D01*
X86383Y106553D01*
Y105826D01*
X83839D01*
Y106487D01*
X83855D01*
Y108955D01*
X80690D01*
X77524D01*
Y106487D01*
X77540D01*
Y100794D01*
X78588D01*
Y98727D01*
X77934D01*
Y93034D01*
X77918D01*
Y90565D01*
X84249D01*
Y93034D01*
X84682Y93196D01*
X85580D01*
Y90561D01*
X91682D01*
Y95679D01*
X85580D01*
Y95203D01*
X84233D01*
Y98727D01*
X80595D01*
Y100794D01*
X83839D01*
Y103819D01*
X86383D01*
Y101673D01*
X97997D01*
Y102638D01*
X102230D01*
Y100689D01*
X102604D01*
Y98819D01*
X102033D01*
Y95295D01*
X99950D01*
Y95679D01*
X93848D01*
Y90561D01*
X99950D01*
Y93288D01*
X101584D01*
X102017Y93126D01*
Y90658D01*
X105182D01*
X108348D01*
Y93126D01*
X108332D01*
Y98819D01*
X104611D01*
Y100689D01*
X108529D01*
Y106382D01*
X108545D01*
Y108850D01*
X102214D01*
Y106382D01*
X102230D01*
Y104645D01*
X97997D01*
Y106553D01*
X101065Y109621D01*
X101282Y109946D01*
X101359Y110330D01*
Y122710D01*
X102189D01*
Y128415D01*
X102651Y128607D01*
X110808Y120450D01*
Y99098D01*
X110534Y98915D01*
X110142Y98329D01*
X110005Y97638D01*
X110142Y96947D01*
X110534Y96360D01*
X110808Y96178D01*
Y76976D01*
X110884Y76592D01*
X111101Y76267D01*
X115059Y72309D01*
Y68610D01*
X121161D01*
Y73728D01*
X116478D01*
X112815Y77392D01*
Y96178D01*
X113088Y96360D01*
X113480Y96947D01*
X113617Y97638D01*
X113480Y98329D01*
X113088Y98915D01*
X112815Y99098D01*
Y120866D01*
Y132773D01*
Y148101D01*
X113285Y148416D01*
X113677Y149002D01*
X113814Y149693D01*
X113677Y150384D01*
X113605Y150492D01*
X113872Y150992D01*
X113878Y150992D01*
X120276D01*
Y155520D01*
X118720D01*
Y163098D01*
X120374D01*
Y168217D01*
X114272D01*
Y163098D01*
X116713D01*
Y155520D01*
X113583D01*
Y151372D01*
X113583Y151356D01*
X113507Y151318D01*
X113083Y151105D01*
X112699Y151362D01*
X112008Y151499D01*
X111685Y151435D01*
X108850Y154270D01*
X109041Y154732D01*
X110039D01*
Y159260D01*
X103347D01*
Y154732D01*
X105744D01*
X105766Y154624D01*
X105983Y154298D01*
X108040Y152242D01*
X107849Y151779D01*
X103347D01*
Y151232D01*
X101026D01*
X100875Y151732D01*
X101001Y151816D01*
X101393Y152402D01*
X101530Y153094D01*
X101393Y153785D01*
X101001Y154371D01*
X100727Y154554D01*
Y161521D01*
X115691Y176484D01*
X116319D01*
Y174122D01*
X114272D01*
Y169004D01*
X120374D01*
Y170560D01*
X124705D01*
Y167602D01*
X124689D01*
Y164150D01*
X132791D01*
Y167602D01*
X132776D01*
Y174673D01*
X124705D01*
Y172566D01*
X120374D01*
Y174122D01*
X118326D01*
Y176484D01*
X120374D01*
Y181602D01*
X114272D01*
Y177903D01*
X99014Y162646D01*
X98797Y162321D01*
X98720Y161936D01*
Y154554D01*
X98447Y154371D01*
X98055Y153785D01*
X97918Y153094D01*
X98055Y152402D01*
X98447Y151816D01*
X98573Y151732D01*
X98422Y151232D01*
X89838D01*
X89454Y151155D01*
X89128Y150938D01*
X85115Y146925D01*
X84654Y147117D01*
Y150228D01*
X78551D01*
Y146529D01*
X77243Y145221D01*
X76745Y145375D01*
X76386Y145734D01*
Y149835D01*
X70452D01*
X70223Y150227D01*
X70432Y150606D01*
X72835D01*
Y153181D01*
Y155756D01*
X70609D01*
X70268Y155756D01*
X70109Y156190D01*
Y162787D01*
X72728D01*
Y165756D01*
X73228D01*
Y166256D01*
X76394D01*
Y168724D01*
X76378D01*
Y170953D01*
X81791D01*
Y169398D01*
X87894D01*
Y174516D01*
X85846D01*
Y177764D01*
X87992D01*
Y183866D01*
X82874D01*
Y177764D01*
X83839D01*
Y174516D01*
X81791D01*
Y172960D01*
X76378D01*
Y174417D01*
X70079D01*
Y173051D01*
X68324D01*
X67594Y173781D01*
X67663Y174122D01*
X67487Y175005D01*
X66986Y175754D01*
X66238Y176254D01*
X65354Y176430D01*
X61417D01*
X60534Y176254D01*
X59785Y175754D01*
X59285Y175005D01*
X59109Y174122D01*
X59285Y173239D01*
X59785Y172490D01*
X60534Y171990D01*
X61100Y171877D01*
Y171367D01*
X60534Y171255D01*
X59785Y170754D01*
X59365Y170126D01*
X45162D01*
X44742Y170754D01*
X43993Y171255D01*
X43468Y171359D01*
Y171869D01*
X44000Y171975D01*
X44754Y172479D01*
X45257Y173233D01*
X45335Y173622D01*
X41142D01*
X36948D01*
X37026Y173233D01*
X37530Y172479D01*
X38284Y171975D01*
X38816Y171869D01*
Y171359D01*
X38290Y171255D01*
X37541Y170754D01*
X37041Y170005D01*
X36865Y169122D01*
X37041Y168239D01*
X37541Y167490D01*
X38290Y166990D01*
X38856Y166877D01*
Y166367D01*
X38290Y166254D01*
X37541Y165754D01*
X37121Y165126D01*
X33465D01*
Y168020D01*
X31319D01*
Y170579D01*
X33366D01*
Y173104D01*
X38400Y178138D01*
X76968D01*
Y177764D01*
X82087D01*
Y183866D01*
X76968D01*
Y180145D01*
X37984D01*
X37600Y180069D01*
X37275Y179851D01*
X33837Y176414D01*
X33366Y176650D01*
X33366Y176916D01*
Y181602D01*
X27264D01*
Y180047D01*
X22418D01*
X22296Y180207D01*
X22188Y180524D01*
X33968Y192304D01*
X59162D01*
X59546Y192380D01*
X59871Y192597D01*
X64351Y197077D01*
X64674Y197012D01*
X65365Y197150D01*
X65951Y197542D01*
X66343Y198128D01*
X66480Y198819D01*
X66343Y199510D01*
X65951Y200096D01*
X65365Y200488D01*
X64674Y200625D01*
X63982Y200488D01*
X63396Y200096D01*
X63005Y199510D01*
X62867Y198819D01*
X62932Y198496D01*
X58746Y194311D01*
X34679D01*
X34488Y194773D01*
X38328Y198613D01*
X54445D01*
X54628Y198339D01*
X55214Y197948D01*
X55905Y197810D01*
X56597Y197948D01*
X57183Y198339D01*
X57574Y198925D01*
X57712Y199617D01*
X57574Y200308D01*
X57183Y200894D01*
X56597Y201285D01*
X55905Y201423D01*
D02*
G37*
G36*
X120390Y187524D02*
X117823D01*
Y185449D01*
X120390D01*
Y187524D01*
D02*
G37*
G36*
X116823D02*
X114256D01*
Y185449D01*
X116823D01*
Y187524D01*
D02*
G37*
G36*
X120390Y184449D02*
X117823D01*
Y182374D01*
X120390D01*
Y184449D01*
D02*
G37*
G36*
X116823D02*
X114256D01*
Y182374D01*
X116823D01*
Y184449D01*
D02*
G37*
G36*
X43110Y176446D02*
X41642D01*
Y174622D01*
X45335D01*
X45257Y175012D01*
X44754Y175766D01*
X44000Y176269D01*
X43110Y176446D01*
D02*
G37*
G36*
X40642D02*
X39173D01*
X38284Y176269D01*
X37530Y175766D01*
X37026Y175012D01*
X36948Y174622D01*
X40642D01*
Y176446D01*
D02*
G37*
G36*
X87909Y168626D02*
X85343D01*
Y166551D01*
X87909D01*
Y168626D01*
D02*
G37*
G36*
X84342D02*
X81776D01*
Y166551D01*
X84342D01*
Y168626D01*
D02*
G37*
G36*
X87909Y165551D02*
X85343D01*
Y163476D01*
X87909D01*
Y165551D01*
D02*
G37*
G36*
X84342D02*
X81776D01*
Y163476D01*
X84342D01*
Y165551D01*
D02*
G37*
G36*
X76394Y165256D02*
X73728D01*
Y162787D01*
X76394D01*
Y165256D01*
D02*
G37*
G36*
X132791Y163150D02*
X129240D01*
Y159697D01*
X132791D01*
Y163150D01*
D02*
G37*
G36*
X128240D02*
X124689D01*
Y159697D01*
X128240D01*
Y163150D01*
D02*
G37*
G36*
X33480Y158858D02*
X30815D01*
Y156390D01*
X33480D01*
Y158858D01*
D02*
G37*
G36*
X29815D02*
X27150D01*
Y156390D01*
X29815D01*
Y158858D01*
D02*
G37*
G36*
X72834Y160861D02*
X72143Y160724D01*
X71557Y160332D01*
X71166Y159746D01*
X71028Y159055D01*
X71166Y158363D01*
X71557Y157778D01*
X72143Y157386D01*
X72834Y157248D01*
X73526Y157386D01*
X74112Y157778D01*
X74295Y158051D01*
X90419D01*
X90947Y157524D01*
X90882Y157201D01*
X91020Y156509D01*
X91411Y155923D01*
X91997Y155532D01*
X92689Y155394D01*
X93380Y155532D01*
X93966Y155923D01*
X94358Y156509D01*
X94495Y157201D01*
X94358Y157892D01*
X93966Y158478D01*
X93380Y158870D01*
X92689Y159007D01*
X92366Y158943D01*
X91544Y159764D01*
X91219Y159982D01*
X90835Y160058D01*
X74295D01*
X74112Y160332D01*
X73526Y160724D01*
X72834Y160861D01*
D02*
G37*
G36*
X84669Y156150D02*
X82102D01*
Y154075D01*
X84669D01*
Y156150D01*
D02*
G37*
G36*
X81102D02*
X78535D01*
Y154075D01*
X81102D01*
Y156150D01*
D02*
G37*
G36*
X73835Y155756D02*
Y153681D01*
X76402D01*
Y155756D01*
X73835D01*
D02*
G37*
G36*
X36365Y154514D02*
X33700D01*
Y152045D01*
X36365D01*
Y154514D01*
D02*
G37*
G36*
X84669Y153075D02*
X82102D01*
Y151000D01*
X84669D01*
Y153075D01*
D02*
G37*
G36*
X81102D02*
X78535D01*
Y151000D01*
X81102D01*
Y153075D01*
D02*
G37*
G36*
X76402Y152681D02*
X73835D01*
Y150606D01*
X76402D01*
Y152681D01*
D02*
G37*
G36*
X15724Y152106D02*
X13059D01*
Y149638D01*
X15724D01*
Y152106D01*
D02*
G37*
G36*
X138992Y152579D02*
X134752D01*
Y149127D01*
X138992D01*
Y152579D01*
D02*
G37*
G36*
X133752D02*
X129512D01*
Y149127D01*
X133752D01*
Y152579D01*
D02*
G37*
G36*
X138992Y148127D02*
X134752D01*
Y144674D01*
X138992D01*
Y148127D01*
D02*
G37*
G36*
X133752D02*
X129512D01*
Y144674D01*
X133752D01*
Y148127D01*
D02*
G37*
G36*
X138976Y140753D02*
X129528D01*
Y135260D01*
X123602D01*
X123392Y135765D01*
X122667Y136711D01*
X121721Y137437D01*
X120619Y137893D01*
X119438Y138049D01*
X118256Y137893D01*
X117154Y137437D01*
X116209Y136711D01*
X115483Y135765D01*
X115026Y134664D01*
X114871Y133482D01*
X115026Y132300D01*
X115483Y131199D01*
X116209Y130253D01*
X117154Y129527D01*
X118256Y129071D01*
X119438Y128915D01*
X120619Y129071D01*
X121721Y129527D01*
X122667Y130253D01*
X123392Y131199D01*
X123849Y132300D01*
X123974Y133253D01*
X129528D01*
Y132879D01*
X132424D01*
Y127839D01*
X131063D01*
Y121619D01*
X138228D01*
Y127839D01*
X134431D01*
Y132879D01*
X138976D01*
Y140753D01*
D02*
G37*
G36*
X32398Y133972D02*
X29831D01*
Y131898D01*
X32398D01*
Y133972D01*
D02*
G37*
G36*
X28831D02*
X26264D01*
Y131898D01*
X28831D01*
Y133972D01*
D02*
G37*
G36*
Y130898D02*
X26264D01*
Y128823D01*
X28831D01*
Y130898D01*
D02*
G37*
G36*
X24976Y129413D02*
X22803D01*
Y128126D01*
X24976D01*
Y129413D01*
D02*
G37*
G36*
X21803D02*
X19630D01*
Y128126D01*
X21803D01*
Y129413D01*
D02*
G37*
G36*
X83855Y112424D02*
X81190D01*
Y109955D01*
X83855D01*
Y112424D01*
D02*
G37*
G36*
X80190D02*
X77524D01*
Y109955D01*
X80190D01*
Y112424D01*
D02*
G37*
G36*
X108545Y112319D02*
X105879D01*
Y109850D01*
X108545D01*
Y112319D01*
D02*
G37*
G36*
X104879D02*
X102214D01*
Y109850D01*
X104879D01*
Y112319D01*
D02*
G37*
G36*
X16299Y131685D02*
X10984D01*
Y128142D01*
X11792D01*
Y125098D01*
X10130D01*
Y118996D01*
X13963D01*
X14154Y118534D01*
X13086Y117466D01*
X12868Y117140D01*
X12792Y116756D01*
Y115976D01*
X10646D01*
Y109283D01*
X15174D01*
Y115976D01*
X15127D01*
X14935Y116476D01*
X17455Y118996D01*
X21154D01*
Y125098D01*
X16035D01*
Y120418D01*
X15685Y120128D01*
X15248Y120315D01*
Y125098D01*
X13799D01*
Y128142D01*
X16299D01*
Y131685D01*
D02*
G37*
G36*
X119438Y118049D02*
X118256Y117893D01*
X117154Y117437D01*
X116209Y116711D01*
X115483Y115765D01*
X115026Y114664D01*
X114871Y113482D01*
X115026Y112300D01*
X115483Y111199D01*
X116209Y110253D01*
X117154Y109527D01*
X118256Y109071D01*
X119438Y108915D01*
X120619Y109071D01*
X121721Y109527D01*
X122667Y110253D01*
X123392Y111199D01*
X123849Y112300D01*
X124004Y113482D01*
X123849Y114664D01*
X123392Y115765D01*
X122667Y116711D01*
X121721Y117437D01*
X120619Y117893D01*
X119438Y118049D01*
D02*
G37*
G36*
X123909Y108091D02*
X120457D01*
Y103851D01*
X123909D01*
Y108091D01*
D02*
G37*
G36*
Y102851D02*
X120457D01*
Y98611D01*
X123909D01*
Y102851D01*
D02*
G37*
G36*
X18914Y105740D02*
X14386D01*
Y100466D01*
X12200Y98281D01*
X11983Y97955D01*
X11906Y97571D01*
Y96457D01*
X9859D01*
Y91339D01*
X15961D01*
Y96457D01*
X13913D01*
Y97155D01*
X15805Y99047D01*
X18914D01*
Y105740D01*
D02*
G37*
G36*
X108348Y89657D02*
X105682D01*
Y87189D01*
X108348D01*
Y89657D01*
D02*
G37*
G36*
X104682D02*
X102017D01*
Y87189D01*
X104682D01*
Y89657D01*
D02*
G37*
G36*
X84249Y89565D02*
X81583D01*
Y87097D01*
X84249D01*
Y89565D01*
D02*
G37*
G36*
X80584D02*
X77918D01*
Y87097D01*
X80584D01*
Y89565D01*
D02*
G37*
G36*
X73736Y73941D02*
X72154D01*
Y71866D01*
X73736D01*
Y73941D01*
D02*
G37*
G36*
X71153D02*
X69571D01*
Y71866D01*
X71153D01*
Y73941D01*
D02*
G37*
G36*
X73736Y70866D02*
X72154D01*
Y68791D01*
X73736D01*
Y70866D01*
D02*
G37*
G36*
X71153D02*
X69571D01*
Y68791D01*
X71153D01*
Y70866D01*
D02*
G37*
G36*
X19209Y66626D02*
X16642D01*
Y64551D01*
X19209D01*
Y66626D01*
D02*
G37*
G36*
X15642D02*
X13075D01*
Y64551D01*
X15642D01*
Y66626D01*
D02*
G37*
G36*
X19209Y63551D02*
X16642D01*
Y61476D01*
X19209D01*
Y63551D01*
D02*
G37*
G36*
X15642D02*
X13075D01*
Y61476D01*
X15642D01*
Y63551D01*
D02*
G37*
G36*
X112417Y54551D02*
X110343D01*
Y52969D01*
X112417D01*
Y54551D01*
D02*
G37*
G36*
X109343D02*
X107268D01*
Y52969D01*
X109343D01*
Y54551D01*
D02*
G37*
G36*
X112417Y51968D02*
X110343D01*
Y50386D01*
X112417D01*
Y51968D01*
D02*
G37*
G36*
X109343D02*
X107268D01*
Y50386D01*
X109343D01*
Y51968D01*
D02*
G37*
G36*
X121079Y50811D02*
X119004D01*
Y49228D01*
X121079D01*
Y50811D01*
D02*
G37*
G36*
X118004D02*
X115929D01*
Y49228D01*
X118004D01*
Y50811D01*
D02*
G37*
G36*
X121079Y48228D02*
X119004D01*
Y46646D01*
X121079D01*
Y48228D01*
D02*
G37*
G36*
X118004D02*
X115929D01*
Y46646D01*
X118004D01*
Y48228D01*
D02*
G37*
G36*
X89370Y44710D02*
X88599Y44609D01*
X87881Y44311D01*
X87264Y43838D01*
X86791Y43221D01*
X86493Y42503D01*
X86392Y41732D01*
X86493Y40962D01*
X86791Y40243D01*
X87264Y39626D01*
X87881Y39153D01*
X88599Y38855D01*
X89370Y38754D01*
X90141Y38855D01*
X90859Y39153D01*
X91476Y39626D01*
X91949Y40243D01*
X92247Y40962D01*
X92348Y41732D01*
X92247Y42503D01*
X91949Y43221D01*
X91476Y43838D01*
X90859Y44311D01*
X90141Y44609D01*
X89370Y44710D01*
D02*
G37*
G36*
X128347Y129575D02*
X127655Y129437D01*
X127069Y129046D01*
X126678Y128460D01*
X126540Y127768D01*
X126678Y127077D01*
X127069Y126491D01*
X127540Y126177D01*
Y108091D01*
X124909D01*
Y103351D01*
Y98611D01*
X127540D01*
Y41535D01*
X127616Y41151D01*
X127834Y40826D01*
X129212Y39448D01*
X129537Y39230D01*
X129921Y39154D01*
X130020D01*
Y37598D01*
X136319D01*
Y42717D01*
X134862D01*
Y58472D01*
X138484D01*
Y66150D01*
X129547D01*
Y70284D01*
X138484D01*
Y77961D01*
X134874D01*
Y98627D01*
X140157D01*
Y108075D01*
X134914D01*
Y112445D01*
X138228D01*
Y118666D01*
X131063D01*
Y112445D01*
X132907D01*
Y108075D01*
X132283D01*
Y98627D01*
X132867D01*
Y77961D01*
X129547D01*
Y126440D01*
X129624Y126491D01*
X130015Y127077D01*
X130153Y127768D01*
X130015Y128460D01*
X129624Y129046D01*
X129038Y129437D01*
X128347Y129575D01*
D02*
G37*
G36*
X21346Y36717D02*
X17106D01*
Y33265D01*
X21346D01*
Y36717D01*
D02*
G37*
G36*
X16105D02*
X11865D01*
Y33265D01*
X16105D01*
Y36717D01*
D02*
G37*
G36*
X35646Y36614D02*
X31405D01*
Y33161D01*
X35646D01*
Y36614D01*
D02*
G37*
G36*
X30406D02*
X26165D01*
Y33161D01*
X30406D01*
Y36614D01*
D02*
G37*
G36*
X50423Y36614D02*
X46183D01*
Y33161D01*
X50423D01*
Y36614D01*
D02*
G37*
G36*
X45183D02*
X40942D01*
Y33161D01*
X45183D01*
Y36614D01*
D02*
G37*
%LPD*%
G36*
X59785Y167490D02*
X60534Y166990D01*
X61101Y166877D01*
Y166367D01*
X60534Y166254D01*
X59785Y165754D01*
X59285Y165005D01*
X59109Y164122D01*
X59257Y163381D01*
X42607Y146731D01*
X42145Y146923D01*
Y156814D01*
X43110D01*
X43993Y156990D01*
X44742Y157490D01*
X45243Y158239D01*
X45418Y159122D01*
X45243Y160005D01*
X44742Y160754D01*
X43993Y161255D01*
X43427Y161367D01*
Y161877D01*
X43993Y161990D01*
X44742Y162490D01*
X45243Y163239D01*
X45418Y164122D01*
X45243Y165005D01*
X44742Y165754D01*
X43993Y166254D01*
X43427Y166367D01*
Y166877D01*
X43993Y166990D01*
X44742Y167490D01*
X45162Y168119D01*
X59365D01*
X59785Y167490D01*
D02*
G37*
G36*
X103347Y147252D02*
X110039D01*
Y148423D01*
X110524Y148586D01*
X110808Y148324D01*
Y144217D01*
X108374D01*
Y141248D01*
X107874D01*
Y140748D01*
X104709D01*
Y138279D01*
X104724D01*
Y136596D01*
X104224Y136565D01*
X101815Y138974D01*
Y139910D01*
X102189D01*
Y147779D01*
X97105D01*
Y147794D01*
X95755D01*
Y143844D01*
Y139894D01*
X96852D01*
Y138352D01*
X90905Y132405D01*
X90363Y132570D01*
X90300Y132884D01*
X89909Y133470D01*
X89323Y133862D01*
X88631Y133999D01*
X87940Y133862D01*
X87354Y133470D01*
X87171Y133196D01*
X86614D01*
Y134039D01*
X86630D01*
Y136508D01*
X83465D01*
Y137008D01*
X82965D01*
Y139976D01*
X81658D01*
X81467Y140438D01*
X90253Y149225D01*
X103347D01*
Y147252D01*
D02*
G37*
G36*
X75374Y143907D02*
Y134668D01*
X74871Y134165D01*
X74410Y134356D01*
Y136622D01*
X74410D01*
Y139181D01*
X67586D01*
X67395Y139643D01*
X69815Y142063D01*
X70033Y142389D01*
X70109Y142773D01*
Y144289D01*
X70284Y144717D01*
X74565D01*
X75374Y143907D01*
D02*
G37*
G36*
X59250Y159828D02*
X59109Y159122D01*
X59285Y158239D01*
X59785Y157490D01*
X60534Y156990D01*
X61417Y156814D01*
X62382D01*
Y153945D01*
X58661D01*
Y149459D01*
X52727Y143524D01*
X52660Y143568D01*
X51968Y143706D01*
X51277Y143568D01*
X50691Y143177D01*
X50300Y142591D01*
X50162Y141900D01*
X50300Y141208D01*
X50691Y140622D01*
X51277Y140231D01*
X51968Y140093D01*
X52660Y140231D01*
X53246Y140622D01*
X53637Y141208D01*
X53734Y141692D01*
X58184Y146142D01*
X58646Y145951D01*
Y145783D01*
X64976D01*
Y148252D01*
X64961D01*
Y153945D01*
X64389D01*
Y156814D01*
X65354D01*
X66238Y156990D01*
X66986Y157490D01*
X67487Y158239D01*
X67602Y158818D01*
X68102Y158769D01*
Y143188D01*
X58988Y134074D01*
X57759D01*
X57576Y134348D01*
X56990Y134739D01*
X56864Y134765D01*
X56769Y135042D01*
X56728Y135301D01*
X57088Y135840D01*
X57226Y136531D01*
X57088Y137223D01*
X56697Y137809D01*
X56111Y138200D01*
X55419Y138338D01*
X54728Y138200D01*
X54142Y137809D01*
X53750Y137223D01*
X53613Y136531D01*
X53677Y136208D01*
X51643Y134174D01*
X51181Y134366D01*
Y135425D01*
X51197D01*
Y136811D01*
X47441D01*
Y137311D01*
X46941D01*
Y139197D01*
X43685D01*
X43523Y139630D01*
Y144809D01*
X58789Y160074D01*
X59250Y159828D01*
D02*
G37*
G36*
X66929Y138524D02*
Y135441D01*
X66506Y135256D01*
X66159Y135187D01*
X65834Y134969D01*
X61281Y130417D01*
X59728D01*
X59545Y130691D01*
X58959Y131082D01*
X58268Y131220D01*
X57577Y131082D01*
X56990Y130691D01*
X56599Y130105D01*
X56461Y129413D01*
X56511Y129165D01*
X56050Y128919D01*
X54625Y130343D01*
X54300Y130561D01*
X53916Y130637D01*
X51181D01*
Y131682D01*
X51573D01*
X51957Y131758D01*
X52283Y131975D01*
X54133Y133826D01*
X54594Y133580D01*
X54493Y133071D01*
X54630Y132379D01*
X55022Y131793D01*
X55608Y131402D01*
X56299Y131264D01*
X56990Y131402D01*
X57576Y131793D01*
X57759Y132067D01*
X59404D01*
X59787Y132143D01*
X60113Y132361D01*
X66467Y138715D01*
X66929Y138524D01*
D02*
G37*
G36*
X99808Y138559D02*
X99884Y138175D01*
X100102Y137849D01*
X103121Y134830D01*
X103447Y134612D01*
X103831Y134536D01*
X104724D01*
Y132587D01*
X110578D01*
X110808Y132357D01*
Y123942D01*
X110346Y123751D01*
X101478Y132618D01*
X101153Y132836D01*
X100769Y132912D01*
X99098D01*
X98915Y133186D01*
X98329Y133577D01*
X97638Y133715D01*
X96947Y133577D01*
X96360Y133186D01*
X95969Y132600D01*
X95831Y131909D01*
X95969Y131217D01*
X96062Y131079D01*
X95794Y130579D01*
X94589D01*
Y130579D01*
X92570D01*
X92379Y131041D01*
X98565Y137226D01*
X98782Y137552D01*
X98859Y137936D01*
Y139910D01*
X99808D01*
Y138559D01*
D02*
G37*
G36*
X56217Y125914D02*
X56153Y125591D01*
X56290Y124899D01*
X56682Y124313D01*
X57243Y123938D01*
X57305Y123877D01*
X57416Y123404D01*
X56972Y122960D01*
X51181D01*
Y125205D01*
Y128630D01*
X53500D01*
X56217Y125914D01*
D02*
G37*
G36*
X66929Y125205D02*
X66929D01*
Y123827D01*
X66929D01*
Y121082D01*
X58639D01*
X58432Y121582D01*
X62921Y126071D01*
X66929D01*
Y125205D01*
D02*
G37*
G36*
X43701Y120087D02*
X50960D01*
X51167Y119587D01*
X36411Y104830D01*
X35949Y105022D01*
Y108075D01*
Y110746D01*
Y116160D01*
Y119389D01*
X36387Y119827D01*
X36616Y119805D01*
X37202Y119413D01*
X37894Y119276D01*
X38585Y119413D01*
X39171Y119805D01*
X39562Y120391D01*
X39700Y121082D01*
X39562Y121774D01*
X39171Y122360D01*
X38585Y122751D01*
X37894Y122889D01*
X37730Y122856D01*
X37402Y123301D01*
X37516Y123512D01*
X43701D01*
Y120087D01*
D02*
G37*
G36*
X90921Y125269D02*
Y122710D01*
X93421D01*
Y122710D01*
X93928D01*
X94118Y122210D01*
X90313Y118405D01*
X86830D01*
Y121886D01*
X90421Y125476D01*
X90921Y125269D01*
D02*
G37*
G36*
X99352Y118606D02*
Y110746D01*
X96578Y107972D01*
X87802D01*
X86830Y108945D01*
Y112303D01*
X91732D01*
Y116984D01*
X92083Y117273D01*
X92520Y117087D01*
Y112303D01*
X97638D01*
Y116986D01*
X98565Y117913D01*
X98782Y118239D01*
X98859Y118623D01*
X99352Y118606D01*
D02*
G37*
G36*
X67599Y118613D02*
X53740Y104754D01*
X53422Y104862D01*
X53262Y104984D01*
Y112319D01*
X53536Y112502D01*
X53928Y113088D01*
X54065Y113779D01*
X53928Y114471D01*
X53536Y115057D01*
X52950Y115448D01*
X52259Y115586D01*
X51568Y115448D01*
X50982Y115057D01*
X50590Y114471D01*
X50453Y113779D01*
X50590Y113088D01*
X50982Y112502D01*
X51255Y112319D01*
Y105332D01*
X44910Y98986D01*
X44587Y99050D01*
X43895Y98913D01*
X43309Y98521D01*
X42918Y97935D01*
X42780Y97244D01*
X42918Y96553D01*
X43162Y96188D01*
X42895Y95688D01*
X41849D01*
X41583Y96188D01*
X41826Y96553D01*
X41964Y97244D01*
X41826Y97935D01*
X41435Y98521D01*
X41161Y98704D01*
Y101689D01*
X41435Y101872D01*
X41826Y102458D01*
X41964Y103149D01*
X41826Y103841D01*
X41435Y104427D01*
X40849Y104818D01*
X40157Y104956D01*
X40063Y104937D01*
X39817Y105398D01*
X53494Y119075D01*
X67408D01*
X67599Y118613D01*
D02*
G37*
G36*
X30570Y101708D02*
X30631Y101646D01*
X31006Y101085D01*
X31280Y100902D01*
Y96449D01*
X31356Y96065D01*
X31574Y95740D01*
X33339Y93975D01*
X33664Y93757D01*
X34048Y93681D01*
X43962D01*
X44153Y93219D01*
X33434Y82500D01*
X21933D01*
X21750Y82773D01*
X21164Y83165D01*
X20472Y83302D01*
X19811Y83171D01*
X19723Y83170D01*
X19311Y83426D01*
Y91032D01*
X30097Y101819D01*
X30570Y101708D01*
D02*
G37*
G36*
X61156Y106677D02*
X61221Y106351D01*
X61613Y105765D01*
X61887Y105582D01*
Y94714D01*
X61963Y94330D01*
X62181Y94004D01*
X69099Y87086D01*
X69425Y86868D01*
X69809Y86792D01*
X74569D01*
X77524Y83836D01*
X77333Y83374D01*
X74197D01*
Y78691D01*
X72691Y77185D01*
X19991D01*
X19311Y77865D01*
Y79566D01*
X19723Y79822D01*
X19811Y79821D01*
X20472Y79690D01*
X21164Y79827D01*
X21750Y80219D01*
X21933Y80493D01*
X33849D01*
X34234Y80569D01*
X34559Y80787D01*
X60614Y106841D01*
X61156Y106677D01*
D02*
G37*
%LPC*%
G36*
X92255Y147794D02*
X90905D01*
Y144344D01*
X92255D01*
Y147794D01*
D02*
G37*
G36*
X107374Y144217D02*
X104709D01*
Y141748D01*
X107374D01*
Y144217D01*
D02*
G37*
G36*
X94755Y147794D02*
X93255D01*
Y143844D01*
Y139894D01*
X94755D01*
Y143844D01*
Y147794D01*
D02*
G37*
G36*
X92255Y143344D02*
X90905D01*
Y139894D01*
X92255D01*
Y143344D01*
D02*
G37*
G36*
X86630Y139976D02*
X83965D01*
Y137508D01*
X86630D01*
Y139976D01*
D02*
G37*
G36*
X64976Y144783D02*
X62311D01*
Y142315D01*
X64976D01*
Y144783D01*
D02*
G37*
G36*
X61311D02*
X58646D01*
Y142315D01*
X61311D01*
Y144783D01*
D02*
G37*
G36*
X47941Y139197D02*
Y137811D01*
X51197D01*
Y139197D01*
X47941D01*
D02*
G37*
%LPD*%
G36*
X132855Y42717D02*
X130020D01*
Y42717D01*
X129547Y42782D01*
Y58472D01*
X132855D01*
Y42717D01*
D02*
G37*
D14*
X0Y220472D02*
X145669D01*
X-0D02*
X0Y0D01*
X145669Y220472D02*
X145669Y0D01*
X0D02*
X145669D01*
D15*
X44488Y127120D02*
X47396D01*
X42171D02*
X44488D01*
X42520Y129088D02*
X44488Y127120D01*
X42520Y129088D02*
Y145224D01*
X82972Y75008D02*
Y80323D01*
X74984Y87795D02*
X82661Y80118D01*
X82185Y70087D02*
X85039Y72941D01*
X69809Y87795D02*
X74984D01*
X62890Y94714D02*
X69809Y87795D01*
X62890Y94714D02*
Y107042D01*
X106693Y155008D02*
X112008Y149693D01*
X111811Y132773D02*
Y149617D01*
X106693Y155008D02*
Y156996D01*
X109045Y135539D02*
X111811Y132773D01*
X59162Y193307D02*
X64674Y198819D01*
X33552Y193307D02*
X59162D01*
X7835Y167590D02*
X33552Y193307D01*
X13060Y57154D02*
X15150D01*
X10630Y54724D02*
X13060Y57154D01*
X15150D02*
X16142Y58146D01*
X16642Y57646D01*
Y49065D02*
Y57646D01*
X16605Y49028D02*
X16642Y49065D01*
X10630Y54724D02*
Y86024D01*
X119438Y133482D02*
X120212Y134256D01*
X131693D01*
X133427Y135991D01*
X134252Y136816D01*
X133427Y125947D02*
Y135991D01*
Y125947D02*
X134646Y124729D01*
X127913Y171563D02*
X128740Y170736D01*
X117323Y171563D02*
X127913D01*
X18307Y91448D02*
X33071Y106212D01*
X34945Y108075D02*
Y110746D01*
Y101945D02*
Y108075D01*
X33071Y106201D02*
X34945Y108075D01*
Y110746D02*
Y116160D01*
X33061Y112630D02*
X34945Y110746D01*
X20390Y112630D02*
X33061D01*
X36223Y121082D02*
X37894D01*
X34945Y119805D02*
X36223Y121082D01*
X34945Y116160D02*
Y119805D01*
X32926Y118179D02*
X34945Y116160D01*
X32926Y118179D02*
Y127578D01*
X37536Y132188D01*
X34945Y96850D02*
Y101945D01*
X53079Y120079D01*
X77846D01*
X88631Y130863D01*
X45089Y94684D02*
X69106Y118701D01*
X78620D01*
X82661Y80323D02*
Y81737D01*
Y80118D02*
Y80323D01*
X85039Y71457D02*
Y72941D01*
Y71457D02*
X85039Y71457D01*
X88139Y87215D02*
X88631D01*
X82661Y81737D02*
X88139Y87215D01*
X79592Y97266D02*
X82658Y94199D01*
X87552D02*
X88631Y93120D01*
X82658Y94199D02*
X87552D01*
X96899Y93120D02*
X98070Y94291D01*
X103608D01*
X105182Y95866D01*
X104724Y56209D02*
Y79882D01*
X97391Y87215D02*
X104724Y79882D01*
X96899Y87215D02*
X97391D01*
X96744Y48228D02*
X104724Y56209D01*
X80118Y48228D02*
X96744D01*
X73622Y41732D02*
X80118Y48228D01*
X111811Y76976D02*
X117618Y71169D01*
X112697Y46457D02*
X118996Y40157D01*
X86221Y46457D02*
X112697D01*
X81496Y41732D02*
X86221Y46457D01*
X129921Y40157D02*
X133169D01*
X128543Y41535D02*
X129921Y40157D01*
X128543Y41535D02*
Y127571D01*
X111811Y97638D02*
Y120866D01*
Y76976D02*
Y97638D01*
Y120866D02*
Y132773D01*
X117717Y153256D02*
X118012D01*
X29134Y148343D02*
Y151969D01*
X20079Y161024D02*
X29134Y151969D01*
X20079Y161024D02*
Y165854D01*
X90835Y159055D02*
X92689Y157201D01*
X72834Y159055D02*
X90835D01*
X34889Y124516D02*
X35483D01*
Y123921D02*
X35551Y123854D01*
X36812Y145783D02*
X36865Y145836D01*
X29134Y145783D02*
X36812D01*
X37536Y132188D02*
Y141217D01*
Y145165D01*
X36865Y145836D02*
X37536Y145165D01*
X17323Y134449D02*
Y146850D01*
Y134449D02*
X18905Y132866D01*
X17323Y146850D02*
X18421Y147949D01*
X52259Y104916D02*
Y113779D01*
X40157Y97244D02*
X40157Y97244D01*
X40157Y97244D02*
Y103149D01*
X30906Y48925D02*
X45683D01*
X30906Y48925D02*
X30906Y48925D01*
X16709Y48925D02*
X30906D01*
X16605Y49028D02*
X16709Y48925D01*
X30906D02*
X30906Y48925D01*
X12689Y122047D02*
X12795Y122153D01*
Y129520D01*
X13189Y129913D02*
X13642D01*
X12795Y129520D02*
X13189Y129913D01*
X18595Y121555D02*
Y122047D01*
X13796Y116756D02*
X18595Y121555D01*
X13796Y113516D02*
Y116756D01*
X78620Y118701D02*
X97855Y137936D01*
Y143844D01*
X12910Y112630D02*
X13796Y113516D01*
X79331Y139721D02*
X89838Y150228D01*
X79331Y130424D02*
Y139721D01*
X89838Y150228D02*
X105980D01*
X106693Y149516D01*
X99724Y153094D02*
Y161936D01*
X116831Y179043D01*
X103831Y135539D02*
X107874D01*
X100811Y138559D02*
X103831Y135539D01*
X100811Y138559D02*
Y141288D01*
X22350Y179043D02*
X30315D01*
X10500Y167193D02*
X22350Y179043D01*
X23024Y138583D02*
Y142831D01*
Y135425D02*
Y138583D01*
X51573Y132685D02*
X55419Y136531D01*
X47933Y132685D02*
X51573D01*
X33071Y106201D02*
Y106212D01*
X20472Y81496D02*
X33849D01*
X68889Y116535D01*
X23622Y51575D02*
X32480Y60433D01*
X46358D01*
X57776Y71850D01*
X133910Y114820D02*
X134646Y115556D01*
X133910Y105163D02*
Y114820D01*
Y105163D02*
X135971Y103102D01*
X136221Y103351D01*
X133871Y101001D02*
X135722Y102853D01*
X133871Y74134D02*
Y101001D01*
X133858Y74122D02*
X133871Y74134D01*
X128347Y127768D02*
X128543Y127571D01*
X10630Y86024D02*
X12598Y87992D01*
X7835Y47941D02*
Y167590D01*
X6457Y47370D02*
Y168161D01*
Y47370D02*
X12095Y41732D01*
X6457Y168161D02*
X37913Y199617D01*
X7835Y47941D02*
X11681Y44094D01*
X12095Y41732D02*
X57874D01*
X51449Y44094D02*
X57874Y50520D01*
X11681Y44094D02*
X51449D01*
X57776Y71850D02*
X58268D01*
X18307Y77450D02*
Y91448D01*
Y77450D02*
X19576Y76181D01*
X73106D01*
X57874Y50520D02*
Y51575D01*
X9213Y165905D02*
X10500Y167193D01*
X9213Y146680D02*
Y165905D01*
X37913Y199617D02*
X55905D01*
X118996Y40157D02*
X119587D01*
X62402Y45079D02*
X65748Y41732D01*
X62402Y45079D02*
Y62303D01*
X58760Y65945D02*
X62402Y62303D01*
X58268Y65945D02*
X58760D01*
X81496Y51575D02*
Y52640D01*
X83366Y54510D01*
Y64370D01*
X84547Y65551D01*
X85039D01*
X37984Y179142D02*
X78346D01*
X41142Y169122D02*
X63386D01*
X61417Y164122D02*
X63386D01*
X42520Y145224D02*
X61417Y164122D01*
X53916Y129634D02*
X57959Y125591D01*
X47441Y129634D02*
X53916D01*
X62506Y127075D02*
X70669D01*
X57388Y121957D02*
X62506Y127075D01*
X47441Y121957D02*
X57388D01*
X44587Y97244D02*
X52259Y104916D01*
X73106Y76181D02*
X76756Y79831D01*
X34048Y94684D02*
X45089D01*
X32283Y96449D02*
X34048Y94684D01*
X32283Y96449D02*
Y102362D01*
X68889Y116535D02*
X77559D01*
X88631Y130863D02*
Y132193D01*
X72646Y172047D02*
X73228Y171465D01*
X67909Y172047D02*
X72646D01*
X65834Y174122D02*
X67909Y172047D01*
X69106Y142773D02*
Y167902D01*
X67886Y169122D02*
X69106Y167902D01*
X63386Y169122D02*
X67886D01*
X59404Y133071D02*
X69106Y142773D01*
X107874Y135539D02*
X109045D01*
X18905Y132866D02*
X21910D01*
X18421Y147949D02*
X21260D01*
X21654Y148343D02*
X22002Y148691D01*
X21260Y147949D02*
X21654Y148343D01*
X34889Y124381D02*
X35416Y123854D01*
X35483Y124516D02*
X47441D01*
X35483D02*
Y127617D01*
Y123921D02*
Y124516D01*
Y127617D02*
X41142Y133276D01*
Y159122D01*
X41800Y126749D02*
X42171Y127120D01*
X47396D02*
X47441Y127075D01*
X12464Y143429D02*
X12559D01*
X9213Y146680D02*
X12464Y143429D01*
X22002Y148691D02*
Y151422D01*
X22630Y143224D02*
X23024Y142831D01*
X21654Y143224D02*
X22630D01*
X29134D02*
X29134Y143224D01*
X29134Y137500D02*
Y143224D01*
Y137500D02*
X29331Y137303D01*
X21910Y132866D02*
X22303Y132472D01*
X12559Y143429D02*
X13689Y142299D01*
Y135079D02*
Y142299D01*
X13642Y135031D02*
X13689Y135079D01*
X73914Y125008D02*
X79331Y130424D01*
X73032Y125008D02*
X73914D01*
X73425Y147276D02*
X76378Y144323D01*
Y134252D02*
Y144323D01*
X74811Y132685D02*
X76378Y134252D01*
X77953Y144512D02*
X81110Y147669D01*
X77953Y132299D02*
Y144512D01*
X75779Y130126D02*
X77953Y132299D01*
X71161Y130126D02*
X75779D01*
X71161Y132685D02*
X74811D01*
X73335Y147276D02*
X73425D01*
X70669Y132193D02*
X71161Y132685D01*
X81110Y147669D02*
X81602D01*
X70669Y129634D02*
X71161Y130126D01*
X83465Y127953D02*
Y131299D01*
X77961Y122449D02*
X83465Y127953D01*
X71161Y122449D02*
X77961D01*
X70669Y121957D02*
X71161Y122449D01*
X84358Y132193D02*
X88631D01*
X83465Y131299D02*
X84358Y132193D01*
X100769Y131909D02*
X111811Y120866D01*
X97638Y131909D02*
X100769D01*
X90170Y126644D02*
X92755D01*
X85827Y122301D02*
X90170Y126644D01*
X85827Y108529D02*
Y122301D01*
X80690Y103746D02*
X81766Y104823D01*
X79592Y102649D02*
X80690Y103746D01*
X85827Y108529D02*
X89336Y105020D01*
X22630Y135031D02*
X23024Y135425D01*
X117717Y153551D02*
Y165657D01*
Y153551D02*
X118012Y153256D01*
X116929D02*
X117717D01*
X117323Y171563D02*
Y179043D01*
Y165657D02*
X117717D01*
X117323Y179043D02*
X117323Y179043D01*
X58419Y71850D02*
X59600Y70669D01*
X60441D01*
X67913Y63197D01*
Y62705D02*
Y63197D01*
X104724Y56209D02*
X118012D01*
X35416Y123854D02*
X35551D01*
X61697Y129413D02*
X66543Y134260D01*
X58268Y129413D02*
X61697D01*
X56299Y133071D02*
X59404D01*
X79592Y97266D02*
Y102649D01*
X81766Y104823D02*
X89336D01*
X133858Y40846D02*
Y62311D01*
X133169Y40157D02*
X133858Y40846D01*
X31980Y173138D02*
X37984Y179142D01*
X30315Y173138D02*
X31980D01*
X100355Y141744D02*
X100811Y141288D01*
X72840Y124816D02*
X73032Y125008D01*
X47441Y132193D02*
X47933Y132685D01*
X66543Y134260D02*
X70177D01*
X103608Y102854D02*
X104395Y103642D01*
X103608Y97441D02*
Y102854D01*
Y97441D02*
X105182Y95866D01*
X96226Y103642D02*
X104395D01*
X105379D01*
X100355Y141744D02*
Y143844D01*
X95255Y121928D02*
Y126644D01*
X89173Y115846D02*
X95255Y121928D01*
X89173Y115354D02*
Y115846D01*
X89336Y104823D02*
Y105020D01*
X95045Y104823D02*
X96226Y103642D01*
X95045Y104823D02*
Y105020D01*
X100355Y110330D01*
Y126644D01*
X97855Y118623D02*
Y126644D01*
X95079Y115847D02*
X97855Y118623D01*
X95079Y115354D02*
Y115847D01*
X70177Y134260D02*
X70669Y134752D01*
Y124516D02*
X71161Y125008D01*
X22303Y135031D02*
X22630D01*
X71850Y113976D02*
X72047Y114173D01*
X71850Y91535D02*
Y113976D01*
X71653Y91339D02*
X71850Y91535D01*
X84842Y180224D02*
X85433Y180815D01*
X84842Y171957D02*
Y180224D01*
X79527Y180323D02*
Y180815D01*
X78346Y179142D02*
X79527Y180323D01*
X73721Y171957D02*
X84842D01*
X73228Y171465D02*
X73721Y171957D01*
X116831Y179043D02*
X117323D01*
X12910Y93898D02*
Y97571D01*
X16650Y101311D01*
Y102394D01*
X76756Y79831D02*
Y80323D01*
X12598Y87992D02*
X12910D01*
X82972Y75008D02*
X85039Y72941D01*
X117618Y71169D02*
X118110D01*
X52823Y142201D02*
X61614Y150992D01*
X61614D01*
X63386Y174122D02*
X65834D01*
X31260Y164122D02*
X41142D01*
X30315Y165067D02*
X31260Y164122D01*
X30315Y165067D02*
Y173138D01*
X63386Y169122D02*
X63386Y169122D01*
Y152567D02*
Y159122D01*
X61811Y150992D02*
X63386Y152567D01*
X75394Y62705D02*
Y63197D01*
X82185Y69988D01*
Y70087D01*
X118012Y56209D02*
X118504D01*
X117323Y56898D02*
X118012Y56209D01*
X117323Y56898D02*
Y64476D01*
X118110Y65264D01*
D41*
X41142Y159122D02*
D03*
Y164122D02*
D03*
Y169122D02*
D03*
Y174122D02*
D03*
X63386Y159122D02*
D03*
Y164122D02*
D03*
Y169122D02*
D03*
Y174122D02*
D03*
D42*
X12910Y112630D02*
D03*
X20390Y112630D02*
D03*
X16650Y102394D02*
D03*
D44*
X58268Y71850D02*
D03*
Y65945D02*
D03*
X85039Y71457D02*
D03*
Y65551D02*
D03*
X84842Y171957D02*
D03*
X84842Y166051D02*
D03*
X30315Y179043D02*
D03*
Y173138D02*
D03*
X29331Y137303D02*
D03*
X29331Y131398D02*
D03*
X12910Y93898D02*
D03*
Y87992D02*
D03*
X73335Y153181D02*
D03*
Y147276D02*
D03*
X81602Y153575D02*
D03*
Y147669D02*
D03*
X117323Y165657D02*
D03*
Y171563D02*
D03*
X117323Y179043D02*
D03*
X117323Y184949D02*
D03*
X88631Y93120D02*
D03*
Y87215D02*
D03*
X96899Y93120D02*
D03*
Y87215D02*
D03*
X118110Y71169D02*
D03*
Y65264D02*
D03*
X16142Y58146D02*
D03*
Y64051D02*
D03*
D45*
X73228Y171465D02*
D03*
Y165756D02*
D03*
X30315Y159358D02*
D03*
Y165067D02*
D03*
X36865Y151545D02*
D03*
X36865Y145836D02*
D03*
X12559Y143429D02*
D03*
Y149138D02*
D03*
X83465Y137008D02*
D03*
Y131299D02*
D03*
X61811Y145283D02*
D03*
Y150992D02*
D03*
X107874Y141248D02*
D03*
Y135539D02*
D03*
X80690Y109455D02*
D03*
Y103746D02*
D03*
X81084Y90065D02*
D03*
Y95774D02*
D03*
X105379Y103642D02*
D03*
Y109350D02*
D03*
X105182Y95866D02*
D03*
X105182Y90158D02*
D03*
D46*
X106693Y149516D02*
D03*
Y156996D02*
D03*
X116929Y153256D02*
D03*
D48*
X134252Y136816D02*
D03*
X134252Y148627D02*
D03*
X16605Y49028D02*
D03*
Y37217D02*
D03*
X30906Y48925D02*
D03*
Y37114D02*
D03*
X45683Y48925D02*
D03*
Y37114D02*
D03*
D49*
X95045Y104823D02*
D03*
X89336D02*
D03*
D50*
X79527Y180815D02*
D03*
X85433D02*
D03*
X18595Y122047D02*
D03*
X12689D02*
D03*
X95079Y115354D02*
D03*
X89173Y115354D02*
D03*
X76756Y80323D02*
D03*
X82661D02*
D03*
D53*
X22303Y135031D02*
D03*
X22303Y132472D02*
D03*
X22303Y129913D02*
D03*
X13642D02*
D03*
Y135031D02*
D03*
D58*
X119438Y113482D02*
D03*
Y123482D02*
D03*
Y133482D02*
D03*
D59*
X57874Y41732D02*
D03*
X65748D02*
D03*
X73622D02*
D03*
X81496D02*
D03*
X89370D02*
D03*
Y51575D02*
D03*
X81496D02*
D03*
X73622D02*
D03*
X65748D02*
D03*
D60*
X57874D02*
D03*
D61*
X127953Y202756D02*
D03*
X17717D02*
D03*
X127953Y17717D02*
D03*
X17717D02*
D03*
D62*
X59055Y204725D02*
D03*
X66929D02*
D03*
X74803D02*
D03*
X82677D02*
D03*
X70866Y196851D02*
D03*
X78740D02*
D03*
X86614D02*
D03*
X92913Y136614D02*
D03*
X82677Y15748D02*
D03*
X43307Y62992D02*
D03*
X7874Y39370D02*
D03*
X122047Y141732D02*
D03*
X35433Y204725D02*
D03*
X133858Y181103D02*
D03*
X122047Y157480D02*
D03*
X43307Y188977D02*
D03*
X90551Y31496D02*
D03*
X137795Y94488D02*
D03*
X17815Y151629D02*
D03*
X55118Y23622D02*
D03*
X31496Y7874D02*
D03*
X66929Y15748D02*
D03*
X86614Y23622D02*
D03*
X39370Y7874D02*
D03*
X137795Y110236D02*
D03*
X78740Y7874D02*
D03*
X35433Y15748D02*
D03*
X74803Y31496D02*
D03*
X59926Y137678D02*
D03*
X35433Y188977D02*
D03*
X47244Y212598D02*
D03*
X44234Y82677D02*
D03*
X137795Y188977D02*
D03*
X110236Y212598D02*
D03*
X20279Y71260D02*
D03*
X11633Y101819D02*
D03*
X62992Y23622D02*
D03*
X31496Y70866D02*
D03*
X137795Y31496D02*
D03*
X23622Y86614D02*
D03*
X59055Y31496D02*
D03*
X70866Y7874D02*
D03*
X29429Y120473D02*
D03*
X62992Y7874D02*
D03*
X90551Y15748D02*
D03*
X82677Y31496D02*
D03*
X137795Y173228D02*
D03*
X55118Y7874D02*
D03*
X78740Y23622D02*
D03*
X94488Y39370D02*
D03*
X51181Y15748D02*
D03*
X31496Y212598D02*
D03*
X43307Y204725D02*
D03*
X110236Y7874D02*
D03*
Y23622D02*
D03*
X39370Y196851D02*
D03*
Y212598D02*
D03*
X125984Y181103D02*
D03*
X137795Y157480D02*
D03*
X74803Y15748D02*
D03*
X63169Y117028D02*
D03*
X114173Y31496D02*
D03*
X10646Y138715D02*
D03*
X106299Y31496D02*
D03*
X70866Y23622D02*
D03*
X66929Y31496D02*
D03*
X106299Y15748D02*
D03*
X44438Y106201D02*
D03*
X94488Y7874D02*
D03*
X43307Y15748D02*
D03*
X110236Y196851D02*
D03*
X39370Y23622D02*
D03*
X94488D02*
D03*
X59055Y15748D02*
D03*
X86614Y7874D02*
D03*
X74872Y111298D02*
D03*
X88074Y99369D02*
D03*
X81839Y114779D02*
D03*
X60454Y92728D02*
D03*
X96619Y168625D02*
D03*
X78921Y161893D02*
D03*
X112008Y149693D02*
D03*
X10630Y54724D02*
D03*
X111811Y97638D02*
D03*
X92689Y157201D02*
D03*
X37536Y141217D02*
D03*
X52259Y113779D02*
D03*
X40157Y103149D02*
D03*
X99724Y153094D02*
D03*
X55419Y136531D02*
D03*
X58268Y129413D02*
D03*
X20472Y81496D02*
D03*
X23622Y51575D02*
D03*
X128347Y127768D02*
D03*
X57959Y125591D02*
D03*
X40157Y97244D02*
D03*
X34945Y96850D02*
D03*
X44587Y97244D02*
D03*
X41800Y126749D02*
D03*
X22002Y151422D02*
D03*
X88631Y132193D02*
D03*
X23024Y138583D02*
D03*
X97638Y131909D02*
D03*
X55905Y199617D02*
D03*
X64674Y198819D02*
D03*
X35416Y123854D02*
D03*
X37894Y121082D02*
D03*
X56299Y133071D02*
D03*
X51968Y141900D02*
D03*
X72834Y159055D02*
D03*
X62890Y107042D02*
D03*
X20079Y165854D02*
D03*
X72047Y114173D02*
D03*
X32283Y102362D02*
D03*
X71653Y91339D02*
D03*
X77559Y116535D02*
D03*
X10500Y167193D02*
D03*
D63*
X47441Y121957D02*
D03*
Y124516D02*
D03*
Y127075D02*
D03*
Y129634D02*
D03*
Y132193D02*
D03*
Y134752D02*
D03*
Y137311D02*
D03*
X70669Y121957D02*
D03*
X70669Y124516D02*
D03*
X70669Y127075D02*
D03*
X70669Y129634D02*
D03*
X70669Y132193D02*
D03*
X70669Y134752D02*
D03*
X70669Y137311D02*
D03*
D64*
X21654Y143224D02*
D03*
Y145783D02*
D03*
Y148343D02*
D03*
X29134Y148343D02*
D03*
X29134Y145783D02*
D03*
X29134Y143224D02*
D03*
D65*
X100355Y126644D02*
D03*
X97855Y126644D02*
D03*
X95255D02*
D03*
X92755Y126644D02*
D03*
Y143844D02*
D03*
X95255D02*
D03*
X97855D02*
D03*
X100355D02*
D03*
D66*
X128740Y170736D02*
D03*
Y163650D02*
D03*
D67*
X134646Y115556D02*
D03*
X134646Y124729D02*
D03*
D68*
X136221Y103351D02*
D03*
X124409Y103351D02*
D03*
D69*
X133858Y62311D02*
D03*
Y74122D02*
D03*
D70*
X133169Y40157D02*
D03*
X119587D02*
D03*
D71*
X109843Y52469D02*
D03*
X118504Y48728D02*
D03*
X118504Y56209D02*
D03*
D72*
X71653Y71366D02*
D03*
X67913Y62705D02*
D03*
X75394D02*
D03*
M02*
