ISO-10303-21;
HEADER;
FILE_DESCRIPTION (( 'STEP AP203' ),
    '1' );
FILE_NAME ('middle_connection.STEP',
    '2022-01-06T14:18:03',
    ( '' ),
    ( '' ),
    'SwSTEP 2.0',
    'SolidWorks 2019',
    '' );
FILE_SCHEMA (( 'CONFIG_CONTROL_DESIGN' ));
ENDSEC;

DATA;
#1 = EDGE_CURVE ( 'NONE', #58, #310, #196, .T. ) ;
#2 = FACE_BOUND ( 'NONE', #105, .T. ) ;
#3 = ORIENTED_EDGE ( 'NONE', *, *, #204, .F. ) ;
#4 = VECTOR ( 'NONE', #207, 1000.000000000000000 ) ;
#5 = DATE_AND_TIME ( #271, #165 ) ;
#6 = ORIENTED_EDGE ( 'NONE', *, *, #47, .T. ) ;
#7 = DIRECTION ( 'NONE',  ( 0.000000000000000000, 0.000000000000000000, 1.000000000000000000 ) ) ;
#8 = ORIENTED_EDGE ( 'NONE', *, *, #274, .F. ) ;
#9 = APPROVAL_STATUS ( 'not_yet_approved' ) ;
#10 = EDGE_CURVE ( 'NONE', #311, #216, #305, .T. ) ;
#11 = ORIENTED_EDGE ( 'NONE', *, *, #1, .T. ) ;
#12 = AXIS2_PLACEMENT_3D ( 'NONE', #239, #241, #208 ) ;
#13 = PERSON_AND_ORGANIZATION_ROLE ( 'creator' ) ;
#14 = ORIENTED_EDGE ( 'NONE', *, *, #93, .F. ) ;
#15 = PRODUCT ( 'middle_connection', 'middle_connection', '', ( #183 ) ) ;
#16 = DIRECTION ( 'NONE',  ( 1.000000000000000000, 0.000000000000000000, 0.000000000000000000 ) ) ;
#17 = EDGE_LOOP ( 'NONE', ( #120, #159, #102, #337 ) ) ;
#18 = ADVANCED_FACE ( 'NONE', ( #258 ), #226, .F. ) ;
#19 = DIRECTION ( 'NONE',  ( 0.000000000000000000, 1.000000000000000000, 0.000000000000000000 ) ) ;
#20 = CYLINDRICAL_SURFACE ( 'NONE', #139, 2.000000000000000000 ) ;
#21 = AXIS2_PLACEMENT_3D ( 'NONE', #142, #161, #285 ) ;
#22 = CARTESIAN_POINT ( 'NONE',  ( 2.449293598294706414E-16, 0.000000000000000000, -2.000000000000000000 ) ) ;
#23 = DIRECTION ( 'NONE',  ( 0.000000000000000000, 0.000000000000000000, 1.000000000000000000 ) ) ;
#24 = EDGE_CURVE ( 'NONE', #310, #58, #191, .T. ) ;
#25 = CARTESIAN_POINT ( 'NONE',  ( 25.49999999999999645, 9.000000000000000000, 0.000000000000000000 ) ) ;
#26 = AXIS2_PLACEMENT_3D ( 'NONE', #25, #290, #341 ) ;
#27 =( GEOMETRIC_REPRESENTATION_CONTEXT ( 3 ) GLOBAL_UNCERTAINTY_ASSIGNED_CONTEXT ( ( #246 ) ) GLOBAL_UNIT_ASSIGNED_CONTEXT ( ( #74, #188, #336 ) ) REPRESENTATION_CONTEXT ( 'NONE', 'WORKASPACE' ) );
#28 = LINE ( 'NONE', #321, #119 ) ;
#29 = CARTESIAN_POINT ( 'NONE',  ( 8.999999999999998224, 9.000000000000000000, -4.000000000000001776 ) ) ;
#30 = DIRECTION ( 'NONE',  ( -1.000000000000000000, 0.000000000000000000, 9.637352644315595243E-17 ) ) ;
#31 = AXIS2_PLACEMENT_3D ( 'NONE', #349, #57, #117 ) ;
#32 = DIRECTION ( 'NONE',  ( 0.000000000000000000, 1.000000000000000000, 0.000000000000000000 ) ) ;
#33 = CC_DESIGN_PERSON_AND_ORGANIZATION_ASSIGNMENT ( #45, #247, ( #121 ) ) ;
#34 = CARTESIAN_POINT ( 'NONE',  ( 34.49999999999999289, 9.000000000000000000, 4.000000000000000888 ) ) ;
#35 = PERSON_AND_ORGANIZATION_ROLE ( 'classification_officer' ) ;
#36 = ORIENTED_EDGE ( 'NONE', *, *, #47, .F. ) ;
#37 = VECTOR ( 'NONE', #122, 1000.000000000000000 ) ;
#38 = CC_DESIGN_SECURITY_CLASSIFICATION ( #166, ( #121 ) ) ;
#39 = DIRECTION ( 'NONE',  ( -1.000000000000000000, 0.000000000000000000, 1.445602896647339410E-16 ) ) ;
#40 = VERTEX_POINT ( 'NONE', #260 ) ;
#41 = ADVANCED_FACE ( 'NONE', ( #257, #344, #112 ), #369, .T. ) ;
#42 = CALENDAR_DATE ( 2022, 6, 1 ) ;
#43 = CARTESIAN_POINT ( 'NONE',  ( -9.000000000000001776, 9.000000000000000000, 4.000000000000000888 ) ) ;
#44 = ORIENTED_EDGE ( 'NONE', *, *, #24, .F. ) ;
#45 = PERSON_AND_ORGANIZATION ( #70, #370 ) ;
#46 = ORIENTED_EDGE ( 'NONE', *, *, #52, .T. ) ;
#47 = EDGE_CURVE ( 'NONE', #381, #40, #199, .T. ) ;
#48 = EDGE_LOOP ( 'NONE', ( #136, #273, #6, #137 ) ) ;
#49 = CARTESIAN_POINT ( 'NONE',  ( -9.000000000000001776, 0.000000000000000000, -3.999999999999999112 ) ) ;
#50 = VECTOR ( 'NONE', #19, 1000.000000000000000 ) ;
#51 = DIRECTION ( 'NONE',  ( 0.000000000000000000, 1.000000000000000000, 0.000000000000000000 ) ) ;
#52 = EDGE_CURVE ( 'NONE', #238, #40, #288, .T. ) ;
#53 = CARTESIAN_POINT ( 'NONE',  ( 25.49999999999999645, -0.0009999999999992653654, 0.000000000000000000 ) ) ;
#54 = CARTESIAN_POINT ( 'NONE',  ( 34.49999999999999289, 9.000000000000000000, -3.999999999999999112 ) ) ;
#55 = CARTESIAN_POINT ( 'NONE',  ( -9.000000000000001776, 9.000000000000000000, 4.000000000000000888 ) ) ;
#56 = CARTESIAN_POINT ( 'NONE',  ( 25.49999999999999645, 9.000000000000000000, 2.000000000000000000 ) ) ;
#57 = DIRECTION ( 'NONE',  ( -0.000000000000000000, -1.000000000000000000, -0.000000000000000000 ) ) ;
#58 = VERTEX_POINT ( 'NONE', #200 ) ;
#59 = LINE ( 'NONE', #178, #315 ) ;
#60 = AXIS2_PLACEMENT_3D ( 'NONE', #126, #345, #30 ) ;
#61 = LOCAL_TIME ( 14, 18, 3.000000000000000000, #69 ) ;
#62 = FACE_OUTER_BOUND ( 'NONE', #160, .T. ) ;
#63 = ORIENTED_EDGE ( 'NONE', *, *, #281, .F. ) ;
#64 = PERSON_AND_ORGANIZATION ( #70, #370 ) ;
#65 = ORIENTED_EDGE ( 'NONE', *, *, #86, .T. ) ;
#66 = EDGE_CURVE ( 'NONE', #156, #245, #194, .T. ) ;
#67 = AXIS2_PLACEMENT_3D ( 'NONE', #181, #118, #146 ) ;
#68 = APPLICATION_CONTEXT ( 'configuration controlled 3d designs of mechanical parts and assemblies' ) ;
#69 = COORDINATED_UNIVERSAL_TIME_OFFSET ( 0, 0, .AHEAD. ) ;
#70 = PERSON ( 'UNSPECIFIED', 'UNSPECIFIED', 'UNSPECIFIED', ('UNSPECIFIED'), ('UNSPECIFIED'), ('UNSPECIFIED') ) ;
#71 = DIRECTION ( 'NONE',  ( -0.000000000000000000, -1.000000000000000000, -0.000000000000000000 ) ) ;
#72 = CARTESIAN_POINT ( 'NONE',  ( 8.999999999999998224, 9.000000000000000000, -4.000000000000001776 ) ) ;
#73 = ORIENTED_EDGE ( 'NONE', *, *, #219, .F. ) ;
#74 =( LENGTH_UNIT ( ) NAMED_UNIT ( * ) SI_UNIT ( .MILLI., .METRE. ) );
#75 = EDGE_CURVE ( 'NONE', #244, #310, #84, .T. ) ;
#76 = VERTEX_POINT ( 'NONE', #261 ) ;
#77 = CIRCLE ( 'NONE', #21, 2.000000000000000000 ) ;
#78 = EDGE_LOOP ( 'NONE', ( #254, #335, #3, #364 ) ) ;
#79 = DIRECTION ( 'NONE',  ( 0.000000000000000000, 0.000000000000000000, 1.000000000000000000 ) ) ;
#80 = APPROVAL_DATE_TIME ( #367, #182 ) ;
#81 = LINE ( 'NONE', #228, #302 ) ;
#82 = CC_DESIGN_PERSON_AND_ORGANIZATION_ASSIGNMENT ( #64, #157, ( #121 ) ) ;
#83 = FACE_OUTER_BOUND ( 'NONE', #78, .T. ) ;
#84 = LINE ( 'NONE', #320, #50 ) ;
#85 = CARTESIAN_POINT ( 'NONE',  ( 0.000000000000000000, 9.000000000000000000, 0.000000000000000000 ) ) ;
#86 = EDGE_CURVE ( 'NONE', #245, #153, #77, .T. ) ;
#87 = LINE ( 'NONE', #29, #37 ) ;
#88 = VERTEX_POINT ( 'NONE', #49 ) ;
#89 = AXIS2_PLACEMENT_3D ( 'NONE', #85, #144, #138 ) ;
#90 = FACE_OUTER_BOUND ( 'NONE', #357, .T. ) ;
#91 = ORIENTED_EDGE ( 'NONE', *, *, #86, .F. ) ;
#92 = CARTESIAN_POINT ( 'NONE',  ( 0.000000000000000000, -0.0009999999999992653654, 0.000000000000000000 ) ) ;
#93 = EDGE_CURVE ( 'NONE', #96, #156, #265, .T. ) ;
#94 = CARTESIAN_POINT ( 'NONE',  ( 0.000000000000000000, 0.000000000000000000, 0.000000000000000000 ) ) ;
#95 = FACE_OUTER_BOUND ( 'NONE', #378, .T. ) ;
#96 = VERTEX_POINT ( 'NONE', #164 ) ;
#97 = EDGE_LOOP ( 'NONE', ( #359, #133, #44, #131 ) ) ;
#98 = APPLICATION_PROTOCOL_DEFINITION ( 'international standard', 'config_control_design', 1994, #348 ) ;
#99 = ORIENTED_EDGE ( 'NONE', *, *, #229, .F. ) ;
#100 = APPROVAL_PERSON_ORGANIZATION ( #135, #158, #334 ) ;
#101 = PERSON_AND_ORGANIZATION_ROLE ( 'design_owner' ) ;
#102 = ORIENTED_EDGE ( 'NONE', *, *, #259, .T. ) ;
#103 = EDGE_CURVE ( 'NONE', #216, #40, #81, .T. ) ;
#104 = APPROVAL_DATE_TIME ( #217, #115 ) ;
#105 = EDGE_LOOP ( 'NONE', ( #177, #275 ) ) ;
#106 = PERSON_AND_ORGANIZATION ( #70, #370 ) ;
#107 = ORIENTED_EDGE ( 'NONE', *, *, #24, .T. ) ;
#108 = AXIS2_PLACEMENT_3D ( 'NONE', #53, #141, #23 ) ;
#109 = CARTESIAN_POINT ( 'NONE',  ( 25.49999999999999645, 0.000000000000000000, 0.000000000000000000 ) ) ;
#110 = CARTESIAN_POINT ( 'NONE',  ( 0.000000000000000000, 9.000000000000000000, 2.000000000000000000 ) ) ;
#111 = PRODUCT_DEFINITION ( 'UNKNOWN', '', #121, #187 ) ;
#112 = FACE_BOUND ( 'NONE', #192, .T. ) ;
#113 = CIRCLE ( 'NONE', #154, 2.000000000000000000 ) ;
#114 = DIRECTION ( 'NONE',  ( 0.000000000000000000, -1.000000000000000000, -0.000000000000000000 ) ) ;
#115 = APPROVAL ( #129, 'UNSPECIFIED' ) ;
#116 = CARTESIAN_POINT ( 'NONE',  ( 34.49999999999999289, 9.000000000000000000, 4.000000000000000888 ) ) ;
#117 = DIRECTION ( 'NONE',  ( 0.000000000000000000, 0.000000000000000000, 1.000000000000000000 ) ) ;
#118 = DIRECTION ( 'NONE',  ( -0.000000000000000000, 1.000000000000000000, -0.000000000000000000 ) ) ;
#119 = VECTOR ( 'NONE', #172, 1000.000000000000000 ) ;
#120 = ORIENTED_EDGE ( 'NONE', *, *, #66, .F. ) ;
#121 = PRODUCT_DEFINITION_FORMATION_WITH_SPECIFIED_SOURCE ( 'ANY', '', #15, .NOT_KNOWN. ) ;
#122 = DIRECTION ( 'NONE',  ( -1.000000000000000000, 0.000000000000000000, 1.445602896647339410E-16 ) ) ;
#123 = CC_DESIGN_PERSON_AND_ORGANIZATION_ASSIGNMENT ( #358, #101, ( #15 ) ) ;
#124 = DIRECTION ( 'NONE',  ( 0.000000000000000000, -0.000000000000000000, 1.000000000000000000 ) ) ;
#125 = ORIENTED_EDGE ( 'NONE', *, *, #75, .T. ) ;
#126 = CARTESIAN_POINT ( 'NONE',  ( 8.999999999999998224, 9.000000000000000000, 3.999999999999999112 ) ) ;
#127 = CIRCLE ( 'NONE', #171, 2.000000000000000000 ) ;
#128 = CC_DESIGN_APPROVAL ( #158, ( #121 ) ) ;
#129 = APPROVAL_STATUS ( 'not_yet_approved' ) ;
#130 = ORIENTED_EDGE ( 'NONE', *, *, #281, .T. ) ;
#131 = ORIENTED_EDGE ( 'NONE', *, *, #75, .F. ) ;
#132 = DATE_AND_TIME ( #42, #333 ) ;
#133 = ORIENTED_EDGE ( 'NONE', *, *, #274, .T. ) ;
#134 = AXIS2_PLACEMENT_3D ( 'NONE', #72, #278, #184 ) ;
#135 = PERSON_AND_ORGANIZATION ( #70, #370 ) ;
#136 = ORIENTED_EDGE ( 'NONE', *, *, #298, .F. ) ;
#137 = ORIENTED_EDGE ( 'NONE', *, *, #103, .F. ) ;
#138 = DIRECTION ( 'NONE',  ( 0.000000000000000000, -0.000000000000000000, 1.000000000000000000 ) ) ;
#139 = AXIS2_PLACEMENT_3D ( 'NONE', #314, #376, #79 ) ;
#140 = EDGE_CURVE ( 'NONE', #76, #88, #342, .T. ) ;
#141 = DIRECTION ( 'NONE',  ( 0.000000000000000000, 1.000000000000000000, 0.000000000000000000 ) ) ;
#142 = CARTESIAN_POINT ( 'NONE',  ( 0.000000000000000000, 9.000000000000000000, 0.000000000000000000 ) ) ;
#143 = CARTESIAN_POINT ( 'NONE',  ( 25.49999999999999645, 0.000000000000000000, -2.000000000000000000 ) ) ;
#144 = DIRECTION ( 'NONE',  ( 0.000000000000000000, 1.000000000000000000, 0.000000000000000000 ) ) ;
#145 = PLANE ( 'NONE',  #329 ) ;
#146 = DIRECTION ( 'NONE',  ( 0.000000000000000000, 0.000000000000000000, 1.000000000000000000 ) ) ;
#147 = PRODUCT_DEFINITION_SHAPE ( 'NONE', 'NONE',  #111 ) ;
#148 = CARTESIAN_POINT ( 'NONE',  ( 34.49999999999999289, 9.000000000000000000, 4.000000000000000888 ) ) ;
#149 = EDGE_CURVE ( 'NONE', #190, #381, #373, .T. ) ;
#150 = FACE_OUTER_BOUND ( 'NONE', #48, .T. ) ;
#151 = CARTESIAN_POINT ( 'NONE',  ( 0.000000000000000000, 9.000000000000000000, 0.000000000000000000 ) ) ;
#152 = CC_DESIGN_DATE_AND_TIME_ASSIGNMENT ( #5, #225, ( #166 ) ) ;
#153 = VERTEX_POINT ( 'NONE', #110 ) ;
#154 = AXIS2_PLACEMENT_3D ( 'NONE', #109, #51, #167 ) ;
#155 = ORIENTED_EDGE ( 'NONE', *, *, #10, .T. ) ;
#156 = VERTEX_POINT ( 'NONE', #22 ) ;
#157 = PERSON_AND_ORGANIZATION_ROLE ( 'design_supplier' ) ;
#158 = APPROVAL ( #9, 'UNSPECIFIED' ) ;
#159 = ORIENTED_EDGE ( 'NONE', *, *, #214, .T. ) ;
#160 = EDGE_LOOP ( 'NONE', ( #270, #350, #65, #308 ) ) ;
#161 = DIRECTION ( 'NONE',  ( 0.000000000000000000, 1.000000000000000000, 0.000000000000000000 ) ) ;
#162 = ADVANCED_FACE ( 'NONE', ( #232 ), #20, .F. ) ;
#163 = CALENDAR_DATE ( 2022, 6, 1 ) ;
#164 = CARTESIAN_POINT ( 'NONE',  ( 0.000000000000000000, 0.000000000000000000, 2.000000000000000000 ) ) ;
#165 = LOCAL_TIME ( 14, 18, 3.000000000000000000, #326 ) ;
#166 = SECURITY_CLASSIFICATION ( '', '', #282 ) ;
#167 = DIRECTION ( 'NONE',  ( 0.000000000000000000, 0.000000000000000000, 1.000000000000000000 ) ) ;
#168 = DIRECTION ( 'NONE',  ( 1.000000000000000000, -0.000000000000000000, 0.000000000000000000 ) ) ;
#169 = EDGE_CURVE ( 'NONE', #244, #189, #113, .T. ) ;
#170 = DIRECTION ( 'NONE',  ( 0.000000000000000000, -1.000000000000000000, -0.000000000000000000 ) ) ;
#171 = AXIS2_PLACEMENT_3D ( 'NONE', #151, #383, #240 ) ;
#172 = DIRECTION ( 'NONE',  ( -0.000000000000000000, -0.000000000000000000, 1.000000000000000000 ) ) ;
#173 = CARTESIAN_POINT ( 'NONE',  ( 34.49999999999999289, 9.000000000000000000, 4.000000000000000888 ) ) ;
#174 = ORIENTED_EDGE ( 'NONE', *, *, #169, .F. ) ;
#175 = ADVANCED_FACE ( 'NONE', ( #83 ), #197, .F. ) ;
#176 = DIRECTION ( 'NONE',  ( -0.000000000000000000, -0.000000000000000000, 1.000000000000000000 ) ) ;
#177 = ORIENTED_EDGE ( 'NONE', *, *, #169, .T. ) ;
#178 = CARTESIAN_POINT ( 'NONE',  ( 8.999999999999998224, 0.000000000000000000, -4.000000000000001776 ) ) ;
#179 = CLOSED_SHELL ( 'NONE', ( #162, #287, #175, #301, #380, #41, #193, #363, #354, #18 ) ) ;
#180 = LOCAL_TIME ( 14, 18, 3.000000000000000000, #356 ) ;
#181 = CARTESIAN_POINT ( 'NONE',  ( 0.000000000000000000, -0.0009999999999992653654, 0.000000000000000000 ) ) ;
#182 = APPROVAL ( #372, 'UNSPECIFIED' ) ;
#183 = MECHANICAL_CONTEXT ( 'NONE', #68, 'mechanical' ) ;
#184 = DIRECTION ( 'NONE',  ( 1.000000000000000000, 0.000000000000000000, -1.445602896647339410E-16 ) ) ;
#185 = ORIENTED_EDGE ( 'NONE', *, *, #1, .F. ) ;
#186 = DIRECTION ( 'NONE',  ( 0.000000000000000000, 0.000000000000000000, 1.000000000000000000 ) ) ;
#187 = DESIGN_CONTEXT ( 'detailed design', #348, 'design' ) ;
#188 =( NAMED_UNIT ( * ) PLANE_ANGLE_UNIT ( ) SI_UNIT ( $, .RADIAN. ) );
#189 = VERTEX_POINT ( 'NONE', #143 ) ;
#190 = VERTEX_POINT ( 'NONE', #374 ) ;
#191 = CIRCLE ( 'NONE', #26, 2.000000000000000000 ) ;
#192 = EDGE_LOOP ( 'NONE', ( #107, #11 ) ) ;
#193 = ADVANCED_FACE ( 'NONE', ( #294, #150, #2 ), #297, .F. ) ;
#194 = LINE ( 'NONE', #371, #339 ) ;
#195 = DIRECTION ( 'NONE',  ( 1.000000000000000000, -0.000000000000000000, -9.637352644315595243E-17 ) ) ;
#196 = CIRCLE ( 'NONE', #353, 2.000000000000000000 ) ;
#197 = PLANE ( 'NONE',  #360 ) ;
#198 = PERSON_AND_ORGANIZATION ( #70, #370 ) ;
#199 = LINE ( 'NONE', #343, #242 ) ;
#200 = CARTESIAN_POINT ( 'NONE',  ( 25.49999999999999645, 9.000000000000000000, -2.000000000000000000 ) ) ;
#201 = VECTOR ( 'NONE', #170, 1000.000000000000000 ) ;
#202 = CARTESIAN_POINT ( 'NONE',  ( 8.999999999999998224, 9.000000000000000000, 3.999999999999999112 ) ) ;
#203 = APPROVAL_PERSON_ORGANIZATION ( #215, #115, #330 ) ;
#204 = EDGE_CURVE ( 'NONE', #76, #311, #267, .T. ) ;
#205 = PLANE ( 'NONE',  #60 ) ;
#206 = DIRECTION ( 'NONE',  ( -0.000000000000000000, 1.000000000000000000, -0.000000000000000000 ) ) ;
#207 = DIRECTION ( 'NONE',  ( 0.000000000000000000, 1.000000000000000000, 0.000000000000000000 ) ) ;
#208 = DIRECTION ( 'NONE',  ( 0.000000000000000000, 0.000000000000000000, 1.000000000000000000 ) ) ;
#209 = CARTESIAN_POINT ( 'NONE',  ( 0.000000000000000000, 0.000000000000000000, 0.000000000000000000 ) ) ;
#210 = EDGE_LOOP ( 'NONE', ( #8, #174, #125, #185 ) ) ;
#211 = CALENDAR_DATE ( 2022, 6, 1 ) ;
#212 = LINE ( 'NONE', #352, #256 ) ;
#213 = MANIFOLD_SOLID_BREP ( 'Mirror2', #179 ) ;
#214 = EDGE_CURVE ( 'NONE', #156, #96, #292, .T. ) ;
#215 = PERSON_AND_ORGANIZATION ( #70, #370 ) ;
#216 = VERTEX_POINT ( 'NONE', #384 ) ;
#217 = DATE_AND_TIME ( #211, #61 ) ;
#218 = EDGE_LOOP ( 'NONE', ( #346, #130, #279, #303 ) ) ;
#219 = EDGE_CURVE ( 'NONE', #153, #245, #127, .T. ) ;
#220 = ORIENTED_EDGE ( 'NONE', *, *, #52, .F. ) ;
#221 = VECTOR ( 'NONE', #233, 1000.000000000000000 ) ;
#222 = AXIS2_PLACEMENT_3D ( 'NONE', #209, #7, #16 ) ;
#223 = APPROVAL_ROLE ( '' ) ;
#224 = DIRECTION ( 'NONE',  ( -0.000000000000000000, -1.000000000000000000, -0.000000000000000000 ) ) ;
#225 = DATE_TIME_ROLE ( 'classification_date' ) ;
#226 = CYLINDRICAL_SURFACE ( 'NONE', #108, 2.000000000000000000 ) ;
#227 = ADVANCED_BREP_SHAPE_REPRESENTATION ( 'middle_connection', ( #213, #222 ), #27 ) ;
#228 = CARTESIAN_POINT ( 'NONE',  ( 8.999999999999998224, 0.000000000000000000, 3.999999999999999112 ) ) ;
#229 = EDGE_CURVE ( 'NONE', #190, #76, #87, .T. ) ;
#230 = VECTOR ( 'NONE', #176, 1000.000000000000000 ) ;
#231 = DIRECTION ( 'NONE',  ( 0.000000000000000000, 0.000000000000000000, 1.000000000000000000 ) ) ;
#232 = FACE_OUTER_BOUND ( 'NONE', #97, .T. ) ;
#233 = DIRECTION ( 'NONE',  ( 1.000000000000000000, -0.000000000000000000, -9.637352644315595243E-17 ) ) ;
#234 = CC_DESIGN_PERSON_AND_ORGANIZATION_ASSIGNMENT ( #365, #13, ( #111 ) ) ;
#235 = VECTOR ( 'NONE', #379, 1000.000000000000000 ) ;
#236 = DIRECTION ( 'NONE',  ( -0.000000000000000000, 1.000000000000000000, -0.000000000000000000 ) ) ;
#237 = CC_DESIGN_APPROVAL ( #115, ( #111 ) ) ;
#238 = VERTEX_POINT ( 'NONE', #173 ) ;
#239 = CARTESIAN_POINT ( 'NONE',  ( 25.49999999999999645, 0.000000000000000000, 0.000000000000000000 ) ) ;
#240 = DIRECTION ( 'NONE',  ( 0.000000000000000000, 0.000000000000000000, 1.000000000000000000 ) ) ;
#241 = DIRECTION ( 'NONE',  ( 0.000000000000000000, 1.000000000000000000, 0.000000000000000000 ) ) ;
#242 = VECTOR ( 'NONE', #231, 1000.000000000000000 ) ;
#243 = APPLICATION_PROTOCOL_DEFINITION ( 'international standard', 'config_control_design', 1994, #68 ) ;
#244 = VERTEX_POINT ( 'NONE', #293 ) ;
#245 = VERTEX_POINT ( 'NONE', #355 ) ;
#246 = UNCERTAINTY_MEASURE_WITH_UNIT (LENGTH_MEASURE( 1.000000000000000082E-05 ), #74, 'distance_accuracy_value', 'NONE');
#247 = PERSON_AND_ORGANIZATION_ROLE ( 'creator' ) ;
#248 = ORIENTED_EDGE ( 'NONE', *, *, #214, .F. ) ;
#249 = AXIS2_PLACEMENT_3D ( 'NONE', #92, #206, #324 ) ;
#250 = APPROVAL_PERSON_ORGANIZATION ( #198, #182, #223 ) ;
#251 = PLANE ( 'NONE',  #134 ) ;
#252 = ORIENTED_EDGE ( 'NONE', *, *, #149, .T. ) ;
#253 = APPROVAL_DATE_TIME ( #132, #158 ) ;
#254 = ORIENTED_EDGE ( 'NONE', *, *, #298, .T. ) ;
#255 = CARTESIAN_POINT ( 'NONE',  ( -9.000000000000001776, 9.000000000000000000, -3.999999999999999112 ) ) ;
#256 = VECTOR ( 'NONE', #236, 1000.000000000000000 ) ;
#257 = FACE_BOUND ( 'NONE', #366, .T. ) ;
#258 = FACE_OUTER_BOUND ( 'NONE', #210, .T. ) ;
#259 = EDGE_CURVE ( 'NONE', #96, #153, #212, .T. ) ;
#260 = CARTESIAN_POINT ( 'NONE',  ( 34.49999999999999289, 0.000000000000000000, 4.000000000000000888 ) ) ;
#261 = CARTESIAN_POINT ( 'NONE',  ( -9.000000000000001776, 9.000000000000000000, -3.999999999999999112 ) ) ;
#262 = EDGE_CURVE ( 'NONE', #189, #244, #347, .T. ) ;
#263 = DIRECTION ( 'NONE',  ( -1.000000000000000000, 0.000000000000000000, 0.000000000000000000 ) ) ;
#264 = LINE ( 'NONE', #34, #235 ) ;
#265 = CIRCLE ( 'NONE', #375, 2.000000000000000000 ) ;
#266 = DIRECTION ( 'NONE',  ( 0.000000000000000000, 0.000000000000000000, -1.000000000000000000 ) ) ;
#267 = LINE ( 'NONE', #55, #230 ) ;
#268 = EDGE_LOOP ( 'NONE', ( #362, #295, #99, #252 ) ) ;
#269 = LINE ( 'NONE', #296, #4 ) ;
#270 = ORIENTED_EDGE ( 'NONE', *, *, #93, .T. ) ;
#271 = CALENDAR_DATE ( 2022, 6, 1 ) ;
#272 = VECTOR ( 'NONE', #277, 1000.000000000000000 ) ;
#273 = ORIENTED_EDGE ( 'NONE', *, *, #368, .F. ) ;
#274 = EDGE_CURVE ( 'NONE', #189, #58, #269, .T. ) ;
#275 = ORIENTED_EDGE ( 'NONE', *, *, #262, .T. ) ;
#276 = FACE_OUTER_BOUND ( 'NONE', #268, .T. ) ;
#277 = DIRECTION ( 'NONE',  ( -0.000000000000000000, -1.000000000000000000, -0.000000000000000000 ) ) ;
#278 = DIRECTION ( 'NONE',  ( 1.445602896647339410E-16, -0.000000000000000000, 1.000000000000000000 ) ) ;
#279 = ORIENTED_EDGE ( 'NONE', *, *, #291, .F. ) ;
#280 = VECTOR ( 'NONE', #114, 1000.000000000000000 ) ;
#281 = EDGE_CURVE ( 'NONE', #311, #238, #325, .T. ) ;
#282 = SECURITY_CLASSIFICATION_LEVEL ( 'unclassified' ) ;
#283 = ORIENTED_EDGE ( 'NONE', *, *, #103, .T. ) ;
#284 = DIRECTION ( 'NONE',  ( -0.000000000000000000, -1.000000000000000000, -0.000000000000000000 ) ) ;
#285 = DIRECTION ( 'NONE',  ( 0.000000000000000000, 0.000000000000000000, 1.000000000000000000 ) ) ;
#286 = AXIS2_PLACEMENT_3D ( 'NONE', #94, #32, #124 ) ;
#287 = ADVANCED_FACE ( 'NONE', ( #62 ), #299, .F. ) ;
#288 = LINE ( 'NONE', #116, #280 ) ;
#289 = DIRECTION ( 'NONE',  ( 0.000000000000000000, 0.000000000000000000, -1.000000000000000000 ) ) ;
#290 = DIRECTION ( 'NONE',  ( -0.000000000000000000, -1.000000000000000000, -0.000000000000000000 ) ) ;
#291 = EDGE_CURVE ( 'NONE', #190, #238, #264, .T. ) ;
#292 = CIRCLE ( 'NONE', #31, 2.000000000000000000 ) ;
#293 = CARTESIAN_POINT ( 'NONE',  ( 25.49999999999999645, 0.000000000000000000, 2.000000000000000000 ) ) ;
#294 = FACE_BOUND ( 'NONE', #385, .T. ) ;
#295 = ORIENTED_EDGE ( 'NONE', *, *, #140, .F. ) ;
#296 = CARTESIAN_POINT ( 'NONE',  ( 25.49999999999999645, -0.0009999999999992653654, -2.000000000000000000 ) ) ;
#297 = PLANE ( 'NONE',  #286 ) ;
#298 = EDGE_CURVE ( 'NONE', #88, #216, #28, .T. ) ;
#299 = CYLINDRICAL_SURFACE ( 'NONE', #67, 2.000000000000000000 ) ;
#300 = CALENDAR_DATE ( 2022, 6, 1 ) ;
#301 = ADVANCED_FACE ( 'NONE', ( #90 ), #205, .F. ) ;
#302 = VECTOR ( 'NONE', #195, 1000.000000000000000 ) ;
#303 = ORIENTED_EDGE ( 'NONE', *, *, #229, .T. ) ;
#304 = DATE_TIME_ROLE ( 'creation_date' ) ;
#305 = LINE ( 'NONE', #43, #272 ) ;
#306 = DATE_AND_TIME ( #300, #180 ) ;
#307 = CC_DESIGN_PERSON_AND_ORGANIZATION_ASSIGNMENT ( #106, #35, ( #166 ) ) ;
#308 = ORIENTED_EDGE ( 'NONE', *, *, #259, .F. ) ;
#309 = CARTESIAN_POINT ( 'NONE',  ( 34.49999999999999289, 0.000000000000000000, -3.999999999999999112 ) ) ;
#310 = VERTEX_POINT ( 'NONE', #56 ) ;
#311 = VERTEX_POINT ( 'NONE', #322 ) ;
#312 = COORDINATED_UNIVERSAL_TIME_OFFSET ( 0, 0, .AHEAD. ) ;
#313 = DIRECTION ( 'NONE',  ( -0.000000000000000000, 1.000000000000000000, -0.000000000000000000 ) ) ;
#314 = CARTESIAN_POINT ( 'NONE',  ( 25.49999999999999645, -0.0009999999999992653654, 0.000000000000000000 ) ) ;
#315 = VECTOR ( 'NONE', #39, 1000.000000000000000 ) ;
#316 = LOCAL_TIME ( 14, 18, 3.000000000000000000, #312 ) ;
#317 = CARTESIAN_POINT ( 'NONE',  ( -9.000000000000001776, 9.000000000000000000, 4.000000000000000888 ) ) ;
#318 = SHAPE_DEFINITION_REPRESENTATION ( #147, #227 ) ;
#319 = DIRECTION ( 'NONE',  ( 0.000000000000000000, 0.000000000000000000, 1.000000000000000000 ) ) ;
#320 = CARTESIAN_POINT ( 'NONE',  ( 25.49999999999999645, -0.0009999999999992653654, 2.000000000000000000 ) ) ;
#321 = CARTESIAN_POINT ( 'NONE',  ( -9.000000000000001776, 0.000000000000000000, 4.000000000000000888 ) ) ;
#322 = CARTESIAN_POINT ( 'NONE',  ( -9.000000000000001776, 9.000000000000000000, 4.000000000000000888 ) ) ;
#323 = CC_DESIGN_DATE_AND_TIME_ASSIGNMENT ( #306, #304, ( #111 ) ) ;
#324 = DIRECTION ( 'NONE',  ( 0.000000000000000000, 0.000000000000000000, 1.000000000000000000 ) ) ;
#325 = LINE ( 'NONE', #202, #221 ) ;
#326 = COORDINATED_UNIVERSAL_TIME_OFFSET ( 0, 0, .AHEAD. ) ;
#327 = PRODUCT_RELATED_PRODUCT_CATEGORY ( 'detail', '', ( #15 ) ) ;
#328 = ORIENTED_EDGE ( 'NONE', *, *, #149, .F. ) ;
#329 = AXIS2_PLACEMENT_3D ( 'NONE', #148, #263, #266 ) ;
#330 = APPROVAL_ROLE ( '' ) ;
#331 = VECTOR ( 'NONE', #224, 1000.000000000000000 ) ;
#332 = CARTESIAN_POINT ( 'NONE',  ( 25.49999999999999645, 9.000000000000000000, 0.000000000000000000 ) ) ;
#333 = LOCAL_TIME ( 14, 18, 3.000000000000000000, #361 ) ;
#334 = APPROVAL_ROLE ( '' ) ;
#335 = ORIENTED_EDGE ( 'NONE', *, *, #10, .F. ) ;
#336 =( NAMED_UNIT ( * ) SI_UNIT ( $, .STERADIAN. ) SOLID_ANGLE_UNIT ( ) );
#337 = ORIENTED_EDGE ( 'NONE', *, *, #219, .T. ) ;
#338 = ORIENTED_EDGE ( 'NONE', *, *, #291, .T. ) ;
#339 = VECTOR ( 'NONE', #313, 1000.000000000000000 ) ;
#340 = CARTESIAN_POINT ( 'NONE',  ( 0.000000000000000000, 0.000000000000000000, 0.000000000000000000 ) ) ;
#341 = DIRECTION ( 'NONE',  ( 0.000000000000000000, 0.000000000000000000, 1.000000000000000000 ) ) ;
#342 = LINE ( 'NONE', #255, #331 ) ;
#343 = CARTESIAN_POINT ( 'NONE',  ( 34.49999999999999289, 0.000000000000000000, 4.000000000000000888 ) ) ;
#344 = FACE_OUTER_BOUND ( 'NONE', #218, .T. ) ;
#345 = DIRECTION ( 'NONE',  ( -9.637352644315595243E-17, 0.000000000000000000, -1.000000000000000000 ) ) ;
#346 = ORIENTED_EDGE ( 'NONE', *, *, #204, .T. ) ;
#347 = CIRCLE ( 'NONE', #12, 2.000000000000000000 ) ;
#348 = APPLICATION_CONTEXT ( 'configuration controlled 3d designs of mechanical parts and assemblies' ) ;
#349 = CARTESIAN_POINT ( 'NONE',  ( 0.000000000000000000, 0.000000000000000000, 0.000000000000000000 ) ) ;
#350 = ORIENTED_EDGE ( 'NONE', *, *, #66, .T. ) ;
#351 = CYLINDRICAL_SURFACE ( 'NONE', #249, 2.000000000000000000 ) ;
#352 = CARTESIAN_POINT ( 'NONE',  ( 0.000000000000000000, -0.0009999999999992653654, 2.000000000000000000 ) ) ;
#353 = AXIS2_PLACEMENT_3D ( 'NONE', #332, #71, #186 ) ;
#354 = ADVANCED_FACE ( 'NONE', ( #95 ), #145, .F. ) ;
#355 = CARTESIAN_POINT ( 'NONE',  ( 2.449293598294706414E-16, 9.000000000000000000, -2.000000000000000000 ) ) ;
#356 = COORDINATED_UNIVERSAL_TIME_OFFSET ( 0, 0, .AHEAD. ) ;
#357 = EDGE_LOOP ( 'NONE', ( #283, #220, #63, #155 ) ) ;
#358 = PERSON_AND_ORGANIZATION ( #70, #370 ) ;
#359 = ORIENTED_EDGE ( 'NONE', *, *, #262, .F. ) ;
#360 = AXIS2_PLACEMENT_3D ( 'NONE', #317, #168, #289 ) ;
#361 = COORDINATED_UNIVERSAL_TIME_OFFSET ( 0, 0, .AHEAD. ) ;
#362 = ORIENTED_EDGE ( 'NONE', *, *, #368, .T. ) ;
#363 = ADVANCED_FACE ( 'NONE', ( #377 ), #351, .F. ) ;
#364 = ORIENTED_EDGE ( 'NONE', *, *, #140, .T. ) ;
#365 = PERSON_AND_ORGANIZATION ( #70, #370 ) ;
#366 = EDGE_LOOP ( 'NONE', ( #73, #91 ) ) ;
#367 = DATE_AND_TIME ( #163, #316 ) ;
#368 = EDGE_CURVE ( 'NONE', #381, #88, #59, .T. ) ;
#369 = PLANE ( 'NONE',  #89 ) ;
#370 = ORGANIZATION ( 'UNSPECIFIED', 'UNSPECIFIED', '' ) ;
#371 = CARTESIAN_POINT ( 'NONE',  ( 2.449293598294706414E-16, -0.0009999999999992653654, -2.000000000000000000 ) ) ;
#372 = APPROVAL_STATUS ( 'not_yet_approved' ) ;
#373 = LINE ( 'NONE', #54, #201 ) ;
#374 = CARTESIAN_POINT ( 'NONE',  ( 34.49999999999999289, 9.000000000000000000, -3.999999999999999112 ) ) ;
#375 = AXIS2_PLACEMENT_3D ( 'NONE', #340, #284, #319 ) ;
#376 = DIRECTION ( 'NONE',  ( 0.000000000000000000, 1.000000000000000000, 0.000000000000000000 ) ) ;
#377 = FACE_OUTER_BOUND ( 'NONE', #17, .T. ) ;
#378 = EDGE_LOOP ( 'NONE', ( #36, #328, #338, #46 ) ) ;
#379 = DIRECTION ( 'NONE',  ( 0.000000000000000000, 0.000000000000000000, 1.000000000000000000 ) ) ;
#380 = ADVANCED_FACE ( 'NONE', ( #276 ), #251, .F. ) ;
#381 = VERTEX_POINT ( 'NONE', #309 ) ;
#382 = CC_DESIGN_APPROVAL ( #182, ( #166 ) ) ;
#383 = DIRECTION ( 'NONE',  ( 0.000000000000000000, 1.000000000000000000, 0.000000000000000000 ) ) ;
#384 = CARTESIAN_POINT ( 'NONE',  ( -9.000000000000001776, 0.000000000000000000, 4.000000000000000888 ) ) ;
#385 = EDGE_LOOP ( 'NONE', ( #14, #248 ) ) ;
ENDSEC;
END-ISO-10303-21;
