G04*
G04 #@! TF.GenerationSoftware,Altium Limited,Altium Designer,19.1.8 (144)*
G04*
G04 Layer_Physical_Order=1*
G04 Layer_Color=255*
%FSLAX25Y25*%
%MOIN*%
G70*
G01*
G75*
%ADD14C,0.01000*%
%ADD15C,0.00787*%
%ADD40R,0.03543X0.03937*%
%ADD41O,0.06496X0.02559*%
%ADD42R,0.02559X0.04724*%
%ADD43O,0.02559X0.06496*%
%ADD44R,0.04134X0.03150*%
%ADD45R,0.04331X0.03937*%
%ADD46R,0.04724X0.02559*%
%ADD47R,0.03150X0.04331*%
%ADD48R,0.07480X0.05906*%
%ADD49R,0.03937X0.04331*%
%ADD50R,0.03150X0.04134*%
%ADD51R,0.03150X0.09449*%
%ADD52R,0.02559X0.04921*%
%ADD53R,0.03347X0.01575*%
%ADD54R,0.08268X0.05984*%
%ADD55R,0.05984X0.05118*%
%ADD56R,0.03150X0.03543*%
%ADD57R,0.03543X0.03150*%
%ADD58C,0.07874*%
%ADD59C,0.04724*%
%ADD60R,0.04724X0.04724*%
%ADD61C,0.27559*%
%ADD62C,0.02362*%
G36*
X143662Y2007D02*
X2007D01*
Y218465D01*
X53296D01*
X53347Y217986D01*
X53347Y217965D01*
Y206569D01*
X54902D01*
Y201077D01*
X54628Y200894D01*
X54237Y200308D01*
X54099Y199617D01*
X54237Y198925D01*
X54628Y198339D01*
X54902Y198156D01*
Y192789D01*
X53347D01*
Y181372D01*
X58465D01*
Y192789D01*
X56909D01*
Y198156D01*
X57183Y198339D01*
X57574Y198925D01*
X57712Y199617D01*
X57574Y200308D01*
X57183Y200894D01*
X56909Y201077D01*
Y206569D01*
X58465D01*
Y217965D01*
X58465Y217986D01*
X58515Y218465D01*
X61958D01*
X62008Y217986D01*
X62008Y217965D01*
Y206569D01*
X63670D01*
Y200279D01*
X63396Y200096D01*
X63005Y199510D01*
X62867Y198819D01*
X63005Y198128D01*
X63396Y197542D01*
X63670Y197359D01*
Y192789D01*
X62008D01*
Y181372D01*
X67126D01*
Y192789D01*
X65677D01*
Y197359D01*
X65951Y197542D01*
X66343Y198128D01*
X66480Y198819D01*
X66343Y199510D01*
X65951Y200096D01*
X65677Y200279D01*
Y206569D01*
X67126D01*
Y217965D01*
X67126Y217986D01*
X67176Y218465D01*
X70619D01*
X70669Y217986D01*
X70669Y217965D01*
Y206569D01*
X75787D01*
Y217965D01*
X75787Y217986D01*
X75838Y218465D01*
X83218D01*
X83268Y217986D01*
X83268Y217965D01*
Y206569D01*
X88386D01*
Y206943D01*
X95620D01*
Y203258D01*
X100738D01*
Y207890D01*
X101200Y208081D01*
X104311Y204969D01*
Y193804D01*
X104388Y193420D01*
X104605Y193094D01*
X110326Y187373D01*
X110134Y186912D01*
X108177D01*
Y185132D01*
X111039D01*
Y186007D01*
X111501Y186198D01*
X127343Y170356D01*
Y129229D01*
X127069Y129046D01*
X126678Y128460D01*
X126540Y127768D01*
X126678Y127077D01*
X127069Y126491D01*
X127655Y126100D01*
X128347Y125962D01*
X129038Y126100D01*
X129624Y126491D01*
X130015Y127077D01*
X130153Y127768D01*
X130015Y128460D01*
X129624Y129046D01*
X129350Y129229D01*
Y170772D01*
X129274Y171156D01*
X129056Y171482D01*
X106318Y194219D01*
Y205385D01*
X106242Y205769D01*
X106025Y206095D01*
X100805Y211314D01*
X100480Y211531D01*
X100095Y211608D01*
X88386D01*
Y217965D01*
X88386Y217986D01*
X88436Y218465D01*
X143662D01*
Y2007D01*
D02*
G37*
%LPC*%
G36*
X100738Y195975D02*
X95620D01*
Y192415D01*
X88386D01*
Y192789D01*
X83268D01*
Y181372D01*
X88386D01*
Y183966D01*
X89298D01*
X92196Y181068D01*
X92522Y180851D01*
X92906Y180774D01*
X94095D01*
Y178782D01*
X55473D01*
X55089Y178706D01*
X54763Y178488D01*
X53509Y177234D01*
X53292Y176909D01*
X53215Y176524D01*
Y176484D01*
X51955D01*
Y169791D01*
X56483D01*
Y176484D01*
X56862Y176775D01*
X67307D01*
Y174330D01*
X69882D01*
X72457D01*
Y176775D01*
X73228D01*
Y170779D01*
X74784D01*
Y166519D01*
X71590D01*
Y166535D01*
X69121D01*
Y163370D01*
X68621D01*
Y162870D01*
X65653D01*
Y160204D01*
X65213Y160058D01*
X60239D01*
Y162401D01*
X57959D01*
X55680D01*
Y159539D01*
X56279D01*
X56471Y159077D01*
X48531Y151138D01*
X48031Y151345D01*
Y155575D01*
X50303Y157846D01*
X50520Y158172D01*
X50597Y158556D01*
Y159555D01*
X52743D01*
Y166248D01*
X48215D01*
Y159555D01*
X48590D01*
Y158972D01*
X46612Y156994D01*
X44570D01*
X44444Y157144D01*
X44255Y157494D01*
X44311Y157776D01*
Y181796D01*
X44234Y182180D01*
X44017Y182506D01*
X41455Y185068D01*
X41129Y185285D01*
X40745Y185362D01*
X13681D01*
X13297Y185285D01*
X12971Y185068D01*
X12262Y184358D01*
X7579D01*
Y179240D01*
X12362D01*
X12549Y178803D01*
X12259Y178453D01*
X7579D01*
Y173335D01*
X13681D01*
Y177034D01*
X15443Y178795D01*
X15943Y178748D01*
Y178748D01*
X22636D01*
Y183275D01*
X23103Y183355D01*
X35138D01*
Y179043D01*
X39819D01*
X40108Y178693D01*
X39921Y178256D01*
X35138D01*
Y177882D01*
X32872D01*
Y179535D01*
X26179D01*
Y176427D01*
X23114Y173361D01*
X22652Y173553D01*
Y175811D01*
X19789D01*
Y173531D01*
X19289D01*
Y173031D01*
X15927D01*
Y172074D01*
X11315D01*
X10931Y171998D01*
X10606Y171780D01*
X7625Y168799D01*
X7407Y168474D01*
X7331Y168090D01*
Y148191D01*
X7407Y147807D01*
X7625Y147482D01*
X17186Y137921D01*
X17159Y137722D01*
X17011Y137421D01*
X11692D01*
X11308Y137344D01*
X10982Y137127D01*
X5906Y132051D01*
X5689Y131726D01*
X5612Y131342D01*
Y58739D01*
X5689Y58355D01*
X5906Y58029D01*
X8888Y55047D01*
X8824Y54724D01*
X8961Y54033D01*
X9353Y53447D01*
X9939Y53056D01*
X10630Y52918D01*
X11321Y53056D01*
X11907Y53447D01*
X12282Y54008D01*
X12343Y54070D01*
X12817Y54181D01*
X19174Y47824D01*
Y45276D01*
X15453D01*
Y40157D01*
X21555D01*
Y45276D01*
X21181D01*
Y47714D01*
X23299Y49833D01*
X23622Y49768D01*
X24313Y49906D01*
X24899Y50297D01*
X25291Y50884D01*
X25428Y51575D01*
X25291Y52266D01*
X24899Y52852D01*
X24313Y53244D01*
X23622Y53381D01*
X22931Y53244D01*
X22345Y52852D01*
X21953Y52266D01*
X21816Y51575D01*
X21880Y51252D01*
X20232Y49604D01*
X15387Y54449D01*
X15594Y54949D01*
X25394D01*
Y62902D01*
X24429D01*
Y73228D01*
X27740D01*
Y73213D01*
X30209D01*
Y76378D01*
Y79543D01*
X27740D01*
Y79527D01*
X24743D01*
Y82165D01*
X24666Y82549D01*
X24449Y82875D01*
X19164Y88160D01*
X19410Y88621D01*
X19823Y88538D01*
X20706Y88714D01*
X21455Y89214D01*
X21955Y89963D01*
X22068Y90530D01*
X22578D01*
X22690Y89963D01*
X23191Y89214D01*
X23939Y88714D01*
X24823Y88538D01*
X25706Y88714D01*
X26455Y89214D01*
X26955Y89963D01*
X27131Y90847D01*
Y91812D01*
X30418D01*
Y88583D01*
X36111D01*
Y88567D01*
X38579D01*
Y91732D01*
X39079D01*
Y92232D01*
X42048D01*
Y93281D01*
X42510Y93473D01*
X46437Y89545D01*
Y87311D01*
X46063D01*
Y82193D01*
X52165D01*
Y87311D01*
X48445D01*
Y89961D01*
X48368Y90345D01*
X48151Y90670D01*
X43887Y94934D01*
X43899Y95065D01*
X44438Y95467D01*
X44587Y95438D01*
X44910Y95502D01*
X56369Y84042D01*
X56695Y83825D01*
X57079Y83748D01*
X59153D01*
Y82193D01*
X65256D01*
Y86504D01*
X71435D01*
X72244Y85695D01*
Y81996D01*
X78347D01*
Y87114D01*
X73663D01*
X73070Y87708D01*
X73261Y88170D01*
X82860D01*
X85335Y85695D01*
Y81996D01*
X91437D01*
Y87114D01*
X86754D01*
X84033Y89835D01*
X84060Y90034D01*
X84208Y90335D01*
X93785D01*
X98425Y85695D01*
Y81996D01*
X104528D01*
Y87114D01*
X99844D01*
X94958Y92000D01*
X94985Y92199D01*
X95134Y92500D01*
X98594D01*
X98775Y92464D01*
X104746D01*
X111516Y85695D01*
Y81996D01*
X117618D01*
Y87114D01*
X112935D01*
X106669Y93380D01*
X106860Y93842D01*
X115368D01*
X126851Y82360D01*
Y66160D01*
X126476D01*
Y59861D01*
X127343D01*
Y58782D01*
X111297Y42736D01*
X92150D01*
X91949Y43221D01*
X91476Y43838D01*
X90859Y44311D01*
X90141Y44609D01*
X89370Y44710D01*
X88599Y44609D01*
X87881Y44311D01*
X87264Y43838D01*
X86791Y43221D01*
X86493Y42503D01*
X86392Y41732D01*
X86493Y40962D01*
X86791Y40243D01*
X87264Y39626D01*
X87881Y39153D01*
X88599Y38855D01*
X89370Y38754D01*
X90141Y38855D01*
X90859Y39153D01*
X91476Y39626D01*
X91949Y40243D01*
X92150Y40729D01*
X108629D01*
X108820Y40267D01*
X103612Y35059D01*
X39786D01*
X37324Y37521D01*
X36998Y37738D01*
X36614Y37815D01*
X35728D01*
Y39370D01*
X29626D01*
Y35059D01*
X22168D01*
X21555Y35671D01*
Y39370D01*
X15453D01*
Y34252D01*
X20136D01*
X21042Y33345D01*
X21368Y33128D01*
X21752Y33052D01*
X104028D01*
X104412Y33128D01*
X104737Y33345D01*
X112399Y41007D01*
X112422Y41023D01*
X126881Y55481D01*
X127343Y55290D01*
Y53937D01*
X126969D01*
Y48425D01*
X131980D01*
X132087Y48425D01*
X132480D01*
X132587Y48425D01*
X134036D01*
Y44185D01*
X132890D01*
Y38083D01*
X138008D01*
Y44185D01*
X136043D01*
Y48425D01*
X137598D01*
Y53937D01*
X132587D01*
X132480Y53937D01*
X132087D01*
X131980Y53937D01*
X129350D01*
Y58366D01*
Y59861D01*
X138091D01*
Y66160D01*
X137716D01*
Y68217D01*
X139083D01*
Y76091D01*
X130236D01*
Y80012D01*
X133858D01*
Y83965D01*
Y87917D01*
X130236D01*
Y103687D01*
X130159Y104071D01*
X129942Y104397D01*
X123283Y111056D01*
X123392Y111199D01*
X123849Y112300D01*
X124004Y113482D01*
X123849Y114664D01*
X123392Y115765D01*
X122667Y116711D01*
X121721Y117437D01*
X120619Y117893D01*
X119438Y118049D01*
X118256Y117893D01*
X117154Y117437D01*
X116209Y116711D01*
X115483Y115765D01*
X115026Y114664D01*
X114871Y113482D01*
X115026Y112300D01*
X115483Y111199D01*
X116209Y110253D01*
X117154Y109527D01*
X118256Y109071D01*
X119438Y108915D01*
X120619Y109071D01*
X121721Y109527D01*
X121864Y109637D01*
X128229Y103272D01*
Y84474D01*
X127767Y84282D01*
X116494Y95556D01*
X113702Y98347D01*
X113376Y98565D01*
X113314Y98577D01*
X113088Y98915D01*
X112502Y99307D01*
X111811Y99444D01*
X111120Y99307D01*
X110534Y98915D01*
X110142Y98329D01*
X110005Y97638D01*
X110142Y96947D01*
X110534Y96360D01*
X110550Y96350D01*
X110399Y95850D01*
X101596D01*
X101559Y95905D01*
X101826Y96405D01*
X105118D01*
Y102507D01*
X102382D01*
Y106121D01*
X104986D01*
Y111239D01*
X98883D01*
Y109681D01*
X96423D01*
Y111223D01*
X96438D01*
Y113692D01*
X90108D01*
Y111223D01*
X90123D01*
Y105531D01*
X90498D01*
Y98452D01*
X87984Y95938D01*
X83600D01*
X83526Y96161D01*
X83517Y96438D01*
X84202Y96896D01*
X84706Y97650D01*
X84883Y98539D01*
Y100008D01*
X82559D01*
Y100508D01*
X82059D01*
Y104701D01*
X81670Y104624D01*
X80916Y104120D01*
X80412Y103366D01*
X80306Y102834D01*
X79796D01*
X79691Y103360D01*
X79191Y104109D01*
X78563Y104528D01*
Y115075D01*
X78836Y115258D01*
X79228Y115844D01*
X79365Y116535D01*
X79228Y117227D01*
X78836Y117813D01*
X78563Y117996D01*
Y118731D01*
X79191Y119151D01*
X79691Y119900D01*
X79804Y120467D01*
X80314D01*
X80427Y119900D01*
X80927Y119151D01*
X81676Y118651D01*
X82559Y118475D01*
X83442Y118651D01*
X84191Y119151D01*
X84692Y119900D01*
X84867Y120783D01*
Y121748D01*
X89730D01*
Y119901D01*
X96029D01*
Y121847D01*
X98489D01*
Y120294D01*
X99351D01*
Y117145D01*
X98883D01*
Y112027D01*
X104986D01*
Y117145D01*
X101358D01*
Y120294D01*
X104592D01*
Y125412D01*
X98489D01*
Y123854D01*
X96029D01*
Y125594D01*
X96045D01*
Y128062D01*
X92879D01*
X89714D01*
Y125594D01*
X89730D01*
Y123756D01*
X84867D01*
Y124721D01*
X84692Y125604D01*
X84191Y126353D01*
X83442Y126853D01*
X82559Y127029D01*
X81676Y126853D01*
X80927Y126353D01*
X80427Y125604D01*
X80314Y125037D01*
X79804D01*
X79691Y125604D01*
X79191Y126353D01*
X78442Y126853D01*
X77559Y127029D01*
X76676Y126853D01*
X75927Y126353D01*
X75427Y125604D01*
X75314Y125037D01*
X74804D01*
X74691Y125604D01*
X74191Y126353D01*
X73442Y126853D01*
X72559Y127029D01*
X71676Y126853D01*
X70927Y126353D01*
X70427Y125604D01*
X70314Y125037D01*
X69804D01*
X69691Y125604D01*
X69191Y126353D01*
X68563Y126772D01*
Y127773D01*
X69136Y128347D01*
X73622D01*
Y131189D01*
X87171D01*
X87354Y130916D01*
X87940Y130524D01*
X88631Y130386D01*
X89214Y130502D01*
X89714Y130230D01*
Y129062D01*
X92879D01*
X96045D01*
Y130272D01*
X96545Y130508D01*
X96947Y130240D01*
X97638Y130102D01*
X97974Y130169D01*
X98474Y129781D01*
Y129259D01*
X101041D01*
Y131334D01*
X99724D01*
X99407Y131720D01*
X99444Y131909D01*
X99307Y132600D01*
X98915Y133186D01*
X99071Y133683D01*
X101820D01*
Y133667D01*
X104289D01*
Y136833D01*
Y139998D01*
X101820D01*
Y139982D01*
X99005D01*
Y143222D01*
X100560D01*
Y147872D01*
X100875Y148127D01*
X101332Y147929D01*
Y146774D01*
X103407D01*
Y149341D01*
X102649D01*
X102457Y149802D01*
X107508Y154853D01*
X111004D01*
Y151153D01*
X110731Y150970D01*
X110339Y150384D01*
X110202Y149693D01*
X110339Y149002D01*
X110731Y148416D01*
X111317Y148024D01*
X112008Y147887D01*
X112699Y148024D01*
X113285Y148416D01*
X113677Y149002D01*
X113814Y149693D01*
X113677Y150384D01*
X113285Y150970D01*
X113011Y151153D01*
Y158661D01*
Y160146D01*
X114519Y161654D01*
X114737Y161980D01*
X114813Y162364D01*
Y166122D01*
X118534D01*
Y171240D01*
X112432D01*
Y166122D01*
X112806D01*
Y162779D01*
X112311Y162284D01*
X111811Y162492D01*
Y165877D01*
X107128D01*
X99765Y173240D01*
X99440Y173457D01*
X99056Y173533D01*
X94122D01*
X93116Y174539D01*
X92790Y174757D01*
X92406Y174833D01*
X91339D01*
Y176775D01*
X104331D01*
Y174888D01*
X111024D01*
Y175262D01*
X112432D01*
Y172028D01*
X118534D01*
Y177146D01*
X113766D01*
X113696Y177193D01*
X113312Y177269D01*
X111024D01*
Y179416D01*
X104331D01*
Y178782D01*
X100787D01*
Y183156D01*
X94095D01*
Y182781D01*
X93321D01*
X90424Y185679D01*
X90098Y185897D01*
X89714Y185973D01*
X88386D01*
Y190408D01*
X95620D01*
Y189675D01*
X100738D01*
Y195975D01*
D02*
G37*
G36*
X107177Y186912D02*
X104315D01*
Y185132D01*
X107177D01*
Y186912D01*
D02*
G37*
G36*
X111039Y184132D02*
X108177D01*
Y182352D01*
X111039D01*
Y184132D01*
D02*
G37*
G36*
X107177D02*
X104315D01*
Y182352D01*
X107177D01*
Y184132D01*
D02*
G37*
G36*
X75787Y192789D02*
X70669D01*
Y181372D01*
X75787D01*
Y192789D01*
D02*
G37*
G36*
X18789Y175811D02*
X15927D01*
Y174031D01*
X18789D01*
Y175811D01*
D02*
G37*
G36*
X72457Y173330D02*
X70382D01*
Y170763D01*
X72457D01*
Y173330D01*
D02*
G37*
G36*
X69382D02*
X67307D01*
Y170763D01*
X69382D01*
Y173330D01*
D02*
G37*
G36*
X68121Y166535D02*
X65653D01*
Y163870D01*
X68121D01*
Y166535D01*
D02*
G37*
G36*
X60239Y166264D02*
X58459D01*
Y163401D01*
X60239D01*
Y166264D01*
D02*
G37*
G36*
X57459D02*
X55680D01*
Y163401D01*
X57459D01*
Y166264D01*
D02*
G37*
G36*
X106482Y149341D02*
X104407D01*
Y146774D01*
X106482D01*
Y149341D01*
D02*
G37*
G36*
Y145774D02*
X104407D01*
Y143207D01*
X106482D01*
Y145774D01*
D02*
G37*
G36*
X103407D02*
X101332D01*
Y143207D01*
X103407D01*
Y145774D01*
D02*
G37*
G36*
X107757Y139998D02*
X105289D01*
Y137333D01*
X107757D01*
Y139998D01*
D02*
G37*
G36*
Y136333D02*
X105289D01*
Y133667D01*
X107757D01*
Y136333D01*
D02*
G37*
G36*
X104608Y131334D02*
X102041D01*
Y129259D01*
X104608D01*
Y131334D01*
D02*
G37*
G36*
X119438Y138049D02*
X118256Y137893D01*
X117154Y137437D01*
X116209Y136711D01*
X115483Y135765D01*
X115026Y134664D01*
X114871Y133482D01*
X115026Y132300D01*
X115483Y131199D01*
X116209Y130253D01*
X117154Y129527D01*
X118256Y129071D01*
X119438Y128915D01*
X120619Y129071D01*
X121721Y129527D01*
X122667Y130253D01*
X123392Y131199D01*
X123849Y132300D01*
X124004Y133482D01*
X123849Y134664D01*
X123392Y135765D01*
X122667Y136711D01*
X121721Y137437D01*
X120619Y137893D01*
X119438Y138049D01*
D02*
G37*
G36*
X104608Y128259D02*
X102041D01*
Y126184D01*
X104608D01*
Y128259D01*
D02*
G37*
G36*
X101041D02*
X98474D01*
Y126184D01*
X101041D01*
Y128259D01*
D02*
G37*
G36*
X96438Y117160D02*
X93773D01*
Y114692D01*
X96438D01*
Y117160D01*
D02*
G37*
G36*
X92773D02*
X90108D01*
Y114692D01*
X92773D01*
Y117160D01*
D02*
G37*
G36*
X83059Y104701D02*
Y101008D01*
X84883D01*
Y102476D01*
X84706Y103366D01*
X84202Y104120D01*
X83448Y104624D01*
X83059Y104701D01*
D02*
G37*
G36*
X42048Y91232D02*
X39579D01*
Y88567D01*
X42048D01*
Y91232D01*
D02*
G37*
G36*
X139098Y87917D02*
X134858D01*
Y84465D01*
X139098D01*
Y87917D01*
D02*
G37*
G36*
X36467Y86315D02*
X34392D01*
Y83748D01*
X36467D01*
Y86315D01*
D02*
G37*
G36*
X33392D02*
X31317D01*
Y83748D01*
X33392D01*
Y86315D01*
D02*
G37*
G36*
X36467Y82748D02*
X34392D01*
Y80181D01*
X36467D01*
Y82748D01*
D02*
G37*
G36*
X33392D02*
X31317D01*
Y80181D01*
X33392D01*
Y82748D01*
D02*
G37*
G36*
X139098Y83465D02*
X134858D01*
Y80012D01*
X139098D01*
Y83465D01*
D02*
G37*
G36*
X33677Y79543D02*
X31209D01*
Y76878D01*
X33677D01*
Y79543D01*
D02*
G37*
G36*
Y75878D02*
X31209D01*
Y73213D01*
X33677D01*
Y75878D01*
D02*
G37*
G36*
X52165Y81406D02*
X46063D01*
Y76287D01*
X48111D01*
Y74122D01*
X46358D01*
Y69119D01*
X46343Y68626D01*
X46343Y68511D01*
Y66551D01*
X51886D01*
Y68510D01*
X51886Y68626D01*
X51870Y69119D01*
Y74122D01*
X50118D01*
Y76287D01*
X52165D01*
Y81406D01*
D02*
G37*
G36*
X65256Y81406D02*
X59153D01*
Y76287D01*
X61497D01*
Y74122D01*
X59449D01*
Y69119D01*
X59433Y68626D01*
X59433Y68510D01*
Y66551D01*
X64976D01*
Y68510D01*
X64976Y68626D01*
X64961Y69119D01*
Y74122D01*
X63503D01*
Y76287D01*
X65256D01*
Y81406D01*
D02*
G37*
G36*
X117618Y81209D02*
X111516D01*
Y76091D01*
X112973D01*
Y73925D01*
X111811D01*
Y68923D01*
X111795Y68429D01*
X111795Y68314D01*
Y66354D01*
X117339D01*
Y68314D01*
X117339Y68429D01*
X117323Y68923D01*
Y73925D01*
X114980D01*
Y76091D01*
X117618D01*
Y81209D01*
D02*
G37*
G36*
X91437Y81209D02*
X85335D01*
Y76091D01*
X85808D01*
Y73925D01*
X85630D01*
Y68923D01*
X85614Y68429D01*
X85614Y68314D01*
Y66354D01*
X91158D01*
Y68314D01*
X91158Y68429D01*
X91142Y68923D01*
Y73925D01*
X87815D01*
Y76091D01*
X91437D01*
Y81209D01*
D02*
G37*
G36*
X78347Y81209D02*
X72244D01*
Y76091D01*
X73209D01*
Y73925D01*
X72539D01*
Y68923D01*
X72524Y68429D01*
X72524Y68314D01*
Y66354D01*
X78067D01*
Y68314D01*
X78067Y68429D01*
X78051Y68923D01*
Y73925D01*
X75216D01*
Y76091D01*
X78347D01*
Y81209D01*
D02*
G37*
G36*
X104527Y81209D02*
X98425D01*
Y76091D01*
X98800D01*
Y73925D01*
X98721D01*
Y68923D01*
X98705Y68429D01*
X98705Y68314D01*
Y66354D01*
X104248D01*
Y68314D01*
X104248Y68429D01*
X104232Y68923D01*
Y73925D01*
X100807D01*
Y76091D01*
X104527D01*
Y81209D01*
D02*
G37*
G36*
X51886Y65551D02*
X49614D01*
Y63476D01*
X51886D01*
Y65551D01*
D02*
G37*
G36*
X48614D02*
X46343D01*
Y63476D01*
X48614D01*
Y65551D01*
D02*
G37*
G36*
X64976Y65551D02*
X62705D01*
Y63476D01*
X64976D01*
Y65551D01*
D02*
G37*
G36*
X61705D02*
X59433D01*
Y63476D01*
X61705D01*
Y65551D01*
D02*
G37*
G36*
X117339Y65354D02*
X115067D01*
Y63279D01*
X117339D01*
Y65354D01*
D02*
G37*
G36*
X114067D02*
X111795D01*
Y63279D01*
X114067D01*
Y65354D01*
D02*
G37*
G36*
X91158D02*
X88886D01*
Y63279D01*
X91158D01*
Y65354D01*
D02*
G37*
G36*
X87886D02*
X85614D01*
Y63279D01*
X87886D01*
Y65354D01*
D02*
G37*
G36*
X78067D02*
X75795D01*
Y63279D01*
X78067D01*
Y65354D01*
D02*
G37*
G36*
X74795D02*
X72524D01*
Y63279D01*
X74795D01*
Y65354D01*
D02*
G37*
G36*
X104248Y65354D02*
X101976D01*
Y63279D01*
X104248D01*
Y65354D01*
D02*
G37*
G36*
X100976D02*
X98705D01*
Y63279D01*
X100976D01*
Y65354D01*
D02*
G37*
G36*
X42357Y86299D02*
X37238D01*
Y80197D01*
X37613D01*
Y71264D01*
X33817Y67469D01*
X27717D01*
Y60382D01*
X35669D01*
Y66482D01*
X39326Y70139D01*
X39544Y70465D01*
X39620Y70849D01*
Y80197D01*
X42357D01*
Y86299D01*
D02*
G37*
G36*
X60827Y54527D02*
X54921D01*
Y48622D01*
X60827D01*
Y54527D01*
D02*
G37*
G36*
X81496Y54553D02*
X80725Y54452D01*
X80007Y54154D01*
X79390Y53681D01*
X78917Y53064D01*
X78619Y52346D01*
X78518Y51575D01*
X78619Y50804D01*
X78917Y50086D01*
X79390Y49469D01*
X80007Y48996D01*
X80725Y48698D01*
X81496Y48597D01*
X82267Y48698D01*
X82985Y48996D01*
X83602Y49469D01*
X84075Y50086D01*
X84373Y50804D01*
X84474Y51575D01*
X84373Y52346D01*
X84075Y53064D01*
X83602Y53681D01*
X82985Y54154D01*
X82267Y54452D01*
X81496Y54553D01*
D02*
G37*
G36*
X132118Y44201D02*
X130043D01*
Y41634D01*
X132118D01*
Y44201D01*
D02*
G37*
G36*
X129043D02*
X126969D01*
Y41634D01*
X129043D01*
Y44201D01*
D02*
G37*
G36*
X35669Y57468D02*
X27716D01*
Y50382D01*
X32159D01*
Y45276D01*
X29626D01*
Y40157D01*
X35728D01*
Y45276D01*
X34166D01*
Y50382D01*
X35669D01*
Y57468D01*
D02*
G37*
G36*
X81496Y44710D02*
X80725Y44609D01*
X80007Y44311D01*
X79390Y43838D01*
X78917Y43221D01*
X78619Y42503D01*
X78518Y41732D01*
X78619Y40962D01*
X78917Y40243D01*
X79390Y39626D01*
X80007Y39153D01*
X80725Y38855D01*
X81496Y38754D01*
X82267Y38855D01*
X82985Y39153D01*
X83602Y39626D01*
X84075Y40243D01*
X84373Y40962D01*
X84474Y41732D01*
X84373Y42503D01*
X84075Y43221D01*
X83602Y43838D01*
X82985Y44311D01*
X82267Y44609D01*
X81496Y44710D01*
D02*
G37*
G36*
X73622D02*
X72851Y44609D01*
X72133Y44311D01*
X71516Y43838D01*
X71043Y43221D01*
X70745Y42503D01*
X70644Y41732D01*
X70745Y40962D01*
X71043Y40243D01*
X71516Y39626D01*
X72133Y39153D01*
X72851Y38855D01*
X73622Y38754D01*
X74393Y38855D01*
X75111Y39153D01*
X75728Y39626D01*
X76201Y40243D01*
X76499Y40962D01*
X76600Y41732D01*
X76499Y42503D01*
X76201Y43221D01*
X75728Y43838D01*
X75111Y44311D01*
X74393Y44609D01*
X73622Y44710D01*
D02*
G37*
G36*
X65748D02*
X64977Y44609D01*
X64259Y44311D01*
X63642Y43838D01*
X63169Y43221D01*
X62871Y42503D01*
X62770Y41732D01*
X62871Y40962D01*
X63169Y40243D01*
X63642Y39626D01*
X64259Y39153D01*
X64977Y38855D01*
X65748Y38754D01*
X66519Y38855D01*
X67237Y39153D01*
X67854Y39626D01*
X68327Y40243D01*
X68625Y40962D01*
X68726Y41732D01*
X68625Y42503D01*
X68327Y43221D01*
X67854Y43838D01*
X67237Y44311D01*
X66519Y44609D01*
X65748Y44710D01*
D02*
G37*
G36*
X57874D02*
X57103Y44609D01*
X56385Y44311D01*
X55768Y43838D01*
X55295Y43221D01*
X54997Y42503D01*
X54896Y41732D01*
X54997Y40962D01*
X55295Y40243D01*
X55768Y39626D01*
X56385Y39153D01*
X57103Y38855D01*
X57874Y38754D01*
X58645Y38855D01*
X59363Y39153D01*
X59980Y39626D01*
X60453Y40243D01*
X60751Y40962D01*
X60852Y41732D01*
X60751Y42503D01*
X60453Y43221D01*
X59980Y43838D01*
X59363Y44311D01*
X58645Y44609D01*
X57874Y44710D01*
D02*
G37*
G36*
X132118Y40634D02*
X130043D01*
Y38067D01*
X132118D01*
Y40634D01*
D02*
G37*
G36*
X129043D02*
X126969D01*
Y38067D01*
X129043D01*
Y40634D01*
D02*
G37*
%LPD*%
G36*
X35138Y173138D02*
X39854D01*
X40045Y172676D01*
X39201Y171832D01*
X25076D01*
X24884Y172294D01*
X27598Y175008D01*
X32872D01*
Y175874D01*
X35138D01*
Y173138D01*
D02*
G37*
G36*
X86221Y170779D02*
X89882D01*
X90074Y170317D01*
X88469Y168712D01*
X88252Y168387D01*
X88175Y168003D01*
Y167019D01*
X86439D01*
Y167035D01*
X83970D01*
Y163870D01*
Y160704D01*
X86439D01*
Y160720D01*
X86989D01*
Y156824D01*
X86024D01*
X85140Y156648D01*
X84391Y156148D01*
X83891Y155399D01*
X83715Y154516D01*
X83891Y153632D01*
X84391Y152884D01*
X85140Y152383D01*
X85707Y152271D01*
Y151761D01*
X85140Y151648D01*
X84391Y151148D01*
X83891Y150399D01*
X83715Y149516D01*
X83891Y148632D01*
X84391Y147884D01*
X85140Y147383D01*
X85707Y147271D01*
Y146761D01*
X85140Y146648D01*
X84391Y146148D01*
X83891Y145399D01*
X83715Y144516D01*
X83891Y143632D01*
X84391Y142884D01*
X85140Y142383D01*
X85707Y142271D01*
Y141761D01*
X85140Y141648D01*
X84391Y141148D01*
X83891Y140399D01*
X83715Y139516D01*
X83891Y138632D01*
X84391Y137884D01*
X85140Y137383D01*
X86024Y137208D01*
X89961D01*
X90844Y137383D01*
X91593Y137884D01*
X92013Y138512D01*
X96127D01*
Y133683D01*
X96127D01*
X96009Y133232D01*
X95878Y133054D01*
X90187D01*
X89909Y133470D01*
X89323Y133862D01*
X88631Y133999D01*
X87940Y133862D01*
X87354Y133470D01*
X87171Y133196D01*
X73622D01*
Y134646D01*
X67929D01*
Y134661D01*
X65461D01*
Y131496D01*
X64461D01*
Y134661D01*
X61992D01*
Y133537D01*
X61530Y133345D01*
X57634Y137241D01*
X57309Y137459D01*
X56925Y137535D01*
X56880D01*
X56697Y137809D01*
X56111Y138200D01*
X55742Y138274D01*
X55577Y138816D01*
X60273Y143512D01*
X61727D01*
X62147Y142884D01*
X62896Y142383D01*
X63422Y142279D01*
Y141769D01*
X62890Y141663D01*
X62136Y141159D01*
X61632Y140405D01*
X61555Y140016D01*
X65748D01*
X69941D01*
X69864Y140405D01*
X69360Y141159D01*
X68606Y141663D01*
X68074Y141769D01*
Y142279D01*
X68600Y142383D01*
X69349Y142884D01*
X69849Y143632D01*
X70025Y144516D01*
X69849Y145399D01*
X69349Y146148D01*
X68600Y146648D01*
X68033Y146761D01*
Y147271D01*
X68600Y147383D01*
X69349Y147884D01*
X69849Y148632D01*
X70025Y149516D01*
X69877Y150257D01*
X75709Y156089D01*
X75927Y156415D01*
X76003Y156799D01*
Y160220D01*
X77283D01*
Y166519D01*
X76791D01*
Y170779D01*
X78346D01*
Y171437D01*
X80315D01*
Y170779D01*
X85433D01*
Y176775D01*
X86221D01*
Y170779D01*
D02*
G37*
G36*
X42304Y171443D02*
Y158191D01*
X41107Y156994D01*
X37008D01*
Y156614D01*
X34154D01*
Y159055D01*
X28051D01*
Y157107D01*
X26673D01*
Y157876D01*
X21358D01*
Y154332D01*
X26673D01*
Y155100D01*
X28051D01*
Y153937D01*
X34154D01*
Y154607D01*
X37008D01*
Y150892D01*
X42126D01*
Y155173D01*
X42477Y155462D01*
X42913Y155275D01*
Y150892D01*
X47578D01*
X47785Y150392D01*
X43672Y146279D01*
X25537D01*
X23005Y148811D01*
Y149962D01*
X23279Y150145D01*
X23671Y150731D01*
X23808Y151422D01*
X23671Y152114D01*
X23279Y152700D01*
X22693Y153091D01*
X22002Y153229D01*
X21310Y153091D01*
X20725Y152700D01*
X20333Y152114D01*
X20195Y151422D01*
X20333Y150731D01*
X20725Y150145D01*
X20998Y149962D01*
Y148396D01*
X21075Y148011D01*
X21292Y147686D01*
X23812Y145166D01*
X23620Y144704D01*
X17632D01*
X13069Y149268D01*
Y154317D01*
X14854D01*
Y156104D01*
X15354D01*
Y156604D01*
X18028D01*
Y157659D01*
X18509D01*
X18893Y157736D01*
X19219Y157953D01*
X20788Y159523D01*
X20858Y159627D01*
X21358Y159476D01*
Y159450D01*
X26673D01*
Y160219D01*
X26923D01*
X27307Y160295D01*
X27632Y160512D01*
X29419Y162299D01*
X29637Y162625D01*
X29713Y163009D01*
Y163189D01*
X33025D01*
Y163173D01*
X35296D01*
Y166142D01*
Y169110D01*
X33025D01*
Y169095D01*
X27726D01*
Y168484D01*
X24380D01*
X23952Y168912D01*
Y169412D01*
X24364Y169825D01*
X39617D01*
X40001Y169901D01*
X40326Y170119D01*
X41842Y171634D01*
X42304Y171443D01*
D02*
G37*
G36*
X21701Y168433D02*
X21918Y168107D01*
X23255Y166771D01*
X23580Y166554D01*
X23964Y166477D01*
X27726D01*
Y164467D01*
X27706Y164370D01*
Y163425D01*
X27099Y162817D01*
X26673Y162994D01*
Y162994D01*
X21358D01*
X21082Y163379D01*
Y164394D01*
X21356Y164577D01*
X21748Y165163D01*
X21885Y165854D01*
X21748Y166546D01*
X21356Y167132D01*
X20770Y167523D01*
X20079Y167661D01*
X19387Y167523D01*
X18801Y167132D01*
X18410Y166546D01*
X18272Y165854D01*
X18410Y165163D01*
X18801Y164577D01*
X19075Y164394D01*
Y160648D01*
X18512Y160085D01*
X18012Y160292D01*
Y160435D01*
X18012D01*
Y162994D01*
X12697D01*
Y161788D01*
X12533Y161756D01*
X12207Y161538D01*
X11965Y161296D01*
X11503Y161487D01*
Y165733D01*
X11777Y165916D01*
X12169Y166502D01*
X12306Y167193D01*
X12242Y167516D01*
X13230Y168504D01*
X21687D01*
X21701Y168433D01*
D02*
G37*
G36*
X71557Y157778D02*
X72143Y157386D01*
X72834Y157248D01*
X73444Y157370D01*
X73636Y157164D01*
X73739Y156957D01*
X70345Y153563D01*
X69884Y153810D01*
X70025Y154516D01*
X69849Y155399D01*
X69349Y156148D01*
X68600Y156648D01*
X67716Y156824D01*
X63779D01*
X62896Y156648D01*
X62147Y156148D01*
X61727Y155519D01*
X59132D01*
X58748Y155443D01*
X58423Y155225D01*
X57538Y154340D01*
X55225D01*
X55034Y154802D01*
X58283Y158051D01*
X71374D01*
X71557Y157778D01*
D02*
G37*
G36*
X105709Y164458D02*
Y160759D01*
X110313D01*
X110577Y160428D01*
X110378Y159971D01*
X105709D01*
Y155892D01*
X101542Y151725D01*
X101153Y152044D01*
X101393Y152402D01*
X101530Y153094D01*
X101393Y153785D01*
X101013Y154353D01*
X101034Y154459D01*
X101179Y154853D01*
X101181D01*
Y159971D01*
X95079D01*
Y158035D01*
X94262D01*
X93966Y158478D01*
X93380Y158870D01*
X92689Y159007D01*
X91997Y158870D01*
X91411Y158478D01*
X91020Y157892D01*
X90882Y157201D01*
X90893Y157148D01*
X90468Y156723D01*
X89961Y156824D01*
X88996D01*
Y160720D01*
X92132D01*
Y167019D01*
X90182D01*
Y167587D01*
X94122Y171526D01*
X98640D01*
X105709Y164458D01*
D02*
G37*
G36*
X62147Y152884D02*
X62896Y152383D01*
X63463Y152271D01*
Y151761D01*
X62896Y151648D01*
X62147Y151148D01*
X61647Y150399D01*
X61471Y149516D01*
X61647Y148632D01*
X62147Y147884D01*
X62896Y147383D01*
X63463Y147271D01*
Y146761D01*
X62896Y146648D01*
X62147Y146148D01*
X61727Y145519D01*
X59858D01*
X59474Y145443D01*
X59457Y145431D01*
X58957Y145699D01*
Y148435D01*
X52854D01*
Y144736D01*
X51789Y143670D01*
X51277Y143568D01*
X50691Y143177D01*
X50300Y142591D01*
X50226Y142220D01*
X45233D01*
X45184Y142720D01*
X45453Y142774D01*
X45779Y142991D01*
X52392Y149605D01*
X52854Y149413D01*
Y149222D01*
X58957D01*
Y152921D01*
X59548Y153512D01*
X61727D01*
X62147Y152884D01*
D02*
G37*
G36*
X95442Y148820D02*
Y143222D01*
X96998D01*
Y140949D01*
X96594Y140519D01*
X92013D01*
X91593Y141148D01*
X90844Y141648D01*
X90277Y141761D01*
Y142271D01*
X90844Y142383D01*
X91593Y142884D01*
X92093Y143632D01*
X92269Y144516D01*
X92093Y145399D01*
X91781Y145866D01*
X94942Y149027D01*
X95442Y148820D01*
D02*
G37*
G36*
X56777Y142855D02*
X51344Y137421D01*
X24954D01*
X24698Y137833D01*
X24699Y137921D01*
X24830Y138583D01*
X24693Y139274D01*
X24399Y139713D01*
X24604Y140213D01*
X36076D01*
X36259Y139939D01*
X36845Y139548D01*
X37536Y139410D01*
X38227Y139548D01*
X38813Y139939D01*
X38996Y140213D01*
X51285D01*
X51326Y140221D01*
X51968Y140093D01*
X52660Y140231D01*
X53246Y140622D01*
X53637Y141208D01*
X53775Y141900D01*
X53637Y142591D01*
X53601Y142645D01*
X54273Y143316D01*
X56586D01*
X56777Y142855D01*
D02*
G37*
G36*
X19291Y129624D02*
X24409D01*
Y129998D01*
X28346D01*
Y127291D01*
X25712D01*
Y127665D01*
X20019D01*
Y127681D01*
X17551D01*
Y124516D01*
Y121350D01*
X18889D01*
X19050Y120850D01*
X18896Y120619D01*
X18819Y120235D01*
Y119080D01*
X18191Y118660D01*
X17690Y117911D01*
X17578Y117344D01*
X17068D01*
X16955Y117911D01*
X16455Y118660D01*
X15706Y119160D01*
X14823Y119336D01*
X13940Y119160D01*
X13191Y118660D01*
X12690Y117911D01*
X12586Y117385D01*
X12076D01*
X11970Y117917D01*
X11466Y118671D01*
X10712Y119175D01*
X10323Y119252D01*
Y115059D01*
Y110866D01*
X10712Y110943D01*
X11466Y111447D01*
X11970Y112201D01*
X12076Y112733D01*
X12586D01*
X12690Y112207D01*
X13191Y111459D01*
X13940Y110958D01*
X14823Y110782D01*
X15564Y110930D01*
X24842Y101652D01*
X25167Y101435D01*
X25551Y101358D01*
X30823D01*
X31006Y101085D01*
X31263Y100913D01*
X31111Y100413D01*
X24449D01*
X24065Y100337D01*
X23739Y100119D01*
X20564Y96944D01*
X19823Y97092D01*
X18939Y96916D01*
X18191Y96416D01*
X17690Y95667D01*
X17578Y95100D01*
X17068D01*
X16955Y95667D01*
X16455Y96416D01*
X15706Y96916D01*
X14823Y97092D01*
X13939Y96916D01*
X13191Y96416D01*
X12690Y95667D01*
X12578Y95100D01*
X12068D01*
X11955Y95667D01*
X11455Y96416D01*
X10706Y96916D01*
X9823Y97092D01*
X8940Y96916D01*
X8191Y96416D01*
X8119Y96309D01*
X7619Y96460D01*
Y111385D01*
X8119Y111537D01*
X8179Y111447D01*
X8933Y110943D01*
X9323Y110866D01*
Y115059D01*
Y119252D01*
X8933Y119175D01*
X8179Y118671D01*
X8119Y118581D01*
X7619Y118733D01*
Y130926D01*
X12107Y135414D01*
X13370D01*
Y133175D01*
X15945D01*
X18520D01*
Y135414D01*
X19291D01*
Y129624D01*
D02*
G37*
G36*
X53677Y136209D02*
X53750Y135840D01*
X54142Y135254D01*
X54728Y134862D01*
X54854Y134837D01*
X54949Y134560D01*
X54990Y134301D01*
X54630Y133762D01*
X54493Y133071D01*
X54630Y132379D01*
X55022Y131793D01*
X55608Y131402D01*
X56299Y131264D01*
X56990Y131402D01*
X57576Y131793D01*
X58062Y131739D01*
X58114Y131686D01*
X57988Y131225D01*
X57926Y131152D01*
X57577Y131082D01*
X56990Y130691D01*
X56599Y130105D01*
X56461Y129413D01*
X56526Y129090D01*
X55084Y127649D01*
X54867Y127323D01*
X54790Y126939D01*
Y118610D01*
X53839D01*
Y115939D01*
X53339Y115662D01*
X53262Y115709D01*
Y116939D01*
X53186Y117323D01*
X52969Y117649D01*
X43541Y127076D01*
X43469Y127440D01*
X43077Y128026D01*
X42491Y128418D01*
X41800Y128555D01*
X41109Y128418D01*
X40523Y128026D01*
X40131Y127440D01*
X39994Y126749D01*
X40131Y126058D01*
X40523Y125472D01*
X41109Y125080D01*
X41800Y124943D01*
X42491Y125080D01*
X42616Y125163D01*
X48706Y119072D01*
X48515Y118610D01*
X46358D01*
Y116858D01*
X42421D01*
Y118807D01*
X38897D01*
Y119622D01*
X39171Y119805D01*
X39562Y120391D01*
X39700Y121082D01*
X39562Y121774D01*
X39171Y122360D01*
X38897Y122543D01*
Y125689D01*
X39370D01*
Y131791D01*
X34252D01*
Y125689D01*
X34252Y125689D01*
X34252D01*
X34236Y125196D01*
X34139Y125131D01*
X33747Y124545D01*
X33610Y123854D01*
X33747Y123163D01*
X34139Y122577D01*
X34413Y122394D01*
Y107891D01*
X34489Y107507D01*
X34075Y107226D01*
X27131Y114170D01*
Y117028D01*
X26955Y117911D01*
X26455Y118660D01*
X25706Y119160D01*
X24823Y119336D01*
X23939Y119160D01*
X23191Y118660D01*
X22690Y117911D01*
X22578Y117344D01*
X22068D01*
X21955Y117911D01*
X21455Y118660D01*
X20826Y119080D01*
Y119820D01*
X22373Y121366D01*
X25712D01*
Y125284D01*
X28945D01*
X29329Y125360D01*
X29654Y125578D01*
X29766Y125689D01*
X33465D01*
Y131791D01*
X29726D01*
X29520Y131929D01*
X29136Y132005D01*
X24409D01*
Y135414D01*
X51759D01*
X52143Y135490D01*
X52469Y135708D01*
X53135Y136373D01*
X53677Y136209D01*
D02*
G37*
G36*
X22690Y112207D02*
X23191Y111459D01*
X23939Y110958D01*
X24823Y110782D01*
X25706Y110958D01*
X26455Y111459D01*
X26456Y111460D01*
X26954Y111509D01*
X37588Y100875D01*
X37396Y100413D01*
X33455D01*
X33304Y100913D01*
X33561Y101085D01*
X33952Y101671D01*
X34090Y102362D01*
X33952Y103053D01*
X33561Y103639D01*
X32975Y104031D01*
X32283Y104168D01*
X31592Y104031D01*
X31006Y103639D01*
X30823Y103366D01*
X25967D01*
X18871Y110462D01*
X19117Y110923D01*
X19823Y110782D01*
X20706Y110958D01*
X21455Y111459D01*
X21955Y112207D01*
X22068Y112774D01*
X22578D01*
X22690Y112207D01*
D02*
G37*
G36*
X65513Y117613D02*
X65838Y117396D01*
X66222Y117319D01*
X70098D01*
X70482Y117396D01*
X70808Y117613D01*
X70838Y117643D01*
X71300Y117452D01*
Y115804D01*
X70770Y115451D01*
X70378Y114865D01*
X70241Y114173D01*
X70378Y113482D01*
X70770Y112896D01*
X71356Y112504D01*
X72047Y112367D01*
X72738Y112504D01*
X73325Y112896D01*
X73716Y113482D01*
X73854Y114173D01*
X73716Y114865D01*
X73325Y115451D01*
X73307Y115462D01*
Y118624D01*
X73442Y118651D01*
X74191Y119151D01*
X74691Y119900D01*
X74804Y120467D01*
X75314D01*
X75427Y119900D01*
X75927Y119151D01*
X76556Y118731D01*
Y117996D01*
X76282Y117813D01*
X75890Y117227D01*
X75753Y116535D01*
X75890Y115844D01*
X76282Y115258D01*
X76556Y115075D01*
Y104528D01*
X75927Y104109D01*
X75427Y103360D01*
X75314Y102793D01*
X74804D01*
X74691Y103360D01*
X74191Y104109D01*
X73442Y104609D01*
X72559Y104785D01*
X71676Y104609D01*
X70927Y104109D01*
X70427Y103360D01*
X70314Y102793D01*
X69804D01*
X69691Y103360D01*
X69191Y104109D01*
X68442Y104609D01*
X67559Y104785D01*
X66676Y104609D01*
X65927Y104109D01*
X65511Y103486D01*
X65063Y103367D01*
X64919Y103370D01*
X63434Y104856D01*
X63544Y105329D01*
X63606Y105390D01*
X64167Y105765D01*
X64559Y106351D01*
X64697Y107042D01*
X64559Y107733D01*
X64167Y108319D01*
X63581Y108711D01*
X62890Y108848D01*
X62567Y108784D01*
X61437Y109915D01*
Y121036D01*
X61898Y121227D01*
X65513Y117613D01*
D02*
G37*
G36*
X46358Y111721D02*
X50886D01*
Y111965D01*
X51386Y112232D01*
X51568Y112111D01*
X52259Y111973D01*
X52950Y112111D01*
X53339Y112370D01*
X53839Y112123D01*
Y111721D01*
X57953D01*
Y108540D01*
X57567Y108107D01*
X49525D01*
X49141Y108031D01*
X48815Y107813D01*
X47912Y106910D01*
X47707Y106602D01*
X46358D01*
Y101988D01*
X42088D01*
X41831Y102400D01*
X41832Y102488D01*
X41964Y103149D01*
X41826Y103841D01*
X41435Y104427D01*
X40849Y104818D01*
X40157Y104956D01*
X39834Y104892D01*
X38011Y106715D01*
X38202Y107177D01*
X38772D01*
Y110146D01*
X39272D01*
Y110646D01*
X42437D01*
Y113114D01*
X42421D01*
Y114851D01*
X46358D01*
Y111721D01*
D02*
G37*
G36*
X98883Y106121D02*
X100374D01*
Y102507D01*
X100000D01*
Y97724D01*
X99563Y97537D01*
X99213Y97827D01*
Y102507D01*
X94095D01*
Y96405D01*
X97793D01*
X99265Y94933D01*
X99074Y94472D01*
X98920D01*
X98739Y94507D01*
X90045D01*
X89854Y94969D01*
X92211Y97327D01*
X92428Y97652D01*
X92505Y98036D01*
Y105531D01*
X96423D01*
Y107674D01*
X98883D01*
Y106121D01*
D02*
G37*
G36*
X33520Y97906D02*
X33276Y97541D01*
X33139Y96850D01*
X33276Y96158D01*
X33668Y95573D01*
X33942Y95389D01*
Y94882D01*
X30418D01*
Y93818D01*
X27131D01*
Y94784D01*
X26955Y95667D01*
X26455Y96416D01*
X25706Y96916D01*
X24823Y97092D01*
X24117Y96951D01*
X23870Y97412D01*
X24864Y98406D01*
X33254D01*
X33520Y97906D01*
D02*
G37*
G36*
X61201Y102050D02*
Y97725D01*
X61278Y97341D01*
X61495Y97016D01*
X69537Y88973D01*
X69346Y88511D01*
X61833D01*
X53655Y96689D01*
Y99266D01*
X53823Y99697D01*
X55602D01*
Y103157D01*
X56102D01*
Y103657D01*
X58382D01*
Y104216D01*
X58844Y104407D01*
X61201Y102050D01*
D02*
G37*
G36*
X51522Y98250D02*
X51648Y98134D01*
Y96273D01*
X51725Y95889D01*
X51942Y95564D01*
X59733Y87773D01*
X59542Y87311D01*
X59153D01*
Y85755D01*
X57494D01*
X46329Y96921D01*
X46393Y97244D01*
X46261Y97906D01*
X46261Y97993D01*
X46517Y98406D01*
X50886D01*
X51148Y98458D01*
X51522Y98250D01*
D02*
G37*
G36*
X15974Y79512D02*
X18442D01*
Y80445D01*
X18943Y80597D01*
X19195Y80219D01*
X19781Y79827D01*
X20472Y79690D01*
X21164Y79827D01*
X21750Y80219D01*
X22141Y80805D01*
X22236Y81279D01*
X22736Y81230D01*
Y79527D01*
X22047D01*
Y73228D01*
X22422D01*
Y62902D01*
X15157D01*
Y55385D01*
X14658Y55178D01*
X13069Y56767D01*
Y57480D01*
X13681D01*
Y62598D01*
X7619D01*
Y63386D01*
X13681D01*
Y68504D01*
X11141D01*
Y70972D01*
X12604D01*
Y70957D01*
X15073D01*
Y74122D01*
Y77287D01*
X12604D01*
Y77272D01*
X10769D01*
Y79528D01*
X12506D01*
Y79512D01*
X14974D01*
Y82677D01*
X15974D01*
Y79512D01*
D02*
G37*
%LPC*%
G36*
X82970Y167035D02*
X80502D01*
Y164370D01*
X82970D01*
Y167035D01*
D02*
G37*
G36*
Y163370D02*
X80502D01*
Y160704D01*
X82970D01*
Y163370D01*
D02*
G37*
G36*
X69941Y139016D02*
X66248D01*
Y137191D01*
X67716D01*
X68606Y137368D01*
X69360Y137872D01*
X69864Y138626D01*
X69941Y139016D01*
D02*
G37*
G36*
X65248D02*
X61555D01*
X61632Y138626D01*
X62136Y137872D01*
X62890Y137368D01*
X63779Y137191D01*
X65248D01*
Y139016D01*
D02*
G37*
G36*
X38568Y169110D02*
X36296D01*
Y166642D01*
X38568D01*
Y169110D01*
D02*
G37*
G36*
Y165642D02*
X36296D01*
Y163173D01*
X38568D01*
Y165642D01*
D02*
G37*
G36*
X18028Y155604D02*
X15854D01*
Y154317D01*
X18028D01*
Y155604D01*
D02*
G37*
G36*
X34169Y153165D02*
X31602D01*
Y151091D01*
X34169D01*
Y153165D01*
D02*
G37*
G36*
X30602D02*
X28035D01*
Y151091D01*
X30602D01*
Y153165D01*
D02*
G37*
G36*
X34169Y150091D02*
X31602D01*
Y148016D01*
X34169D01*
Y150091D01*
D02*
G37*
G36*
X30602D02*
X28035D01*
Y148016D01*
X30602D01*
Y150091D01*
D02*
G37*
G36*
X101197Y165893D02*
X98630D01*
Y163818D01*
X101197D01*
Y165893D01*
D02*
G37*
G36*
X97630D02*
X95063D01*
Y163818D01*
X97630D01*
Y165893D01*
D02*
G37*
G36*
X101197Y162818D02*
X98630D01*
Y160743D01*
X101197D01*
Y162818D01*
D02*
G37*
G36*
X97630D02*
X95063D01*
Y160743D01*
X97630D01*
Y162818D01*
D02*
G37*
G36*
X18520Y132175D02*
X16445D01*
Y129608D01*
X18520D01*
Y132175D01*
D02*
G37*
G36*
X15445D02*
X13370D01*
Y129608D01*
X15445D01*
Y132175D01*
D02*
G37*
G36*
X16551Y127681D02*
X14082D01*
Y125016D01*
X16551D01*
Y127681D01*
D02*
G37*
G36*
Y124016D02*
X14082D01*
Y121350D01*
X16551D01*
Y124016D01*
D02*
G37*
G36*
X42437Y109646D02*
X39772D01*
Y107177D01*
X42437D01*
Y109646D01*
D02*
G37*
G36*
X58382Y102657D02*
X56602D01*
Y99697D01*
X58382D01*
Y102657D01*
D02*
G37*
G36*
X18541Y77287D02*
X16072D01*
Y74622D01*
X18541D01*
Y77287D01*
D02*
G37*
G36*
Y73622D02*
X16072D01*
Y70957D01*
X18541D01*
Y73622D01*
D02*
G37*
%LPD*%
D14*
X0Y220472D02*
X145669D01*
X-0D02*
X0Y0D01*
X145669Y220472D02*
X145669Y0D01*
X0D02*
X145669D01*
D15*
X9823Y87775D02*
Y92815D01*
Y82735D02*
Y87775D01*
X9864Y74122D02*
X10138Y73848D01*
X9765Y74221D02*
X9864Y74122D01*
X9823Y87775D02*
X11377Y86221D01*
X20177Y48239D02*
X20287D01*
X23622Y51575D01*
X20177Y43898D02*
Y48239D01*
X12065Y56352D02*
X20177Y48239D01*
X12065Y56352D02*
Y58858D01*
X11692Y136417D02*
X51759D01*
X6616Y131342D02*
X11692Y136417D01*
X6616Y58739D02*
Y131342D01*
X87992Y139516D02*
X96594D01*
X98001Y138108D01*
X91501Y98036D02*
Y106909D01*
X88399Y94934D02*
X91501Y98036D01*
X73771Y94934D02*
X88399D01*
X112008Y149693D02*
Y158661D01*
X37825Y117301D02*
X37894Y117370D01*
X127854Y64586D02*
X129160Y63279D01*
X130630Y72154D02*
X134358D01*
X129232Y73551D02*
X130630Y72154D01*
X129232Y73551D02*
Y103687D01*
X135138Y63011D02*
X136713Y64586D01*
Y69799D01*
X134358Y72154D02*
X136713Y69799D01*
X128347Y58366D02*
Y61928D01*
X129429Y63011D01*
X129160Y63279D02*
X129429Y63011D01*
X127854Y64586D02*
Y82776D01*
X115784Y94846D02*
X127854Y82776D01*
X128347Y52362D02*
Y58366D01*
Y52362D02*
X129528Y51181D01*
X135039Y41543D02*
Y51181D01*
Y41543D02*
X135449Y41134D01*
X111811Y97638D02*
X112992D01*
X115784Y94846D01*
X112008Y158661D02*
Y160562D01*
X112008Y158661D02*
X112008Y158661D01*
Y160562D02*
X113810Y162364D01*
Y167500D01*
X114991Y168681D01*
X115483D01*
X107051Y177778D02*
X108563Y176266D01*
X114991Y174587D02*
X115483D01*
X113312Y176266D02*
X114991Y174587D01*
X108563Y176266D02*
X113312D01*
X128347Y127768D02*
Y170772D01*
X105315Y193804D02*
X128347Y170772D01*
X105315Y193804D02*
Y205385D01*
X55473Y177778D02*
X107051D01*
X54219Y176524D02*
X55473Y177778D01*
X54219Y173138D02*
Y176524D01*
X87008Y184969D02*
X89714D01*
X85827Y186150D02*
X87008Y184969D01*
X85827Y186150D02*
Y187081D01*
X89714Y184969D02*
X92906Y181778D01*
X85827Y188856D02*
Y190230D01*
X92906Y181778D02*
X96555D01*
X97441Y180892D01*
X100772Y94846D02*
X115784D01*
X96653Y98964D02*
X100772Y94846D01*
X105162Y93468D02*
X114075Y84555D01*
X98775Y93468D02*
X105162D01*
X119438Y113482D02*
X129232Y103687D01*
X99056Y172530D02*
X108268Y163318D01*
X93706Y172530D02*
X99056D01*
X92406Y173830D02*
X93706Y172530D01*
X89179Y168003D02*
X93706Y172530D01*
X88779Y173830D02*
X92406D01*
X89179Y163870D02*
Y168003D01*
X92857Y157032D02*
X97005D01*
X92689Y157201D02*
X92857Y157032D01*
X87992Y162683D02*
X89179Y163870D01*
X87992Y154516D02*
Y162683D01*
X97590Y153094D02*
X99724D01*
X89012Y144516D02*
X97590Y153094D01*
X87992Y144516D02*
X89012D01*
X91562Y149516D02*
X98130Y156083D01*
X87992Y149516D02*
X91562D01*
X98130Y156083D02*
Y157413D01*
X57079Y84752D02*
X62205D01*
X44587Y97244D02*
X57079Y84752D01*
X40157Y97244D02*
X47441Y89961D01*
Y85933D02*
Y89961D01*
X71850Y87508D02*
X74803Y84555D01*
X61417Y87508D02*
X71850D01*
X74803Y84555D02*
X75295D01*
X51572Y101187D02*
X52652D01*
X70757Y89173D02*
X83276D01*
X62205Y97725D02*
X70757Y89173D01*
X83276D02*
X87894Y84555D01*
X38616Y70849D02*
Y82067D01*
X31693Y63925D02*
X38616Y70849D01*
X18306Y87598D02*
X23739Y82165D01*
Y77639D02*
Y82165D01*
Y77639D02*
X25000Y76378D01*
X15730Y87598D02*
X18306D01*
X14823Y88506D02*
X15730Y87598D01*
X14823Y88506D02*
Y92815D01*
X20472Y81496D02*
Y83483D01*
X17735Y86221D02*
X20472Y83483D01*
X11377Y86221D02*
X17735D01*
X28710Y163009D02*
Y164370D01*
X26923Y161222D02*
X28710Y163009D01*
X24016Y161222D02*
X26923D01*
X25122Y145276D02*
X44088D01*
X22002Y148396D02*
X25122Y145276D01*
X22002Y148396D02*
Y151422D01*
X44088Y145276D02*
X57867Y159055D01*
X17217Y143701D02*
X45069D01*
X12065Y148852D02*
X17217Y143701D01*
X45069D02*
X53149Y151781D01*
X51285Y141217D02*
X51968Y141900D01*
X37536Y141217D02*
X51285D01*
X17752D02*
X37536D01*
X10500Y148469D02*
X17752Y141217D01*
X10500Y148469D02*
Y167193D01*
X12065Y148852D02*
Y159976D01*
X17943Y138583D02*
X23024D01*
X8335Y148191D02*
X17943Y138583D01*
X8335Y148191D02*
Y168090D01*
X66222Y118323D02*
X70098D01*
X61811Y122734D02*
X66222Y118323D01*
X61811Y122734D02*
Y131645D01*
X60433Y109499D02*
Y131074D01*
Y109499D02*
X62890Y107042D01*
X58957Y107913D02*
Y124593D01*
Y107913D02*
X64787Y102083D01*
X57959Y125591D02*
X58957Y124593D01*
X52259Y113779D02*
Y116939D01*
X35416Y107891D02*
X40157Y103149D01*
X35416Y107891D02*
Y123854D01*
X47236Y100984D02*
X48622Y102370D01*
X38898Y100984D02*
X47236D01*
X24823Y115059D02*
X38898Y100984D01*
X24449Y99409D02*
X50886D01*
X19823Y94784D02*
X24449Y99409D01*
X22628Y168817D02*
Y169508D01*
X12814D02*
X22628D01*
X23948Y170828D01*
X39617D01*
X22242Y171071D02*
X28443Y177271D01*
X11315Y171071D02*
X22242D01*
X22628Y168817D02*
X23964Y167481D01*
X10500Y167193D02*
X12814Y169508D01*
X108760Y163318D02*
X109252D01*
X108268D02*
X108760D01*
X112008Y158661D02*
Y160562D01*
X109252Y163318D02*
X112008Y160562D01*
X108268Y157413D02*
X108760D01*
X107087Y156231D02*
X108268Y157413D01*
X107087Y155851D02*
Y156231D01*
X98001Y146766D02*
X107087Y155851D01*
X98001Y146274D02*
Y146766D01*
Y138108D02*
Y146766D01*
X45472Y153943D02*
Y154435D01*
X49593Y158556D01*
Y162016D01*
X50479Y162901D01*
X39961Y154429D02*
X43307Y157776D01*
Y181796D01*
X40745Y184358D02*
X43307Y181796D01*
X13681Y184358D02*
X40745D01*
X11122Y181799D02*
X13681Y184358D01*
X10630Y181799D02*
X11122D01*
X39567Y153943D02*
Y154429D01*
X38386Y155610D02*
X39567Y154429D01*
X31988Y155610D02*
X38386D01*
X31102Y156496D02*
X31988Y155610D01*
X30710Y156104D02*
X31102Y156496D01*
X24016Y156104D02*
X30710D01*
X23964Y167481D02*
X28946D01*
X30285Y166142D01*
X8335Y168090D02*
X11315Y171071D01*
X28443Y177271D02*
X29526D01*
X30285Y165945D02*
Y166142D01*
X28710Y164370D02*
X30285Y165945D01*
X51759Y136417D02*
X59858Y144516D01*
X65748D01*
X39272Y115854D02*
X47933D01*
X48622Y115165D01*
X37825Y117301D02*
X39272Y115854D01*
X55794Y115474D02*
X56102Y115165D01*
X55794Y115474D02*
Y126939D01*
X52652Y96273D02*
X61417Y87508D01*
X52652Y96273D02*
Y101187D01*
X48622Y106201D02*
X49525Y107104D01*
X48622Y103157D02*
Y106201D01*
X62205Y97725D02*
Y102466D01*
X57567Y107104D02*
X62205Y102466D01*
X49525Y107104D02*
X57567D01*
X50886Y99409D02*
X51476Y100000D01*
Y101091D01*
X51572Y101187D01*
X52652D02*
Y101476D01*
X52941Y101187D01*
X48622Y102370D02*
Y103157D01*
X87894Y84555D02*
X88386D01*
X19823Y92815D02*
Y94784D01*
X55794Y126939D02*
X58268Y129413D01*
X23425Y61524D02*
Y74803D01*
X20827Y58925D02*
X23425Y61524D01*
Y74803D02*
X25000Y76378D01*
X72559Y96147D02*
X73771Y94934D01*
X72559Y96147D02*
Y100508D01*
X69488Y93504D02*
X98739D01*
X67559Y95433D02*
X69488Y93504D01*
X67559Y95433D02*
Y100508D01*
Y101264D01*
X98739Y93504D02*
X98775Y93468D01*
X101378Y108616D02*
X101442Y108680D01*
X101378Y100637D02*
Y108616D01*
Y100637D02*
X102559Y99456D01*
X96653Y98964D02*
Y99456D01*
X18996Y42717D02*
X20177Y43898D01*
X18504Y42717D02*
X18996D01*
X10884Y60039D02*
X12065Y58858D01*
X10630Y60039D02*
X10884D01*
X39370Y34055D02*
X104028D01*
X21752D02*
X39370D01*
X36614Y36811D02*
X39370Y34055D01*
X32677Y36811D02*
X36614D01*
X32677Y42717D02*
X33163Y43202D01*
Y52455D01*
X31693Y53925D02*
X33163Y52455D01*
X104028Y34055D02*
X111705Y41732D01*
X18996Y36811D02*
X21752Y34055D01*
X18504Y36811D02*
X18996D01*
X38616Y82067D02*
X39798Y83248D01*
X20276Y58925D02*
X20827D01*
X10138Y66437D02*
X10630Y65945D01*
X10138Y66437D02*
Y73848D01*
X9765Y74221D02*
Y82677D01*
X9823Y82735D01*
X111713Y41732D02*
X128347Y58366D01*
X111705Y41732D02*
X111713D01*
X87008Y207947D02*
X96998D01*
X87008Y210604D02*
X100095D01*
X85827Y211786D02*
Y212278D01*
X100095Y210604D02*
X105315Y205385D01*
X85827Y211786D02*
X87008Y210604D01*
X6616Y58739D02*
X10630Y54724D01*
X89370Y41732D02*
X111705D01*
X42449Y126749D02*
X52259Y116939D01*
X66741Y102083D02*
X67559Y101264D01*
X64787Y102083D02*
X66741D01*
X41800Y126749D02*
X42449D01*
X33371Y91732D02*
X34945Y93307D01*
Y96850D01*
X24823Y92815D02*
X32288D01*
X33371Y91732D01*
X56299Y133071D02*
X58437D01*
X60433Y131074D01*
X37894Y121082D02*
Y127657D01*
Y117370D02*
Y121082D01*
X30906Y128248D02*
Y129232D01*
X29136Y131002D02*
X30906Y129232D01*
X23031Y131002D02*
X29136D01*
X21850Y132183D02*
X23031Y131002D01*
X21850Y132183D02*
Y132675D01*
X22759Y123172D02*
Y124713D01*
X28945Y126287D02*
X30906Y128248D01*
X24334Y126287D02*
X28945D01*
X22759Y124713D02*
X24334Y126287D01*
X36811Y128740D02*
X37894Y127657D01*
X97496Y132051D02*
X97638Y131909D01*
X88773Y132051D02*
X97496D01*
X88631Y132193D02*
X88773Y132051D01*
X70669Y131496D02*
X71366Y132193D01*
X88631D01*
X57867Y159055D02*
X72834D01*
X53149Y151781D02*
X55905D01*
X38681Y181602D02*
X41929Y178354D01*
Y173141D02*
Y178354D01*
X39617Y170828D02*
X41929Y173141D01*
X92778Y122752D02*
X92879Y122853D01*
X82559Y122752D02*
X92778D01*
X92882Y122850D02*
X101538D01*
X101541Y122853D01*
X93470Y108483D02*
X93664Y108677D01*
X101341D01*
X101344Y108680D01*
X91501Y106909D02*
X93076Y108483D01*
X93273D01*
X19823Y120235D02*
X22759Y123172D01*
X19823Y115059D02*
Y120235D01*
X98001Y137911D02*
Y138108D01*
Y137911D02*
X99080Y136833D01*
X20079Y160232D02*
Y165854D01*
X18509Y158663D02*
X20079Y160232D01*
X15354Y158663D02*
X18509D01*
X12917Y160828D02*
X14961D01*
X12065Y159976D02*
X12917Y160828D01*
X64674Y198819D02*
Y212171D01*
Y187187D02*
Y198819D01*
X55905Y187081D02*
Y199617D01*
Y212278D01*
X96998Y207947D02*
X98179Y206766D01*
Y206408D02*
Y206766D01*
X85827Y209128D02*
Y211786D01*
Y209128D02*
X87008Y207947D01*
X64567Y212278D02*
X64674Y212171D01*
X98179Y192593D02*
Y192825D01*
X96998Y191411D02*
X98179Y192593D01*
X87008Y191411D02*
X96998D01*
X85827Y190230D02*
X87008Y191411D01*
X55905Y212278D02*
X55905Y212278D01*
X55905Y187081D02*
X55905Y187081D01*
X64567D02*
X64674Y187187D01*
X75787Y164827D02*
Y173622D01*
X74330Y163370D02*
X75787Y164827D01*
X74330Y163370D02*
X75000Y162700D01*
Y156799D02*
Y162700D01*
X67716Y149516D02*
X75000Y156799D01*
X65748Y149516D02*
X67716D01*
X77559Y116535D02*
Y122752D01*
X55905Y151781D02*
X56398D01*
X14961Y160828D02*
X15354Y161222D01*
X52270Y142732D02*
X55413Y145876D01*
X55905D01*
X56398Y151781D02*
X59132Y154516D01*
X65748D01*
X75787Y173622D02*
X76968Y172441D01*
X81693D01*
X82874Y173622D01*
Y173830D01*
X55419Y136531D02*
X56925D01*
X61811Y131645D01*
X70098Y118323D02*
X72271Y120495D01*
X72303D01*
X70669Y131299D02*
Y131496D01*
X72047Y114173D02*
X72303Y114429D01*
Y120495D01*
X47441Y85933D02*
X48622Y84752D01*
X25551Y102362D02*
X32283D01*
X14823Y113091D02*
X25551Y102362D01*
X67559Y128189D02*
X70669Y131299D01*
X67559Y122752D02*
Y128189D01*
X48622Y84752D02*
X49114D01*
X114075Y84555D02*
X114567D01*
X14823Y113091D02*
Y115059D01*
X94201Y91339D02*
X100984Y84555D01*
X71653Y91339D02*
X94201D01*
X72047Y122240D02*
X72559Y122752D01*
X72047Y120751D02*
Y122240D01*
X101535Y122853D02*
X101541D01*
X100354Y121672D02*
X101535Y122853D01*
X100354Y115767D02*
Y121672D01*
Y115767D02*
X101535Y114586D01*
X101934D01*
X101442Y108680D02*
X101934D01*
X77559Y100508D02*
Y116535D01*
X100984Y84555D02*
X101476D01*
X113976Y78059D02*
X114567Y78650D01*
X113976Y71957D02*
Y78059D01*
Y71957D02*
X114567Y71366D01*
X100984Y78650D02*
X101181D01*
X99803Y77469D02*
X100984Y78650D01*
X99803Y72547D02*
Y77469D01*
Y72547D02*
X100984Y71366D01*
X101181D01*
X87992Y78650D02*
X88189D01*
X86811Y77469D02*
X87992Y78650D01*
X86811Y72547D02*
Y77469D01*
Y72547D02*
X87992Y71366D01*
X88189D01*
X75394Y78650D02*
X75591D01*
X74213Y77469D02*
X75394Y78650D01*
X74213Y72547D02*
Y77469D01*
Y72547D02*
X75394Y71366D01*
X75591D01*
X62500Y71563D02*
X62500Y71563D01*
X62500Y71563D02*
Y78846D01*
X49114Y71563D02*
X49114Y71563D01*
X49114Y71563D02*
Y78846D01*
X11122Y175894D02*
X15354Y180126D01*
X18404D02*
X19289Y181011D01*
X10630Y175894D02*
X11122D01*
X15354Y180126D02*
X18404D01*
X29526Y177271D02*
X29919Y176878D01*
X37008D01*
X38189Y175697D01*
Y181602D02*
X38681D01*
D40*
X30481Y166142D02*
D03*
X35796D02*
D03*
D41*
X87992Y139516D02*
D03*
Y144516D02*
D03*
Y149516D02*
D03*
Y154516D02*
D03*
X65748Y139516D02*
D03*
Y144516D02*
D03*
Y149516D02*
D03*
Y154516D02*
D03*
D42*
X54219Y173138D02*
D03*
X57959Y162901D02*
D03*
X50479D02*
D03*
D43*
X67559Y100508D02*
D03*
X72559Y100508D02*
D03*
X77559D02*
D03*
X82559Y100508D02*
D03*
X67559Y122752D02*
D03*
X72559D02*
D03*
X77559D02*
D03*
X82559D02*
D03*
X9823Y92815D02*
D03*
X14823D02*
D03*
X19823D02*
D03*
X24823D02*
D03*
X9823Y115059D02*
D03*
X14823D02*
D03*
X19823Y115059D02*
D03*
X24823D02*
D03*
D44*
X101541Y122853D02*
D03*
Y128759D02*
D03*
X101934Y114586D02*
D03*
Y108680D02*
D03*
X98130Y163318D02*
D03*
Y157413D02*
D03*
X108760D02*
D03*
Y163318D02*
D03*
X115483Y174587D02*
D03*
Y168681D02*
D03*
X55905Y151781D02*
D03*
Y145876D02*
D03*
X31102Y150591D02*
D03*
Y156496D02*
D03*
X38189Y181602D02*
D03*
Y175697D02*
D03*
X10630Y181799D02*
D03*
Y175894D02*
D03*
Y60039D02*
D03*
X10630Y65945D02*
D03*
X18504Y42717D02*
D03*
X18504Y36811D02*
D03*
X32677Y42717D02*
D03*
Y36811D02*
D03*
X62205Y78846D02*
D03*
Y84752D02*
D03*
X49114Y78846D02*
D03*
Y84752D02*
D03*
X101476Y78650D02*
D03*
X101476Y84555D02*
D03*
X114567Y78650D02*
D03*
Y84555D02*
D03*
X88386Y78650D02*
D03*
Y84555D02*
D03*
X75295Y78650D02*
D03*
Y84555D02*
D03*
D45*
X93273Y108483D02*
D03*
Y114192D02*
D03*
X92879Y128562D02*
D03*
Y122853D02*
D03*
X39272Y110146D02*
D03*
X39272Y115854D02*
D03*
D46*
X97441Y180892D02*
D03*
X107677Y184632D02*
D03*
Y177152D02*
D03*
X29526Y177271D02*
D03*
X19289Y173531D02*
D03*
Y181011D02*
D03*
D47*
X98179Y192825D02*
D03*
X98179Y206408D02*
D03*
D48*
X134358Y83965D02*
D03*
Y72154D02*
D03*
D49*
X129429Y63011D02*
D03*
X135138D02*
D03*
X89179Y163870D02*
D03*
X83470D02*
D03*
X68621Y163370D02*
D03*
X74330D02*
D03*
X99080Y136833D02*
D03*
X104789D02*
D03*
X70669Y131496D02*
D03*
X64961D02*
D03*
X30709Y76378D02*
D03*
X25000D02*
D03*
X33371Y91732D02*
D03*
X39079D02*
D03*
X9765Y82677D02*
D03*
X15474D02*
D03*
X9864Y74122D02*
D03*
X15573D02*
D03*
X17051Y124516D02*
D03*
X22759D02*
D03*
D50*
X82874Y173830D02*
D03*
X88779D02*
D03*
X69882D02*
D03*
X75787D02*
D03*
X103907Y146274D02*
D03*
X98001D02*
D03*
X102559Y99456D02*
D03*
X96653D02*
D03*
X30906Y128740D02*
D03*
X36811Y128740D02*
D03*
X15945Y132675D02*
D03*
X21850D02*
D03*
X33892Y83248D02*
D03*
X39798D02*
D03*
X39567Y153943D02*
D03*
X45472D02*
D03*
X129543Y41134D02*
D03*
X135449D02*
D03*
D51*
X55905Y212278D02*
D03*
Y187081D02*
D03*
X64567Y212278D02*
D03*
X64567Y187081D02*
D03*
X85827Y212278D02*
D03*
X85827Y187081D02*
D03*
X73228Y187081D02*
D03*
Y212278D02*
D03*
D52*
X48622Y115165D02*
D03*
X56102D02*
D03*
Y103157D02*
D03*
X52362D02*
D03*
X48622D02*
D03*
D53*
X24016Y161222D02*
D03*
Y156104D02*
D03*
X15354D02*
D03*
X15354Y158663D02*
D03*
X15354Y161222D02*
D03*
D54*
X20276Y58925D02*
D03*
D55*
X31693Y63925D02*
D03*
X31693Y53925D02*
D03*
D56*
X135039Y51181D02*
D03*
X129528D02*
D03*
D57*
X49114Y66051D02*
D03*
Y71563D02*
D03*
X62205Y66051D02*
D03*
Y71563D02*
D03*
X101476Y65854D02*
D03*
Y71366D02*
D03*
X114567Y65854D02*
D03*
Y71366D02*
D03*
X88386Y65854D02*
D03*
Y71366D02*
D03*
X75295Y65854D02*
D03*
X75295Y71366D02*
D03*
D58*
X119438Y113482D02*
D03*
Y123482D02*
D03*
Y133482D02*
D03*
D59*
X57874Y41732D02*
D03*
X65748D02*
D03*
X73622D02*
D03*
X81496D02*
D03*
X89370D02*
D03*
Y51575D02*
D03*
X81496D02*
D03*
X73622D02*
D03*
X65748D02*
D03*
D60*
X57874D02*
D03*
D61*
X127953Y202756D02*
D03*
X17717D02*
D03*
X127953Y17717D02*
D03*
X17717D02*
D03*
D62*
X59055Y204725D02*
D03*
X66929D02*
D03*
X74803D02*
D03*
X82677D02*
D03*
X70866Y196851D02*
D03*
X78740D02*
D03*
X86614D02*
D03*
X92913Y136614D02*
D03*
X82677Y15748D02*
D03*
X43307Y62992D02*
D03*
X7874Y39370D02*
D03*
X122047Y141732D02*
D03*
X35433Y204725D02*
D03*
X133858Y181103D02*
D03*
X122047Y157480D02*
D03*
X43307Y188977D02*
D03*
X90551Y31496D02*
D03*
X137795Y94488D02*
D03*
X17815Y151629D02*
D03*
X55118Y23622D02*
D03*
X31496Y7874D02*
D03*
X66929Y15748D02*
D03*
X86614Y23622D02*
D03*
X39370Y7874D02*
D03*
X137795Y110236D02*
D03*
X78740Y7874D02*
D03*
X35433Y15748D02*
D03*
X74803Y31496D02*
D03*
X59926Y137678D02*
D03*
X35433Y188977D02*
D03*
X47244Y212598D02*
D03*
X44234Y82677D02*
D03*
X137795Y188977D02*
D03*
X110236Y212598D02*
D03*
X20279Y71260D02*
D03*
X11633Y101819D02*
D03*
X62992Y23622D02*
D03*
X31496Y70866D02*
D03*
X137795Y31496D02*
D03*
X23622Y86614D02*
D03*
X59055Y31496D02*
D03*
X70866Y7874D02*
D03*
X29429Y120473D02*
D03*
X62992Y7874D02*
D03*
X90551Y15748D02*
D03*
X82677Y31496D02*
D03*
X137795Y173228D02*
D03*
X55118Y7874D02*
D03*
X78740Y23622D02*
D03*
X94488Y39370D02*
D03*
X51181Y15748D02*
D03*
X31496Y212598D02*
D03*
X43307Y204725D02*
D03*
X110236Y7874D02*
D03*
Y23622D02*
D03*
X39370Y196851D02*
D03*
Y212598D02*
D03*
X125984Y181103D02*
D03*
X137795Y157480D02*
D03*
X74803Y15748D02*
D03*
X63169Y117028D02*
D03*
X114173Y31496D02*
D03*
X10646Y138715D02*
D03*
X106299Y31496D02*
D03*
X70866Y23622D02*
D03*
X66929Y31496D02*
D03*
X106299Y15748D02*
D03*
X44438Y106201D02*
D03*
X94488Y7874D02*
D03*
X43307Y15748D02*
D03*
X110236Y196851D02*
D03*
X39370Y23622D02*
D03*
X94488D02*
D03*
X59055Y15748D02*
D03*
X86614Y7874D02*
D03*
X74872Y111298D02*
D03*
X88074Y99369D02*
D03*
X81839Y114779D02*
D03*
X60454Y92728D02*
D03*
X96619Y168625D02*
D03*
X78921Y161893D02*
D03*
X112008Y149693D02*
D03*
X10630Y54724D02*
D03*
X111811Y97638D02*
D03*
X92689Y157201D02*
D03*
X37536Y141217D02*
D03*
X52259Y113779D02*
D03*
X40157Y103149D02*
D03*
X99724Y153094D02*
D03*
X55419Y136531D02*
D03*
X58268Y129413D02*
D03*
X20472Y81496D02*
D03*
X23622Y51575D02*
D03*
X128347Y127768D02*
D03*
X57959Y125591D02*
D03*
X40157Y97244D02*
D03*
X34945Y96850D02*
D03*
X44587Y97244D02*
D03*
X41800Y126749D02*
D03*
X22002Y151422D02*
D03*
X88631Y132193D02*
D03*
X23024Y138583D02*
D03*
X97638Y131909D02*
D03*
X55905Y199617D02*
D03*
X64674Y198819D02*
D03*
X35416Y123854D02*
D03*
X37894Y121082D02*
D03*
X56299Y133071D02*
D03*
X51968Y141900D02*
D03*
X72834Y159055D02*
D03*
X62890Y107042D02*
D03*
X20079Y165854D02*
D03*
X72047Y114173D02*
D03*
X32283Y102362D02*
D03*
X71653Y91339D02*
D03*
X77559Y116535D02*
D03*
X10500Y167193D02*
D03*
M02*
