G04*
G04 #@! TF.GenerationSoftware,Altium Limited,Altium Designer,19.1.8 (144)*
G04*
G04 Layer_Physical_Order=1*
G04 Layer_Color=255*
%FSLAX25Y25*%
%MOIN*%
G70*
G01*
G75*
%ADD10C,0.00984*%
%ADD14C,0.00787*%
G04:AMPARAMS|DCode=40|XSize=11.81mil|YSize=55.12mil|CornerRadius=0mil|HoleSize=0mil|Usage=FLASHONLY|Rotation=135.000|XOffset=0mil|YOffset=0mil|HoleType=Round|Shape=Rectangle|*
%AMROTATEDRECTD40*
4,1,4,0.02366,0.01531,-0.01531,-0.02366,-0.02366,-0.01531,0.01531,0.02366,0.02366,0.01531,0.0*
%
%ADD40ROTATEDRECTD40*%

G04:AMPARAMS|DCode=41|XSize=11.81mil|YSize=55.12mil|CornerRadius=0mil|HoleSize=0mil|Usage=FLASHONLY|Rotation=45.000|XOffset=0mil|YOffset=0mil|HoleType=Round|Shape=Rectangle|*
%AMROTATEDRECTD41*
4,1,4,0.01531,-0.02366,-0.02366,0.01531,-0.01531,0.02366,0.02366,-0.01531,0.01531,-0.02366,0.0*
%
%ADD41ROTATEDRECTD41*%

%ADD42P,0.11136X4X180.0*%
G04:AMPARAMS|DCode=43|XSize=43.31mil|YSize=39.37mil|CornerRadius=0mil|HoleSize=0mil|Usage=FLASHONLY|Rotation=135.000|XOffset=0mil|YOffset=0mil|HoleType=Round|Shape=Rectangle|*
%AMROTATEDRECTD43*
4,1,4,0.02923,-0.00139,0.00139,-0.02923,-0.02923,0.00139,-0.00139,0.02923,0.02923,-0.00139,0.0*
%
%ADD43ROTATEDRECTD43*%

%ADD44R,0.05906X0.07480*%
%ADD45R,0.12402X0.08071*%
%ADD46R,0.03543X0.08071*%
G04:AMPARAMS|DCode=47|XSize=41.34mil|YSize=31.5mil|CornerRadius=0mil|HoleSize=0mil|Usage=FLASHONLY|Rotation=45.000|XOffset=0mil|YOffset=0mil|HoleType=Round|Shape=Rectangle|*
%AMROTATEDRECTD47*
4,1,4,-0.00348,-0.02575,-0.02575,-0.00348,0.00348,0.02575,0.02575,0.00348,-0.00348,-0.02575,0.0*
%
%ADD47ROTATEDRECTD47*%

G04:AMPARAMS|DCode=48|XSize=35.43mil|YSize=31.5mil|CornerRadius=0mil|HoleSize=0mil|Usage=FLASHONLY|Rotation=45.000|XOffset=0mil|YOffset=0mil|HoleType=Round|Shape=Rectangle|*
%AMROTATEDRECTD48*
4,1,4,-0.00139,-0.02366,-0.02366,-0.00139,0.00139,0.02366,0.02366,0.00139,-0.00139,-0.02366,0.0*
%
%ADD48ROTATEDRECTD48*%

G04:AMPARAMS|DCode=49|XSize=43.31mil|YSize=39.37mil|CornerRadius=0mil|HoleSize=0mil|Usage=FLASHONLY|Rotation=225.000|XOffset=0mil|YOffset=0mil|HoleType=Round|Shape=Rectangle|*
%AMROTATEDRECTD49*
4,1,4,0.00139,0.02923,0.02923,0.00139,-0.00139,-0.02923,-0.02923,-0.00139,0.00139,0.02923,0.0*
%
%ADD49ROTATEDRECTD49*%

%ADD50R,0.04331X0.01772*%
%ADD51R,0.03150X0.03543*%
%ADD52R,0.04134X0.03150*%
G04:AMPARAMS|DCode=53|XSize=25.59mil|YSize=64.96mil|CornerRadius=0mil|HoleSize=0mil|Usage=FLASHONLY|Rotation=225.000|XOffset=0mil|YOffset=0mil|HoleType=Round|Shape=Round|*
%AMOVALD53*
21,1,0.03937,0.02559,0.00000,0.00000,315.0*
1,1,0.02559,-0.01392,0.01392*
1,1,0.02559,0.01392,-0.01392*
%
%ADD53OVALD53*%

%ADD54R,0.03937X0.04331*%
%ADD55R,0.04724X0.02559*%
%ADD56O,0.04724X0.06299*%
%ADD57R,0.04724X0.06299*%
%ADD58C,0.05512*%
%ADD59O,0.06299X0.04724*%
%ADD60R,0.06299X0.04724*%
%ADD61C,0.06000*%
%ADD62C,0.27559*%
%ADD63C,0.03150*%
G36*
X253899Y194843D02*
X253899Y2007D01*
X2007D01*
Y194843D01*
X253899Y194843D01*
D02*
G37*
%LPC*%
G36*
X100895Y187852D02*
X99144Y186101D01*
X101034Y184210D01*
X102785Y185961D01*
X100895Y187852D01*
D02*
G37*
G36*
X103481Y185266D02*
X101730Y183514D01*
X103620Y181624D01*
X105371Y183375D01*
X103481Y185266D01*
D02*
G37*
G36*
X98448Y185405D02*
X96697Y183654D01*
X96847Y183503D01*
X92961Y179617D01*
X95450Y177128D01*
X92726Y174404D01*
X92419Y174711D01*
X91735Y175168D01*
X90929Y175329D01*
X90122Y175168D01*
X89439Y174711D01*
X88982Y174028D01*
X88821Y173221D01*
X88982Y172415D01*
X89439Y171731D01*
X92222Y168947D01*
X92906Y168490D01*
X93524Y168367D01*
X93726Y167861D01*
X92753Y166889D01*
X92247Y167090D01*
X92124Y167708D01*
X91667Y168392D01*
X88883Y171176D01*
X88200Y171633D01*
X87393Y171793D01*
X87056Y171726D01*
X77419Y181363D01*
X77028Y181624D01*
X76567Y181716D01*
X76567Y181716D01*
X72933D01*
Y184252D01*
X67224D01*
Y181716D01*
X53445D01*
X53445Y181716D01*
X52984Y181624D01*
X52593Y181363D01*
X44360Y173130D01*
X39764D01*
Y171185D01*
X34941D01*
X34941Y171185D01*
X34480Y171093D01*
X34089Y170832D01*
X14832Y151575D01*
X8661D01*
Y145276D01*
X11394D01*
Y143673D01*
X10989Y143620D01*
X10223Y143302D01*
X9565Y142798D01*
X9060Y142140D01*
X8743Y141373D01*
X8634Y140551D01*
X8743Y139729D01*
X9060Y138963D01*
X9565Y138305D01*
X10223Y137800D01*
X10989Y137483D01*
X11811Y137374D01*
X13386D01*
X14208Y137483D01*
X14974Y137800D01*
X15632Y138305D01*
X16137Y138963D01*
X16454Y139729D01*
X16563Y140551D01*
X16454Y141373D01*
X16137Y142140D01*
X15632Y142798D01*
X14974Y143302D01*
X14208Y143620D01*
X13803Y143673D01*
Y145276D01*
X16535D01*
Y149872D01*
X35440Y168776D01*
X41831D01*
X41831Y168776D01*
X42292Y168868D01*
X42484Y168996D01*
X46063D01*
Y171427D01*
X53944Y179308D01*
X68701D01*
X68701Y179308D01*
X69162Y179399D01*
X69354Y179528D01*
X70804D01*
X70996Y179399D01*
X71457Y179308D01*
X71457Y179308D01*
X76068D01*
X85353Y170023D01*
X85286Y169686D01*
X85446Y168879D01*
X85903Y168195D01*
X88687Y165412D01*
X89371Y164955D01*
X89989Y164832D01*
X90190Y164326D01*
X89217Y163353D01*
X88712Y163555D01*
X88589Y164173D01*
X88132Y164856D01*
X85348Y167640D01*
X84664Y168097D01*
X83858Y168257D01*
X83051Y168097D01*
X82367Y167640D01*
X82177Y167354D01*
X80356D01*
X79895Y167263D01*
X79504Y167002D01*
X75094Y162591D01*
X74832Y162200D01*
X74741Y161740D01*
X74741Y161740D01*
Y160204D01*
X73395Y158858D01*
X72933Y159049D01*
Y162598D01*
X71283D01*
Y165157D01*
X73175D01*
Y171063D01*
X71623D01*
Y173622D01*
X72933D01*
Y178347D01*
X67224D01*
Y173622D01*
X69214D01*
Y171063D01*
X67678D01*
Y171276D01*
X65202D01*
Y168110D01*
Y164945D01*
X67678D01*
Y165157D01*
X68875D01*
Y162598D01*
X67224D01*
Y157874D01*
X71758D01*
X71949Y157412D01*
X71230Y156693D01*
X67224D01*
Y155535D01*
X52664D01*
X46063Y162136D01*
Y165650D01*
X39764D01*
Y163219D01*
X32023Y155477D01*
X31761Y155087D01*
X31670Y154626D01*
X31670Y154626D01*
Y151602D01*
X31496D01*
X30674Y151494D01*
X29908Y151176D01*
X29250Y150672D01*
X28745Y150014D01*
X28427Y149247D01*
X28319Y148425D01*
X28427Y147603D01*
X28745Y146837D01*
X29250Y146179D01*
X29908Y145674D01*
X30674Y145357D01*
X31079Y145303D01*
Y143673D01*
X30674Y143620D01*
X29908Y143302D01*
X29250Y142798D01*
X28745Y142140D01*
X28427Y141373D01*
X28319Y140551D01*
X28427Y139729D01*
X28745Y138963D01*
X29250Y138305D01*
X29908Y137800D01*
X30674Y137483D01*
X31496Y137374D01*
X33071D01*
X33893Y137483D01*
X34659Y137800D01*
X35317Y138305D01*
X35822Y138963D01*
X36139Y139729D01*
X36248Y140551D01*
X36139Y141373D01*
X35822Y142140D01*
X35317Y142798D01*
X34659Y143302D01*
X33893Y143620D01*
X33488Y143673D01*
Y145303D01*
X33893Y145357D01*
X34659Y145674D01*
X35317Y146179D01*
X35822Y146837D01*
X36139Y147603D01*
X36248Y148425D01*
X36139Y149247D01*
X35822Y150014D01*
X35317Y150672D01*
X34659Y151176D01*
X34078Y151417D01*
Y154127D01*
X41467Y161516D01*
X43277D01*
X51314Y153479D01*
X51314Y153479D01*
X51705Y153218D01*
X52165Y153127D01*
X52165Y153127D01*
X67224D01*
Y151969D01*
X72933D01*
Y154990D01*
X76797Y158853D01*
X77058Y159244D01*
X77149Y159705D01*
X77149Y159705D01*
Y161241D01*
X77692Y161784D01*
X78241Y161626D01*
X78679Y160971D01*
X79723Y159927D01*
X81366Y161571D01*
X82062Y160875D01*
X80419Y159231D01*
X81463Y158187D01*
X82217Y157683D01*
X82737Y157580D01*
X82902Y157037D01*
X70821Y144957D01*
X69655Y146124D01*
X67555Y144025D01*
X67207Y144373D01*
X66860Y144025D01*
X64621Y146263D01*
X62870Y144512D01*
X63021Y144362D01*
X59134Y140475D01*
X61623Y137986D01*
X60566Y136929D01*
X60305Y136538D01*
X60213Y136077D01*
X60213Y136077D01*
Y135433D01*
X56693D01*
Y132881D01*
X46959D01*
X46312Y133529D01*
X45921Y133790D01*
X45460Y133881D01*
X45460Y133881D01*
X35981D01*
X35822Y134266D01*
X35317Y134924D01*
X34659Y135428D01*
X33893Y135746D01*
X33071Y135854D01*
X31496D01*
X30674Y135746D01*
X29908Y135428D01*
X29250Y134924D01*
X28745Y134266D01*
X28427Y133499D01*
X28319Y132677D01*
X28427Y131855D01*
X28745Y131089D01*
X29250Y130431D01*
X29908Y129926D01*
X30674Y129609D01*
X31496Y129500D01*
X33071D01*
X33893Y129609D01*
X34659Y129926D01*
X35317Y130431D01*
X35822Y131089D01*
X35981Y131473D01*
X44961D01*
X45608Y130826D01*
X45608Y130826D01*
X45999Y130565D01*
X46460Y130473D01*
X46460Y130473D01*
X56693D01*
Y129370D01*
X47641D01*
X47180Y129278D01*
X46790Y129017D01*
X46790Y129017D01*
X43780Y126007D01*
X35981D01*
X35822Y126392D01*
X35317Y127050D01*
X34659Y127554D01*
X33893Y127872D01*
X33071Y127980D01*
X31496D01*
X30674Y127872D01*
X29908Y127554D01*
X29250Y127050D01*
X28745Y126392D01*
X28427Y125625D01*
X28319Y124803D01*
X28427Y123981D01*
X28745Y123215D01*
X29250Y122557D01*
X29908Y122052D01*
X30674Y121735D01*
X31496Y121626D01*
X33071D01*
X33893Y121735D01*
X34659Y122052D01*
X35317Y122557D01*
X35822Y123215D01*
X35981Y123599D01*
X44279D01*
X44279Y123599D01*
X44740Y123691D01*
X45130Y123952D01*
X48140Y126961D01*
X56480D01*
Y126575D01*
X62811D01*
Y127969D01*
X62598D01*
Y129528D01*
Y134135D01*
X62622Y134252D01*
X62622Y134252D01*
Y135578D01*
X64162Y137118D01*
X64162Y137118D01*
X64227Y137217D01*
X66003Y138993D01*
X67764D01*
X67764Y138993D01*
X68225Y139084D01*
X68616Y139346D01*
X99403Y170133D01*
X99865Y169941D01*
Y166185D01*
X99865Y166185D01*
X99956Y165724D01*
X100217Y165333D01*
X101918Y163633D01*
Y155638D01*
X101632Y155447D01*
X101175Y154763D01*
X101015Y153957D01*
X101175Y153150D01*
X101632Y152466D01*
X104416Y149683D01*
X105100Y149226D01*
X105906Y149065D01*
X106713Y149226D01*
X107396Y149683D01*
X107737Y150193D01*
X108237Y150041D01*
Y149037D01*
X103985Y144784D01*
X103724Y144394D01*
X103633Y143933D01*
X103633Y143933D01*
Y139125D01*
X103171Y138934D01*
X100136Y141969D01*
X100173Y142510D01*
X100325Y142612D01*
X100782Y143295D01*
X100942Y144102D01*
X100782Y144908D01*
X100325Y145592D01*
X97541Y148376D01*
X96858Y148833D01*
X96051Y148993D01*
X95245Y148833D01*
X94561Y148376D01*
X94104Y147692D01*
X93944Y146886D01*
X94104Y146079D01*
X94561Y145395D01*
X97345Y142612D01*
X97631Y142420D01*
Y141566D01*
X97631Y141566D01*
X97722Y141105D01*
X97983Y140715D01*
X99199Y139499D01*
X98992Y138999D01*
X86720D01*
X86720Y138999D01*
X86259Y138908D01*
X85868Y138647D01*
X80103Y132881D01*
X77953D01*
Y133730D01*
X78858Y134636D01*
X79207Y134287D01*
X83094Y138173D01*
X83244Y138023D01*
X84995Y139774D01*
X82757Y142012D01*
X83105Y142360D01*
X82757Y142708D01*
X84856Y144807D01*
X83200Y146463D01*
X83186Y147003D01*
X83511Y147309D01*
X83858Y147240D01*
X84780Y147423D01*
X85561Y147945D01*
X86083Y148727D01*
X86267Y149648D01*
X86083Y150570D01*
X85561Y151351D01*
X84780Y151873D01*
X83858Y152057D01*
X82937Y151873D01*
X82155Y151351D01*
X81633Y150570D01*
X81450Y149648D01*
X81567Y149060D01*
X76941Y144434D01*
X76941Y144434D01*
X70802Y138295D01*
X70541Y137904D01*
X70449Y137443D01*
X70449Y137443D01*
Y120166D01*
X70449Y120166D01*
X70541Y119705D01*
X70802Y119315D01*
X74780Y115337D01*
Y112900D01*
X74555Y112855D01*
X73773Y112333D01*
X73251Y111552D01*
X73068Y110630D01*
X73251Y109708D01*
X73773Y108927D01*
X74555Y108405D01*
X75476Y108221D01*
X76398Y108405D01*
X77179Y108927D01*
X77678Y109673D01*
X77714Y109678D01*
X78178Y109377D01*
Y103239D01*
X78178Y103239D01*
X78270Y102778D01*
X78531Y102387D01*
X84414Y96504D01*
X84414Y96504D01*
X84804Y96243D01*
X85265Y96152D01*
X87497D01*
X87738Y95569D01*
X88306Y94829D01*
X89046Y94261D01*
X89908Y93904D01*
X90833Y93782D01*
X91758Y93904D01*
X92620Y94261D01*
X93360Y94829D01*
X93928Y95569D01*
X94285Y96431D01*
X94407Y97356D01*
X94285Y98281D01*
X93928Y99143D01*
X93360Y99883D01*
X92620Y100451D01*
X91758Y100808D01*
X90833Y100930D01*
X89908Y100808D01*
X89046Y100451D01*
X88306Y99883D01*
X87738Y99143D01*
X87497Y98560D01*
X85796D01*
X85478Y98942D01*
X85633Y99398D01*
X86190Y99472D01*
X87052Y99829D01*
X87792Y100397D01*
X88360Y101137D01*
X88717Y101999D01*
X88839Y102924D01*
X88717Y103849D01*
X88476Y104431D01*
X90684Y106640D01*
X92335D01*
X92335Y106640D01*
X92796Y106731D01*
X93019Y106881D01*
X93866Y106035D01*
X96355Y108524D01*
X100654Y104224D01*
X101045Y103963D01*
X101506Y103872D01*
X101506Y103872D01*
X104720D01*
X104720Y103872D01*
X105181Y103963D01*
X105571Y104224D01*
X105644Y104296D01*
X106276Y104221D01*
X106788Y103709D01*
X106638Y103558D01*
X107415Y102782D01*
X110070Y105437D01*
X112726Y108093D01*
X111950Y108870D01*
X111799Y108720D01*
X110558Y109961D01*
X107949Y112570D01*
X108156Y113070D01*
X111654D01*
X111719Y112742D01*
X112241Y111961D01*
X113023Y111439D01*
X113944Y111255D01*
X114866Y111439D01*
X115647Y111961D01*
X116169Y112742D01*
X116353Y113664D01*
X116169Y114586D01*
X115647Y115367D01*
X114866Y115889D01*
X113944Y116072D01*
X113023Y115889D01*
X112408Y115478D01*
X106514D01*
X106307Y115978D01*
X107725Y117397D01*
X109385D01*
X109707Y117182D01*
X110628Y116999D01*
X111550Y117182D01*
X112331Y117704D01*
X112854Y118485D01*
X113037Y119407D01*
X112854Y120329D01*
X112331Y121110D01*
X111550Y121632D01*
X110628Y121816D01*
X109707Y121632D01*
X108925Y121110D01*
X108403Y120329D01*
X108299Y119805D01*
X107227D01*
X106766Y119713D01*
X106375Y119453D01*
X106375Y119452D01*
X103721Y116798D01*
X100814Y119705D01*
X99477Y118368D01*
X94525Y123320D01*
X94642Y123908D01*
X94459Y124830D01*
X93937Y125611D01*
X93155Y126133D01*
X92234Y126317D01*
X91312Y126133D01*
X90530Y125611D01*
X90008Y124830D01*
X89825Y123908D01*
X90008Y122987D01*
X90530Y122205D01*
X91312Y121683D01*
X92234Y121500D01*
X92822Y121617D01*
X97774Y116665D01*
X95803Y114694D01*
X98587Y111910D01*
X99979Y110518D01*
X101927Y108569D01*
X103717Y106780D01*
X103510Y106280D01*
X102005D01*
X97362Y110923D01*
X96971Y111184D01*
X96745Y111229D01*
X94562Y113412D01*
X90525Y109375D01*
Y109375D01*
X90390Y109048D01*
X90185D01*
X89724Y108957D01*
X89334Y108695D01*
X89334Y108695D01*
X86773Y106134D01*
X86190Y106376D01*
X85265Y106498D01*
X84340Y106376D01*
X83478Y106019D01*
X82738Y105451D01*
X82170Y104711D01*
X81813Y103849D01*
X81740Y103292D01*
X81212Y103112D01*
X80586Y103738D01*
Y111939D01*
X80995Y112347D01*
X87554D01*
X89690Y110210D01*
X93727Y114247D01*
X90386Y117588D01*
X87554Y114755D01*
X80496D01*
X80496Y114755D01*
X80035Y114664D01*
X79644Y114402D01*
X79164Y114358D01*
X76836Y116687D01*
X72858Y120665D01*
Y124197D01*
X74508D01*
Y126083D01*
X75000D01*
Y126575D01*
X78165D01*
Y127914D01*
X81087D01*
X81087Y127914D01*
X81547Y128006D01*
X81938Y128267D01*
X88179Y134508D01*
X90499D01*
X90650Y134008D01*
X90029Y133593D01*
X89507Y132811D01*
X89324Y131890D01*
X89507Y130968D01*
X90029Y130187D01*
X90811Y129665D01*
X91732Y129481D01*
X92654Y129665D01*
X92975Y129879D01*
X94621D01*
X95845Y128655D01*
X95803Y128613D01*
X100814Y123602D01*
X103598Y126386D01*
X105547Y128335D01*
X106382Y129170D01*
X107774Y130562D01*
X110611Y133399D01*
X110989Y133021D01*
Y130006D01*
X110490Y129673D01*
X109968Y128892D01*
X109785Y127970D01*
X109968Y127048D01*
X110490Y126267D01*
X111272Y125745D01*
X112193Y125562D01*
X113115Y125745D01*
X113896Y126267D01*
X114418Y127048D01*
X114602Y127970D01*
X114418Y128892D01*
X113896Y129673D01*
X113397Y130006D01*
Y133520D01*
X113397Y133520D01*
X113306Y133981D01*
X113111Y134273D01*
X113218Y134599D01*
X113350Y134773D01*
X120024D01*
X120024Y134773D01*
X120485Y134864D01*
X120876Y135125D01*
X121760Y136010D01*
X122348Y135892D01*
X123270Y136076D01*
X124051Y136598D01*
X124574Y137379D01*
X124757Y138301D01*
X124574Y139223D01*
X124051Y140004D01*
X123270Y140526D01*
X122348Y140709D01*
X121427Y140526D01*
X120645Y140004D01*
X120123Y139223D01*
X119940Y138301D01*
X120057Y137713D01*
X119526Y137181D01*
X115100D01*
X114893Y137681D01*
X117517Y140306D01*
X120301Y143089D01*
X123642Y146430D01*
X118631Y151441D01*
X115290Y148100D01*
X112506Y145317D01*
X109722Y142533D01*
X106503Y139313D01*
X106041Y139505D01*
Y143434D01*
X110293Y147686D01*
X110293Y147686D01*
X110554Y148077D01*
X110646Y148538D01*
Y153027D01*
X110932Y153218D01*
X111389Y153902D01*
X111549Y154708D01*
X111389Y155515D01*
X110932Y156199D01*
X108148Y158982D01*
X107464Y159439D01*
X106658Y159600D01*
X105851Y159439D01*
X105168Y158982D01*
X104826Y158472D01*
X104326Y158624D01*
Y162927D01*
X105603D01*
X105603Y162927D01*
X106063Y163019D01*
X106454Y163280D01*
X107070Y163896D01*
X108585D01*
X111556Y160924D01*
X115443Y164810D01*
X115593Y164660D01*
X117344Y166411D01*
X115106Y168649D01*
X112868Y170887D01*
X111117Y169137D01*
X111267Y168986D01*
X108585Y166304D01*
X106571D01*
X106571Y166304D01*
X106110Y166212D01*
X105719Y165951D01*
X105719Y165951D01*
X105104Y165336D01*
X103621D01*
X102273Y166684D01*
Y172373D01*
X113700D01*
X113891Y171911D01*
X113564Y171583D01*
X115454Y169693D01*
X117205Y171444D01*
X116738Y171911D01*
X116929Y172373D01*
X125054D01*
X125205Y171873D01*
X125069Y171782D01*
X124547Y171000D01*
X124363Y170079D01*
X124547Y169157D01*
X125069Y168376D01*
X125850Y167854D01*
X126772Y167670D01*
X127693Y167854D01*
X128475Y168376D01*
X128997Y169157D01*
X129051Y169430D01*
X156122D01*
X156313Y168968D01*
X151018Y163672D01*
X155675Y159016D01*
X150881Y154222D01*
X149795Y155308D01*
X149945Y155459D01*
X148194Y157210D01*
X145956Y154971D01*
X143718Y152733D01*
X145469Y150982D01*
X145619Y151133D01*
X148348Y148404D01*
X148393Y148177D01*
X148440Y148106D01*
Y144814D01*
X143959Y140333D01*
X143766Y140525D01*
X141111Y137870D01*
X138455Y135214D01*
X139232Y134437D01*
X139382Y134588D01*
X141228Y132741D01*
X141279Y132085D01*
X140731Y131538D01*
X139038D01*
X138717Y131752D01*
X137795Y131936D01*
X136873Y131752D01*
X136092Y131230D01*
X135570Y130449D01*
X135387Y129527D01*
X135570Y128606D01*
X136092Y127824D01*
X136873Y127302D01*
X137795Y127119D01*
X138717Y127302D01*
X139498Y127824D01*
X140020Y128606D01*
X140124Y129129D01*
X141230D01*
X141230Y129129D01*
X141691Y129221D01*
X142082Y129482D01*
X142982Y130382D01*
X143638Y130331D01*
X145462Y128507D01*
X145537Y127875D01*
X143629Y125967D01*
X143307Y126031D01*
X142385Y125847D01*
X141604Y125325D01*
X141082Y124544D01*
X140899Y123622D01*
X141082Y122700D01*
X141604Y121919D01*
X142385Y121397D01*
X143307Y121214D01*
X144229Y121397D01*
X145010Y121919D01*
X145532Y122700D01*
X145715Y123622D01*
X145545Y124477D01*
X147192Y126124D01*
X147872Y126097D01*
X150367Y123602D01*
X152228Y125464D01*
X153418Y124274D01*
X153841Y123992D01*
X154340Y123892D01*
X160384D01*
X200159Y84117D01*
X200582Y83834D01*
X201081Y83735D01*
X219179D01*
X219296Y83451D01*
X219801Y82793D01*
X220459Y82288D01*
X221225Y81971D01*
X222047Y81863D01*
X223622D01*
X224444Y81971D01*
X225210Y82288D01*
X225868Y82793D01*
X226373Y83451D01*
X226691Y84217D01*
X226799Y85039D01*
X226691Y85862D01*
X226373Y86628D01*
X225868Y87286D01*
X225210Y87791D01*
X224444Y88108D01*
X223622Y88216D01*
X222047D01*
X221225Y88108D01*
X220459Y87791D01*
X219801Y87286D01*
X219296Y86628D01*
X219179Y86344D01*
X201622D01*
X161846Y126119D01*
X161423Y126402D01*
X160924Y126501D01*
X154881D01*
X154074Y127309D01*
X155378Y128613D01*
X153429Y130562D01*
X150645Y133346D01*
X149254Y134738D01*
X146962Y137029D01*
X153342Y143410D01*
X154924Y141829D01*
X154773Y141678D01*
X156524Y139927D01*
X158763Y142165D01*
X161001Y144404D01*
X160811Y144593D01*
X160860Y145086D01*
X165232Y149458D01*
X167721Y146969D01*
X174403Y153650D01*
X167721Y160332D01*
X161040Y153650D01*
X163529Y151161D01*
X159509Y147142D01*
X158000D01*
X157953Y147151D01*
X155213Y149891D01*
X151349Y146026D01*
X150849Y146233D01*
Y148499D01*
X150834Y148574D01*
X153681Y151422D01*
X152584Y152519D01*
X157378Y157313D01*
X157699Y156991D01*
X164381Y163672D01*
X159085Y168968D01*
X159277Y169430D01*
X175718D01*
X192323Y152824D01*
Y147176D01*
X187918Y142771D01*
X171094D01*
X170633Y142679D01*
X170242Y142418D01*
X163322Y135497D01*
X160431Y132606D01*
X159843Y132723D01*
X158921Y132540D01*
X158140Y132018D01*
X157617Y131237D01*
X157434Y130315D01*
X157617Y129393D01*
X158140Y128612D01*
X158921Y128090D01*
X159843Y127907D01*
X160764Y128090D01*
X161546Y128612D01*
X162068Y129393D01*
X162251Y130315D01*
X162134Y130903D01*
X164173Y132943D01*
X166770Y130346D01*
X165812Y129388D01*
X169152Y126048D01*
X172771Y129667D01*
X169430Y133007D01*
X168473Y132049D01*
X165876Y134646D01*
X171593Y140362D01*
X175199D01*
X175390Y139900D01*
X174392Y138902D01*
X175865Y137429D01*
X177685Y139250D01*
X177036Y139900D01*
X177227Y140362D01*
X188417D01*
X188417Y140362D01*
X188877Y140454D01*
X189268Y140715D01*
X194026Y145473D01*
X197221D01*
Y138484D01*
X193799D01*
Y128839D01*
X199583D01*
Y114469D01*
X198228D01*
Y104823D01*
X199583D01*
Y101643D01*
X199084Y101309D01*
X198562Y100528D01*
X198379Y99606D01*
X198562Y98685D01*
X199084Y97903D01*
X199866Y97381D01*
X200787Y97198D01*
X201709Y97381D01*
X202490Y97903D01*
X203013Y98685D01*
X203196Y99606D01*
X203013Y100528D01*
X202490Y101309D01*
X201992Y101643D01*
Y104823D01*
X203346D01*
Y114469D01*
X201992D01*
Y128839D01*
X207776D01*
Y129474D01*
X208238Y129666D01*
X222980Y114923D01*
X222777Y114433D01*
X212402D01*
Y114469D01*
X207283D01*
Y104823D01*
X212402D01*
Y112024D01*
X222777D01*
X223070Y111318D01*
X223677Y110527D01*
X224468Y109920D01*
X225174Y109628D01*
Y97244D01*
X225174Y97244D01*
X225265Y96783D01*
X225526Y96393D01*
X231867Y90052D01*
Y84336D01*
Y77953D01*
X231867Y77953D01*
X231958Y77492D01*
X232219Y77101D01*
X238823Y70498D01*
X238664Y70113D01*
X238556Y69291D01*
X238664Y68469D01*
X238981Y67703D01*
X239486Y67045D01*
X240144Y66540D01*
X240910Y66223D01*
X241732Y66115D01*
X243307D01*
X244129Y66223D01*
X244896Y66540D01*
X245553Y67045D01*
X246058Y67703D01*
X246376Y68469D01*
X246484Y69291D01*
X246376Y70113D01*
X246058Y70880D01*
X245553Y71538D01*
X244896Y72043D01*
X244129Y72360D01*
X243307Y72468D01*
X241732D01*
X240910Y72360D01*
X240526Y72201D01*
X234275Y78452D01*
Y82266D01*
X234737Y82458D01*
X238823Y78372D01*
X238664Y77988D01*
X238556Y77165D01*
X238664Y76343D01*
X238981Y75577D01*
X239486Y74919D01*
X240144Y74414D01*
X240910Y74097D01*
X241732Y73989D01*
X243307D01*
X244129Y74097D01*
X244896Y74414D01*
X245553Y74919D01*
X246058Y75577D01*
X246376Y76343D01*
X246484Y77165D01*
X246376Y77988D01*
X246058Y78754D01*
X245553Y79412D01*
X244896Y79917D01*
X244129Y80234D01*
X243307Y80342D01*
X241732D01*
X240910Y80234D01*
X240526Y80075D01*
X235413Y85187D01*
X235023Y85448D01*
X234562Y85540D01*
X234275Y85904D01*
Y89347D01*
X235722D01*
X238823Y86246D01*
X238664Y85862D01*
X238556Y85039D01*
X238664Y84217D01*
X238981Y83451D01*
X239486Y82793D01*
X240144Y82288D01*
X240910Y81971D01*
X241732Y81863D01*
X243307D01*
X244129Y81971D01*
X244896Y82288D01*
X245553Y82793D01*
X246058Y83451D01*
X246376Y84217D01*
X246484Y85039D01*
X246376Y85862D01*
X246058Y86628D01*
X245553Y87286D01*
X244896Y87791D01*
X244129Y88108D01*
X243307Y88216D01*
X241732D01*
X240910Y88108D01*
X240526Y87949D01*
X237072Y91403D01*
X236681Y91664D01*
X236221Y91755D01*
X236220Y91755D01*
X233570D01*
X227582Y97743D01*
Y109628D01*
X228288Y109920D01*
X229079Y110527D01*
X229686Y111318D01*
X230068Y112240D01*
X230198Y113228D01*
X230068Y114217D01*
X229686Y115138D01*
X229079Y115929D01*
X228288Y116537D01*
X227367Y116918D01*
X226378Y117048D01*
X225389Y116918D01*
X224683Y116626D01*
X209373Y131936D01*
Y146257D01*
X209373Y146257D01*
X209282Y146718D01*
X209021Y147108D01*
X181700Y174429D01*
X181310Y174690D01*
X180849Y174782D01*
X180849Y174782D01*
X101530D01*
X101530Y174782D01*
X101069Y174690D01*
X100679Y174429D01*
X100679Y174429D01*
X100542Y174292D01*
X100223Y174229D01*
X99832Y173968D01*
X96289Y170424D01*
X95783Y170625D01*
X95660Y171244D01*
X95203Y171927D01*
X94429Y172701D01*
X97988Y176260D01*
X98054Y176359D01*
X99771Y178076D01*
X100202Y177889D01*
X100593Y177628D01*
X101053Y177536D01*
X101054Y177536D01*
X106579D01*
X106912Y177037D01*
X107694Y176515D01*
X108615Y176332D01*
X109537Y176515D01*
X110318Y177037D01*
X110840Y177819D01*
X111024Y178740D01*
X110840Y179662D01*
X110318Y180443D01*
X109537Y180965D01*
X108615Y181149D01*
X107694Y180965D01*
X106912Y180443D01*
X106579Y179944D01*
X102594D01*
X102402Y180406D01*
X102924Y180928D01*
X100686Y183166D01*
X98448Y185405D01*
D02*
G37*
G36*
X64218Y171276D02*
X61742D01*
Y168602D01*
X64218D01*
Y171276D01*
D02*
G37*
G36*
X56512Y169602D02*
X53642D01*
Y167815D01*
X56512D01*
Y169602D01*
D02*
G37*
G36*
X52658D02*
X49787D01*
Y167815D01*
X52658D01*
Y169602D01*
D02*
G37*
G36*
X117901Y170748D02*
X116150Y168997D01*
X118040Y167107D01*
X119791Y168858D01*
X117901Y170748D01*
D02*
G37*
G36*
X56512Y166831D02*
X53642D01*
Y165043D01*
X56512D01*
Y166831D01*
D02*
G37*
G36*
X52658D02*
X49787D01*
Y165043D01*
X52658D01*
Y166831D01*
D02*
G37*
G36*
X64218Y167618D02*
X61742D01*
Y164945D01*
X64218D01*
Y167618D01*
D02*
G37*
G36*
X145747Y159657D02*
X143857Y157766D01*
X145608Y156015D01*
X147498Y157906D01*
X145747Y159657D01*
D02*
G37*
G36*
X143161Y157071D02*
X141271Y155180D01*
X143022Y153429D01*
X144912Y155319D01*
X143161Y157071D01*
D02*
G37*
G36*
X188205Y154740D02*
X184744D01*
Y150492D01*
X188205D01*
Y154740D01*
D02*
G37*
G36*
X183760D02*
X180299D01*
Y150492D01*
X183760D01*
Y154740D01*
D02*
G37*
G36*
X99587Y152745D02*
X98697Y152568D01*
X98360Y152343D01*
X100979Y149725D01*
X102274Y151021D01*
X101230Y152065D01*
X100476Y152568D01*
X99587Y152745D01*
D02*
G37*
G36*
X97664Y151647D02*
X97439Y151311D01*
X97263Y150421D01*
X97439Y149532D01*
X97943Y148778D01*
X98987Y147734D01*
X100283Y149029D01*
X97664Y151647D01*
D02*
G37*
G36*
X102970Y150325D02*
X101675Y149029D01*
X104293Y146411D01*
X104518Y146748D01*
X104695Y147637D01*
X104518Y148527D01*
X104014Y149281D01*
X102970Y150325D01*
D02*
G37*
G36*
X100979Y148333D02*
X99683Y147038D01*
X100727Y145994D01*
X101481Y145490D01*
X102371Y145313D01*
X103260Y145490D01*
X103597Y145715D01*
X100979Y148333D01*
D02*
G37*
G36*
X188205Y149508D02*
X184744D01*
Y145260D01*
X188205D01*
Y149508D01*
D02*
G37*
G36*
X183760D02*
X180299D01*
Y145260D01*
X183760D01*
Y149508D01*
D02*
G37*
G36*
X67068Y148710D02*
X65317Y146959D01*
X67207Y145069D01*
X68959Y146820D01*
X67068Y148710D01*
D02*
G37*
G36*
X85552Y144111D02*
X83801Y142360D01*
X85691Y140470D01*
X87442Y142221D01*
X85552Y144111D01*
D02*
G37*
G36*
X161697Y143708D02*
X159807Y141817D01*
X161558Y140066D01*
X163448Y141957D01*
X161697Y143708D01*
D02*
G37*
G36*
X159111Y141121D02*
X157220Y139231D01*
X158971Y137480D01*
X160862Y139370D01*
X159111Y141121D01*
D02*
G37*
G36*
X132550Y151441D02*
X127539Y146430D01*
X130323Y143646D01*
X131715Y142254D01*
X133107Y140862D01*
X135056Y138914D01*
X137133Y136837D01*
X136982Y136687D01*
X137759Y135910D01*
X140415Y138566D01*
X143071Y141221D01*
X142294Y141998D01*
X142143Y141848D01*
X139510Y144481D01*
X138118Y145873D01*
X137283Y146709D01*
X135334Y148657D01*
X132550Y151441D01*
D02*
G37*
G36*
X178382Y138554D02*
X176561Y136734D01*
X178033Y135261D01*
X179854Y137082D01*
X178382Y138554D01*
D02*
G37*
G36*
X173696Y138206D02*
X171876Y136386D01*
X173348Y134913D01*
X175169Y136734D01*
X173696Y138206D01*
D02*
G37*
G36*
X175865Y136038D02*
X174044Y134217D01*
X175517Y132744D01*
X177338Y134565D01*
X175865Y136038D01*
D02*
G37*
G36*
X226378Y137048D02*
X225389Y136918D01*
X224468Y136537D01*
X223677Y135930D01*
X223070Y135138D01*
X222688Y134217D01*
X222558Y133228D01*
X222688Y132240D01*
X223070Y131318D01*
X223677Y130527D01*
X224468Y129920D01*
X225389Y129538D01*
X226378Y129408D01*
X227367Y129538D01*
X228288Y129920D01*
X229079Y130527D01*
X229686Y131318D01*
X230068Y132240D01*
X230198Y133228D01*
X230068Y134217D01*
X229686Y135138D01*
X229079Y135930D01*
X228288Y136537D01*
X227367Y136918D01*
X226378Y137048D01*
D02*
G37*
G36*
X180389Y136246D02*
X177839Y133697D01*
X177707Y133670D01*
X177316Y133409D01*
X177316Y133409D01*
X172337Y128430D01*
X172076Y128040D01*
X172031Y127813D01*
X169709Y125491D01*
X173050Y122150D01*
X176669Y125769D01*
X174875Y127562D01*
X177937Y130624D01*
X179693Y128869D01*
X183729Y132906D01*
X180389Y136246D01*
D02*
G37*
G36*
X78165Y125591D02*
X75492D01*
Y124197D01*
X78165D01*
Y125591D01*
D02*
G37*
G36*
X62811D02*
X60138D01*
Y124197D01*
X62811D01*
Y125591D01*
D02*
G37*
G36*
X59153D02*
X56480D01*
Y124197D01*
X59153D01*
Y125591D01*
D02*
G37*
G36*
X13386Y127980D02*
X11811D01*
X10989Y127872D01*
X10223Y127554D01*
X9565Y127050D01*
X9060Y126392D01*
X8743Y125625D01*
X8634Y124803D01*
X8743Y123981D01*
X9060Y123215D01*
X9565Y122557D01*
X10223Y122052D01*
X10989Y121735D01*
X11811Y121626D01*
X13386D01*
X14208Y121735D01*
X14974Y122052D01*
X15632Y122557D01*
X16137Y123215D01*
X16454Y123981D01*
X16563Y124803D01*
X16454Y125625D01*
X16137Y126392D01*
X15632Y127050D01*
X14974Y127554D01*
X14208Y127872D01*
X13386Y127980D01*
D02*
G37*
G36*
X150367Y119705D02*
X148418Y117756D01*
X145634Y114972D01*
X144799Y114137D01*
X141893Y111230D01*
X140637Y112486D01*
X140246Y112747D01*
X139786Y112838D01*
X139786Y112838D01*
X138387D01*
X138330Y113126D01*
X137808Y113908D01*
X137026Y114430D01*
X136105Y114613D01*
X135183Y114430D01*
X134402Y113908D01*
X133879Y113126D01*
X133696Y112205D01*
X133879Y111283D01*
X134402Y110502D01*
X135183Y109980D01*
X136105Y109796D01*
X137026Y109980D01*
X137700Y110430D01*
X139287D01*
X140039Y109678D01*
X139847Y109485D01*
X142503Y106829D01*
X145159Y104174D01*
X145935Y104950D01*
X145785Y105101D01*
X146592Y105908D01*
X151478Y101023D01*
X151478Y101023D01*
X151869Y100762D01*
X152330Y100670D01*
X164074D01*
X164407Y100171D01*
X165189Y99649D01*
X166110Y99466D01*
X166699Y99583D01*
X168407Y97875D01*
X167117Y96585D01*
X170458Y93244D01*
X174494Y97281D01*
X171154Y100622D01*
X170110Y99578D01*
X168402Y101286D01*
X168519Y101874D01*
X168335Y102796D01*
X167813Y103577D01*
X167032Y104100D01*
X166110Y104283D01*
X165189Y104100D01*
X164407Y103577D01*
X164074Y103079D01*
X152828D01*
X151022Y104885D01*
X151214Y105347D01*
X170787D01*
X170787Y105347D01*
X171248Y105438D01*
X171265Y105450D01*
X171957Y105312D01*
X172340Y105388D01*
X174130Y103598D01*
X172963Y102431D01*
X176304Y99091D01*
X180340Y103127D01*
X177000Y106468D01*
X175833Y105301D01*
X174207Y106927D01*
X174365Y107720D01*
X174182Y108642D01*
X173660Y109424D01*
X172878Y109946D01*
X171957Y110129D01*
X171035Y109946D01*
X170253Y109424D01*
X169731Y108642D01*
X169555Y107755D01*
X164687D01*
X164535Y108255D01*
X164644Y108328D01*
X165166Y109109D01*
X165350Y110031D01*
X165166Y110952D01*
X164644Y111734D01*
X163863Y112256D01*
X162941Y112439D01*
X162019Y112256D01*
X161238Y111734D01*
X160716Y110952D01*
X160533Y110031D01*
X160502Y109993D01*
X157938D01*
X157747Y110455D01*
X159960Y112669D01*
X160549Y112552D01*
X161470Y112735D01*
X162252Y113258D01*
X162774Y114039D01*
X162957Y114961D01*
X162774Y115882D01*
X162252Y116664D01*
X161470Y117186D01*
X160549Y117369D01*
X159627Y117186D01*
X158846Y116664D01*
X158324Y115882D01*
X158140Y114961D01*
X158257Y114372D01*
X155749Y111864D01*
X153201D01*
X153010Y112325D01*
X155378Y114694D01*
X150367Y119705D01*
D02*
G37*
G36*
X65533Y111461D02*
X60809D01*
Y110191D01*
X57579D01*
Y111417D01*
X51870D01*
Y106693D01*
X57579D01*
Y107783D01*
X60809D01*
Y106343D01*
X65533D01*
Y111461D01*
D02*
G37*
G36*
X194504Y114681D02*
X192224D01*
Y110138D01*
X194504D01*
Y114681D01*
D02*
G37*
G36*
X191240D02*
X188961D01*
Y110138D01*
X191240D01*
Y114681D01*
D02*
G37*
G36*
X118404Y111604D02*
X117483Y111421D01*
X116701Y110899D01*
X116179Y110117D01*
X116064Y109537D01*
X113673Y107146D01*
X113422Y107397D01*
X110766Y104741D01*
X108110Y102086D01*
X108887Y101309D01*
X109038Y101459D01*
X111671Y98826D01*
X115118Y95379D01*
X115193Y94747D01*
X106685Y86239D01*
X106424Y85848D01*
X106332Y85387D01*
X106332Y85387D01*
Y83989D01*
X105749Y83748D01*
X105009Y83180D01*
X104441Y82440D01*
X104084Y81578D01*
X104008Y81001D01*
X103556Y80847D01*
X103173Y81166D01*
Y82884D01*
X103755Y83125D01*
X104496Y83693D01*
X105064Y84434D01*
X105421Y85295D01*
X105542Y86221D01*
X105421Y87146D01*
X105064Y88007D01*
X104496Y88748D01*
X103755Y89315D01*
X102893Y89673D01*
X101969Y89794D01*
X101043Y89673D01*
X100182Y89315D01*
X99441Y88748D01*
X98873Y88007D01*
X98516Y87146D01*
X98395Y86221D01*
X98516Y85295D01*
X98873Y84434D01*
X99441Y83693D01*
X100182Y83125D01*
X100764Y82884D01*
Y80630D01*
X100764Y80630D01*
X100856Y80170D01*
X101117Y79779D01*
X105047Y75848D01*
X105048Y75848D01*
X105438Y75587D01*
X105899Y75496D01*
X109174D01*
X109174Y75496D01*
X109634Y75587D01*
X110025Y75848D01*
X118995Y84819D01*
X118995Y84819D01*
X119256Y85209D01*
X119348Y85670D01*
X119348Y85670D01*
Y92583D01*
X123642Y96877D01*
X120301Y100218D01*
X117517Y103001D01*
X115226Y105293D01*
X117135Y107202D01*
X117483Y106971D01*
X118404Y106787D01*
X119326Y106971D01*
X120107Y107493D01*
X120629Y108274D01*
X120813Y109196D01*
X120629Y110117D01*
X120107Y110899D01*
X119326Y111421D01*
X118404Y111604D01*
D02*
G37*
G36*
X69291Y118822D02*
X68370Y118639D01*
X67588Y118116D01*
X67066Y117335D01*
X66883Y116413D01*
X67066Y115492D01*
X67588Y114710D01*
X68370Y114188D01*
X69291Y114005D01*
X69293Y114005D01*
X70302Y112996D01*
Y112421D01*
X69342Y111461D01*
X66321D01*
Y106343D01*
X71045D01*
Y109758D01*
X72486Y111199D01*
X72486Y111199D01*
X72747Y111590D01*
X72839Y112050D01*
X72839Y112050D01*
Y113367D01*
X72839Y113367D01*
X72747Y113828D01*
X72486Y114218D01*
X72486Y114218D01*
X71395Y115310D01*
X71517Y115492D01*
X71700Y116413D01*
X71517Y117335D01*
X70994Y118116D01*
X70213Y118639D01*
X69291Y118822D01*
D02*
G37*
G36*
X194504Y109153D02*
X192224D01*
Y104610D01*
X194504D01*
Y109153D01*
D02*
G37*
G36*
X191240D02*
X188961D01*
Y104610D01*
X191240D01*
Y109153D01*
D02*
G37*
G36*
X57791Y105724D02*
X55216D01*
Y103642D01*
X57791D01*
Y105724D01*
D02*
G37*
G36*
X54232D02*
X51657D01*
Y103642D01*
X54232D01*
Y105724D01*
D02*
G37*
G36*
X139151Y108789D02*
X138374Y108012D01*
X138524Y107862D01*
X135891Y105229D01*
X135056Y104393D01*
X133814Y103152D01*
X133664Y103302D01*
X132887Y102525D01*
X135543Y99870D01*
X138199Y97214D01*
X138391Y97406D01*
X141522Y94276D01*
Y80526D01*
X141023Y80193D01*
X140501Y79411D01*
X140317Y78490D01*
X140501Y77568D01*
X141023Y76787D01*
X141804Y76265D01*
X142726Y76081D01*
X143314Y76198D01*
X145022Y74490D01*
X143732Y73201D01*
X147073Y69860D01*
X151110Y73896D01*
X147769Y77237D01*
X146725Y76193D01*
X145017Y77901D01*
X145134Y78490D01*
X144951Y79411D01*
X144429Y80193D01*
X143930Y80526D01*
Y93998D01*
X144392Y94189D01*
X147368Y91214D01*
Y86372D01*
X146869Y86039D01*
X146347Y85258D01*
X146163Y84336D01*
X146347Y83414D01*
X146869Y82633D01*
X147650Y82111D01*
X148572Y81927D01*
X149160Y82044D01*
X150868Y80336D01*
X149578Y79047D01*
X152919Y75706D01*
X156956Y79743D01*
X153615Y83083D01*
X152571Y82039D01*
X150863Y83748D01*
X150980Y84336D01*
X150797Y85258D01*
X150275Y86039D01*
X149776Y86372D01*
Y90936D01*
X150238Y91127D01*
X151153Y90212D01*
X151544Y89951D01*
X152005Y89859D01*
X152163Y89409D01*
X152193Y89260D01*
X152715Y88479D01*
X153496Y87957D01*
X154418Y87774D01*
X155006Y87891D01*
X156714Y86183D01*
X155425Y84893D01*
X158765Y81552D01*
X162802Y85589D01*
X159461Y88929D01*
X158417Y87886D01*
X156710Y89594D01*
X156826Y90182D01*
X156643Y91104D01*
X156121Y91885D01*
X155340Y92407D01*
X154418Y92590D01*
X153496Y92407D01*
X153287Y92268D01*
X152504D01*
X150409Y94362D01*
X150601Y94824D01*
X158228D01*
X158561Y94325D01*
X159343Y93803D01*
X160264Y93620D01*
X160853Y93737D01*
X162560Y92030D01*
X161270Y90740D01*
X164610Y87399D01*
X168647Y91436D01*
X165306Y94776D01*
X164263Y93733D01*
X162556Y95440D01*
X162673Y96028D01*
X162489Y96950D01*
X161967Y97731D01*
X161186Y98253D01*
X160264Y98437D01*
X159343Y98253D01*
X158561Y97731D01*
X158228Y97232D01*
X150323D01*
X144270Y103285D01*
X144463Y103478D01*
X141807Y106133D01*
X139151Y108789D01*
D02*
G37*
G36*
X128740Y106739D02*
X127819Y106556D01*
X127037Y106034D01*
X126515Y105252D01*
X126332Y104331D01*
X126515Y103409D01*
X127037Y102628D01*
X127819Y102106D01*
X128346Y102001D01*
X130505Y99842D01*
X127539Y96877D01*
X129996Y94421D01*
X129921Y94309D01*
X129829Y93848D01*
X129829Y93848D01*
Y68834D01*
X129330Y68501D01*
X128808Y67719D01*
X128625Y66797D01*
X128808Y65876D01*
X129330Y65094D01*
X130112Y64572D01*
X131033Y64389D01*
X131622Y64506D01*
X133330Y62798D01*
X132040Y61508D01*
X135381Y58168D01*
X139417Y62204D01*
X136077Y65545D01*
X135033Y64501D01*
X133325Y66209D01*
X133442Y66797D01*
X133259Y67719D01*
X132737Y68501D01*
X132238Y68834D01*
Y91737D01*
X132550Y91866D01*
X132550D01*
X134065Y93381D01*
X135675Y91770D01*
Y74680D01*
X135177Y74347D01*
X134654Y73565D01*
X134471Y72644D01*
X134654Y71722D01*
X135177Y70941D01*
X135958Y70418D01*
X136880Y70235D01*
X137468Y70352D01*
X139176Y68644D01*
X137886Y67354D01*
X141227Y64014D01*
X145263Y68050D01*
X141923Y71391D01*
X140879Y70347D01*
X139171Y72055D01*
X139288Y72644D01*
X139105Y73565D01*
X138583Y74347D01*
X138084Y74680D01*
Y92269D01*
X137992Y92730D01*
X137731Y93121D01*
X137731Y93121D01*
X135768Y95084D01*
X136576Y95891D01*
X136726Y95741D01*
X137503Y96518D01*
X134847Y99174D01*
X132191Y101830D01*
X132057Y101696D01*
X130716Y103036D01*
X130965Y103409D01*
X131149Y104331D01*
X130965Y105252D01*
X130443Y106034D01*
X129662Y106556D01*
X128740Y106739D01*
D02*
G37*
G36*
X223622Y80342D02*
X222047D01*
X221225Y80234D01*
X220459Y79917D01*
X219801Y79412D01*
X219296Y78754D01*
X218979Y77988D01*
X218870Y77165D01*
X218979Y76343D01*
X219296Y75577D01*
X219801Y74919D01*
X220459Y74414D01*
X221225Y74097D01*
X222047Y73989D01*
X223622D01*
X224444Y74097D01*
X225210Y74414D01*
X225868Y74919D01*
X226373Y75577D01*
X226691Y76343D01*
X226799Y77165D01*
X226691Y77988D01*
X226373Y78754D01*
X225868Y79412D01*
X225210Y79917D01*
X224444Y80234D01*
X223622Y80342D01*
D02*
G37*
G36*
Y72468D02*
X222047D01*
X221225Y72360D01*
X220459Y72043D01*
X219801Y71538D01*
X219296Y70880D01*
X218979Y70113D01*
X218870Y69291D01*
X218979Y68469D01*
X219296Y67703D01*
X219801Y67045D01*
X220459Y66540D01*
X221225Y66223D01*
X222047Y66115D01*
X223622D01*
X224444Y66223D01*
X225210Y66540D01*
X225868Y67045D01*
X226373Y67703D01*
X226691Y68469D01*
X226799Y69291D01*
X226691Y70113D01*
X226373Y70880D01*
X225868Y71538D01*
X225210Y72043D01*
X224444Y72360D01*
X223622Y72468D01*
D02*
G37*
G36*
X151945Y73061D02*
X147908Y69025D01*
X150045Y66888D01*
Y36277D01*
X149619Y35852D01*
X149606Y35854D01*
X148784Y35746D01*
X148018Y35428D01*
X147360Y34923D01*
X146855Y34266D01*
X146538Y33499D01*
X146430Y32677D01*
Y31102D01*
X146538Y30280D01*
X146855Y29514D01*
X147360Y28856D01*
X148018Y28351D01*
X148784Y28034D01*
X149606Y27926D01*
X150428Y28034D01*
X151195Y28351D01*
X151853Y28856D01*
X152357Y29514D01*
X152675Y30280D01*
X152783Y31102D01*
Y32677D01*
X152675Y33499D01*
X152357Y34266D01*
X151959Y34785D01*
X152100Y34927D01*
X152361Y35318D01*
X152453Y35779D01*
Y66888D01*
X155285Y69721D01*
X151945Y73061D01*
D02*
G37*
G36*
X146099Y67215D02*
X142062Y63178D01*
X144198Y61042D01*
Y37240D01*
X142660Y35702D01*
X142554Y35746D01*
X141732Y35854D01*
X140910Y35746D01*
X140144Y35428D01*
X139486Y34923D01*
X138981Y34266D01*
X138664Y33499D01*
X138556Y32677D01*
Y31102D01*
X138664Y30280D01*
X138981Y29514D01*
X139486Y28856D01*
X140144Y28351D01*
X140910Y28034D01*
X141732Y27926D01*
X142554Y28034D01*
X143321Y28351D01*
X143979Y28856D01*
X144483Y29514D01*
X144801Y30280D01*
X144909Y31102D01*
Y32677D01*
X144801Y33499D01*
X144526Y34162D01*
X146254Y35890D01*
X146254Y35890D01*
X146515Y36280D01*
X146607Y36741D01*
Y61042D01*
X149439Y63875D01*
X146099Y67215D01*
D02*
G37*
G36*
X169482Y90600D02*
X165445Y86564D01*
X167869Y84141D01*
X167935Y84042D01*
X172024Y79952D01*
Y35587D01*
X171640Y35428D01*
X170982Y34923D01*
X170477Y34266D01*
X170160Y33499D01*
X170052Y32677D01*
Y31102D01*
X170160Y30280D01*
X170477Y29514D01*
X170982Y28856D01*
X171640Y28351D01*
X172406Y28034D01*
X173228Y27926D01*
X174050Y28034D01*
X174817Y28351D01*
X175475Y28856D01*
X175979Y29514D01*
X176297Y30280D01*
X176405Y31102D01*
Y32677D01*
X176297Y33499D01*
X175979Y34266D01*
X175475Y34923D01*
X174817Y35428D01*
X174433Y35587D01*
Y80451D01*
X174433Y80451D01*
X174341Y80912D01*
X174080Y81303D01*
X170473Y84910D01*
X172823Y87260D01*
X169482Y90600D01*
D02*
G37*
G36*
X157791Y78908D02*
X153754Y74871D01*
X155891Y72734D01*
Y35427D01*
X155234Y34923D01*
X154729Y34266D01*
X154412Y33499D01*
X154304Y32677D01*
Y31102D01*
X154412Y30280D01*
X154729Y29514D01*
X155234Y28856D01*
X155892Y28351D01*
X156658Y28034D01*
X157480Y27926D01*
X158302Y28034D01*
X159069Y28351D01*
X159727Y28856D01*
X160231Y29514D01*
X160549Y30280D01*
X160657Y31102D01*
Y32677D01*
X160549Y33499D01*
X160231Y34266D01*
X159727Y34923D01*
X159069Y35428D01*
X158302Y35746D01*
X158299Y35746D01*
Y72734D01*
X161132Y75567D01*
X157791Y78908D01*
D02*
G37*
G36*
X140252Y61369D02*
X136216Y57332D01*
X137870Y55678D01*
X133007Y50815D01*
X132746Y50425D01*
X132654Y49964D01*
X132654Y49964D01*
Y35587D01*
X132270Y35428D01*
X131612Y34923D01*
X131107Y34266D01*
X130790Y33499D01*
X130682Y32677D01*
Y31102D01*
X130790Y30280D01*
X131107Y29514D01*
X131612Y28856D01*
X132270Y28351D01*
X133036Y28034D01*
X133858Y27926D01*
X134680Y28034D01*
X135447Y28351D01*
X136105Y28856D01*
X136609Y29514D01*
X136927Y30280D01*
X137035Y31102D01*
Y32677D01*
X136927Y33499D01*
X136609Y34266D01*
X136105Y34923D01*
X135447Y35428D01*
X135063Y35587D01*
Y49465D01*
X140756Y55159D01*
X140756Y55159D01*
X140822Y55257D01*
X143593Y58028D01*
X140252Y61369D01*
D02*
G37*
G36*
X181176Y102292D02*
X177139Y98255D01*
X179562Y95832D01*
X179628Y95734D01*
X187772Y87590D01*
Y35587D01*
X187388Y35428D01*
X186730Y34923D01*
X186225Y34266D01*
X185908Y33499D01*
X185800Y32677D01*
Y31102D01*
X185908Y30280D01*
X186225Y29514D01*
X186730Y28856D01*
X187388Y28351D01*
X188154Y28034D01*
X188976Y27926D01*
X189799Y28034D01*
X190565Y28351D01*
X191223Y28856D01*
X191727Y29514D01*
X192045Y30280D01*
X192153Y31102D01*
Y32677D01*
X192045Y33499D01*
X191727Y34266D01*
X191223Y34923D01*
X190565Y35428D01*
X190181Y35587D01*
Y88088D01*
X190181Y88088D01*
X190089Y88549D01*
X189828Y88940D01*
X189828Y88940D01*
X182166Y96601D01*
X184516Y98952D01*
X181176Y102292D01*
D02*
G37*
G36*
X175329Y96446D02*
X171293Y92409D01*
X173716Y89986D01*
X173782Y89887D01*
X179898Y83771D01*
Y35587D01*
X179514Y35428D01*
X178856Y34923D01*
X178351Y34266D01*
X178034Y33499D01*
X177926Y32677D01*
Y31102D01*
X178034Y30280D01*
X178351Y29514D01*
X178856Y28856D01*
X179514Y28351D01*
X180280Y28034D01*
X181102Y27926D01*
X181924Y28034D01*
X182691Y28351D01*
X183349Y28856D01*
X183853Y29514D01*
X184171Y30280D01*
X184279Y31102D01*
Y32677D01*
X184171Y33499D01*
X183853Y34266D01*
X183349Y34923D01*
X182691Y35428D01*
X182307Y35587D01*
Y84270D01*
X182307Y84270D01*
X182215Y84731D01*
X181954Y85122D01*
X181954Y85122D01*
X176320Y90755D01*
X178670Y93105D01*
X175329Y96446D01*
D02*
G37*
G36*
X163637Y84754D02*
X159600Y80717D01*
X162024Y78294D01*
X162090Y78195D01*
X164150Y76135D01*
Y35587D01*
X163766Y35428D01*
X163108Y34923D01*
X162603Y34266D01*
X162286Y33499D01*
X162178Y32677D01*
Y31102D01*
X162286Y30280D01*
X162603Y29514D01*
X163108Y28856D01*
X163766Y28351D01*
X164532Y28034D01*
X165354Y27926D01*
X166176Y28034D01*
X166943Y28351D01*
X167601Y28856D01*
X168105Y29514D01*
X168423Y30280D01*
X168531Y31102D01*
Y32677D01*
X168423Y33499D01*
X168105Y34266D01*
X167601Y34923D01*
X166943Y35428D01*
X166559Y35587D01*
Y76633D01*
X166559Y76634D01*
X166467Y77094D01*
X166206Y77485D01*
X164628Y79063D01*
X166978Y81413D01*
X163637Y84754D01*
D02*
G37*
G36*
X201181Y24646D02*
X200259Y24463D01*
X199478Y23941D01*
X199145Y23442D01*
X142710D01*
X142710Y23442D01*
X142249Y23350D01*
X141858Y23089D01*
X141858Y23089D01*
X134911Y16142D01*
X130709D01*
Y8268D01*
X137008D01*
Y14832D01*
X143209Y21033D01*
X144546D01*
Y17903D01*
X142660Y16017D01*
X142554Y16061D01*
X141732Y16169D01*
X140910Y16061D01*
X140144Y15743D01*
X139486Y15238D01*
X138981Y14581D01*
X138664Y13814D01*
X138556Y12992D01*
Y11417D01*
X138664Y10595D01*
X138981Y9829D01*
X139486Y9171D01*
X140144Y8666D01*
X140910Y8349D01*
X141732Y8241D01*
X142554Y8349D01*
X143321Y8666D01*
X143979Y9171D01*
X144483Y9829D01*
X144801Y10595D01*
X144909Y11417D01*
Y12992D01*
X144801Y13814D01*
X144526Y14477D01*
X146602Y16553D01*
X146602Y16553D01*
X146863Y16943D01*
X146955Y17404D01*
X146955Y17404D01*
Y21033D01*
X151945D01*
Y17428D01*
X150534Y16017D01*
X150428Y16061D01*
X149606Y16169D01*
X148784Y16061D01*
X148018Y15743D01*
X147360Y15238D01*
X146855Y14581D01*
X146538Y13814D01*
X146430Y12992D01*
Y11417D01*
X146538Y10595D01*
X146855Y9829D01*
X147360Y9171D01*
X148018Y8666D01*
X148784Y8349D01*
X149606Y8241D01*
X150428Y8349D01*
X151195Y8666D01*
X151853Y9171D01*
X152357Y9829D01*
X152675Y10595D01*
X152783Y11417D01*
Y12992D01*
X152675Y13814D01*
X152400Y14477D01*
X154001Y16078D01*
X154001Y16078D01*
X154262Y16468D01*
X154354Y16929D01*
X154354Y16929D01*
Y21033D01*
X160213D01*
Y17822D01*
X158408Y16017D01*
X158302Y16061D01*
X157480Y16169D01*
X156658Y16061D01*
X155892Y15743D01*
X155234Y15238D01*
X154729Y14581D01*
X154412Y13814D01*
X154304Y12992D01*
Y11417D01*
X154412Y10595D01*
X154729Y9829D01*
X155234Y9171D01*
X155892Y8666D01*
X156658Y8349D01*
X157480Y8241D01*
X158302Y8349D01*
X159069Y8666D01*
X159727Y9171D01*
X160231Y9829D01*
X160549Y10595D01*
X160657Y11417D01*
Y12992D01*
X160549Y13814D01*
X160274Y14477D01*
X162269Y16471D01*
X162269Y16471D01*
X162530Y16862D01*
X162622Y17323D01*
Y21033D01*
X167582D01*
Y17316D01*
X166282Y16017D01*
X166176Y16061D01*
X165354Y16169D01*
X164532Y16061D01*
X163766Y15743D01*
X163108Y15238D01*
X162603Y14581D01*
X162286Y13814D01*
X162178Y12992D01*
Y11417D01*
X162286Y10595D01*
X162603Y9829D01*
X163108Y9171D01*
X163766Y8666D01*
X164532Y8349D01*
X165354Y8241D01*
X166176Y8349D01*
X166943Y8666D01*
X167601Y9171D01*
X168105Y9829D01*
X168423Y10595D01*
X168531Y11417D01*
Y12992D01*
X168423Y13814D01*
X168148Y14477D01*
X169638Y15966D01*
X169638Y15966D01*
X169899Y16357D01*
X169990Y16818D01*
Y21033D01*
X175174D01*
Y17034D01*
X174156Y16017D01*
X174050Y16061D01*
X173228Y16169D01*
X172406Y16061D01*
X171640Y15743D01*
X170982Y15238D01*
X170477Y14581D01*
X170160Y13814D01*
X170052Y12992D01*
Y11417D01*
X170160Y10595D01*
X170477Y9829D01*
X170982Y9171D01*
X171640Y8666D01*
X172406Y8349D01*
X173228Y8241D01*
X174050Y8349D01*
X174817Y8666D01*
X175475Y9171D01*
X175979Y9829D01*
X176297Y10595D01*
X176405Y11417D01*
Y12992D01*
X176297Y13814D01*
X176022Y14477D01*
X177229Y15684D01*
X177229Y15684D01*
X177490Y16075D01*
X177582Y16535D01*
X177582Y16535D01*
Y21033D01*
X183441D01*
Y17428D01*
X182030Y16017D01*
X181924Y16061D01*
X181102Y16169D01*
X180280Y16061D01*
X179514Y15743D01*
X178856Y15238D01*
X178351Y14581D01*
X178034Y13814D01*
X177926Y12992D01*
Y11417D01*
X178034Y10595D01*
X178351Y9829D01*
X178856Y9171D01*
X179514Y8666D01*
X180280Y8349D01*
X181102Y8241D01*
X181924Y8349D01*
X182691Y8666D01*
X183349Y9171D01*
X183853Y9829D01*
X184171Y10595D01*
X184279Y11417D01*
Y12992D01*
X184171Y13814D01*
X183896Y14477D01*
X185497Y16078D01*
X185758Y16468D01*
X185850Y16929D01*
X185850Y16929D01*
Y21033D01*
X191315D01*
Y17428D01*
X189904Y16017D01*
X189799Y16061D01*
X188976Y16169D01*
X188154Y16061D01*
X187388Y15743D01*
X186730Y15238D01*
X186225Y14581D01*
X185908Y13814D01*
X185800Y12992D01*
Y11417D01*
X185908Y10595D01*
X186225Y9829D01*
X186730Y9171D01*
X187388Y8666D01*
X188154Y8349D01*
X188976Y8241D01*
X189799Y8349D01*
X190565Y8666D01*
X191223Y9171D01*
X191727Y9829D01*
X192045Y10595D01*
X192153Y11417D01*
Y12992D01*
X192045Y13814D01*
X191771Y14477D01*
X193371Y16078D01*
X193371Y16078D01*
X193632Y16468D01*
X193724Y16929D01*
X193724Y16929D01*
Y21033D01*
X199145D01*
X199478Y20535D01*
X200259Y20012D01*
X201181Y19829D01*
X202103Y20012D01*
X202884Y20535D01*
X203406Y21316D01*
X203590Y22238D01*
X203406Y23159D01*
X202884Y23941D01*
X202103Y24463D01*
X201181Y24646D01*
D02*
G37*
G36*
X57791Y102657D02*
X51657D01*
Y101590D01*
X9843D01*
X9535Y101529D01*
X9275Y101355D01*
X9275Y101355D01*
X7700Y99780D01*
X7526Y99520D01*
X7465Y99213D01*
X7465Y78405D01*
X7470Y78378D01*
X7467Y78351D01*
X7501Y78226D01*
X7526Y78098D01*
X7541Y78075D01*
X7548Y78049D01*
X7628Y77946D01*
X7700Y77838D01*
X7678Y77473D01*
X7617Y77165D01*
X7617Y69700D01*
X7672Y69424D01*
X7526Y69205D01*
X7465Y68898D01*
X7465Y60358D01*
X7465Y59858D01*
X7526Y59551D01*
X7589Y59456D01*
X7526Y59362D01*
X7465Y59055D01*
X7465Y49652D01*
X7526Y49345D01*
X7700Y49084D01*
X7960Y48910D01*
X8268Y48849D01*
X41354Y48849D01*
X58843Y31360D01*
X58843Y7480D01*
X58904Y7173D01*
X59078Y6913D01*
X59338Y6739D01*
X59646Y6678D01*
X70079Y6678D01*
X70386Y6739D01*
X70646Y6913D01*
X70820Y7173D01*
X70882Y7480D01*
Y7984D01*
X71382Y8216D01*
X72013Y7955D01*
X72835Y7847D01*
X73657Y7955D01*
X74288Y8216D01*
X74788Y7984D01*
Y7480D01*
X74849Y7173D01*
X75023Y6913D01*
X75283Y6739D01*
X75591Y6678D01*
X85827Y6678D01*
X86134Y6739D01*
X86394Y6913D01*
X86568Y7173D01*
X86630Y7480D01*
Y7984D01*
X87130Y8216D01*
X87761Y7955D01*
X88583Y7847D01*
X89405Y7955D01*
X89726Y8088D01*
X90142Y7811D01*
Y7480D01*
X90203Y7173D01*
X90377Y6913D01*
X90638Y6739D01*
X90945Y6678D01*
X100787Y6678D01*
X101095Y6739D01*
X101355Y6913D01*
X101953Y6938D01*
X102339Y6424D01*
X102382Y6385D01*
X102414Y6338D01*
X102498Y6282D01*
X102573Y6215D01*
X102627Y6196D01*
X102674Y6164D01*
X102773Y6144D01*
X102868Y6111D01*
X102925Y6114D01*
X102982Y6103D01*
X106623D01*
X106669Y6112D01*
X106716Y6108D01*
X106822Y6142D01*
X106930Y6164D01*
X106970Y6190D01*
X107014Y6204D01*
X107099Y6276D01*
X107191Y6338D01*
X107217Y6377D01*
X107253Y6407D01*
X109434Y9163D01*
X109484Y9262D01*
X109546Y9354D01*
X109555Y9400D01*
X109576Y9442D01*
X109585Y9553D01*
X109607Y9661D01*
Y31410D01*
X122218Y39590D01*
X122278Y39649D01*
X122348Y39696D01*
X122389Y39757D01*
X122442Y39809D01*
X122476Y39886D01*
X122522Y39956D01*
X122537Y40029D01*
X122566Y40096D01*
X122567Y40181D01*
X122584Y40264D01*
Y72832D01*
X122522Y73139D01*
X122348Y73400D01*
X122348Y73400D01*
X121199Y74550D01*
X120938Y74724D01*
X120631Y74785D01*
X115388D01*
X115081Y74724D01*
X114821Y74550D01*
X114821Y74550D01*
X113671Y73400D01*
X113670Y73399D01*
X113670Y73399D01*
X113583Y73269D01*
X113497Y73139D01*
X113496Y73138D01*
X113496Y73138D01*
X113466Y72984D01*
X113435Y72832D01*
X113436Y72831D01*
X113435Y72830D01*
X113450Y66322D01*
X112990Y66125D01*
X76145Y101368D01*
X76021Y101447D01*
X75898Y101529D01*
X75889Y101531D01*
X75881Y101536D01*
X75735Y101561D01*
X75590Y101590D01*
X57791D01*
Y102657D01*
D02*
G37*
%LPD*%
G36*
X197734Y154990D02*
X197542Y154527D01*
X194026D01*
X177068Y171485D01*
X176677Y171747D01*
X176216Y171838D01*
X176216Y171838D01*
X128850D01*
X128824Y171873D01*
X129075Y172373D01*
X180350D01*
X197734Y154990D01*
D02*
G37*
G36*
X206965Y145758D02*
Y138484D01*
X199629D01*
Y145473D01*
X199803D01*
Y152267D01*
X200265Y152458D01*
X206965Y145758D01*
D02*
G37*
G36*
X116939Y92434D02*
Y86169D01*
X111592Y80822D01*
X111064Y81001D01*
X110988Y81578D01*
X110631Y82440D01*
X110063Y83180D01*
X109323Y83748D01*
X108740Y83989D01*
Y84888D01*
X116478Y92625D01*
X116939Y92434D01*
D02*
G37*
G36*
X100787Y45291D02*
X100787Y7480D01*
X90945Y7480D01*
X90945Y8928D01*
X91334Y9435D01*
X91651Y10201D01*
X91760Y11024D01*
Y12598D01*
X91651Y13421D01*
X91334Y14187D01*
X90945Y14694D01*
X90945Y28613D01*
X91334Y29120D01*
X91651Y29886D01*
X91760Y30709D01*
Y32283D01*
X91651Y33106D01*
X91334Y33872D01*
X90945Y34379D01*
X90945Y39370D01*
X64354Y65961D01*
X63915D01*
X60410Y69465D01*
X60150Y69639D01*
X59842Y69700D01*
X8420Y69700D01*
X8420Y77165D01*
X11605D01*
X11811Y77138D01*
X13386D01*
X13592Y77165D01*
X31289Y77165D01*
X31496Y77138D01*
X33071D01*
X33277Y77165D01*
X68913Y77165D01*
X100787Y45291D01*
D02*
G37*
G36*
X113453Y64571D02*
X113497Y44722D01*
X102034Y36631D01*
X101590Y36861D01*
X101590Y45291D01*
X101529Y45599D01*
X101355Y45859D01*
X69481Y77733D01*
X69221Y77907D01*
X68913Y77968D01*
X33277Y77968D01*
X33226Y77958D01*
X33173Y77961D01*
X33018Y77941D01*
X31549D01*
X31394Y77961D01*
X31341Y77958D01*
X31289Y77968D01*
X13592Y77968D01*
X13540Y77958D01*
X13487Y77961D01*
X13333Y77941D01*
X11864D01*
X11709Y77961D01*
X11656Y77958D01*
X11605Y77968D01*
X8768D01*
X8268Y78405D01*
X8268Y99213D01*
X9843Y100787D01*
X75590D01*
X113453Y64571D01*
D02*
G37*
G36*
X87761Y27640D02*
X88583Y27532D01*
X89405Y27640D01*
X89726Y27773D01*
X90142Y27496D01*
X90142Y15812D01*
X89726Y15534D01*
X89405Y15667D01*
X88583Y15775D01*
X87761Y15667D01*
X87130Y15406D01*
X86630Y15638D01*
Y27669D01*
X87130Y27901D01*
X87761Y27640D01*
D02*
G37*
G36*
X72013D02*
X72835Y27532D01*
X73657Y27640D01*
X74288Y27901D01*
X74788Y27669D01*
X74788Y15638D01*
X74288Y15406D01*
X73657Y15667D01*
X72835Y15775D01*
X72013Y15667D01*
X71382Y15406D01*
X70882Y15638D01*
Y27669D01*
X71382Y27901D01*
X72013Y27640D01*
D02*
G37*
G36*
X85827Y42913D02*
Y33860D01*
X85514Y33106D01*
X85406Y32283D01*
Y30709D01*
X85514Y29886D01*
X85827Y29132D01*
Y14175D01*
X85514Y13421D01*
X85406Y12598D01*
Y11024D01*
X85514Y10201D01*
X85827Y9447D01*
Y7480D01*
X75591Y7480D01*
X75591Y9447D01*
X75903Y10201D01*
X76012Y11024D01*
Y12598D01*
X75903Y13421D01*
X75591Y14175D01*
X75590Y29132D01*
X75903Y29886D01*
X76011Y30709D01*
Y32283D01*
X75903Y33106D01*
X75590Y33861D01*
X75590Y36122D01*
X53051Y58661D01*
X52710D01*
X51749Y59623D01*
X51488Y59797D01*
X51181Y59858D01*
X33160D01*
X33071Y59870D01*
X31496D01*
X31407Y59858D01*
X13475Y59858D01*
X13386Y59870D01*
X11811D01*
X11722Y59858D01*
X8268D01*
X8268Y60358D01*
X8268Y68898D01*
X59842Y68898D01*
X85827Y42913D01*
D02*
G37*
G36*
X70079Y40157D02*
Y33860D01*
X69766Y33106D01*
X69658Y32283D01*
Y30709D01*
X69766Y29886D01*
X70079Y29132D01*
Y14175D01*
X69766Y13421D01*
X69658Y12598D01*
Y11024D01*
X69766Y10201D01*
X70079Y9447D01*
Y7480D01*
X59646Y7480D01*
X59646Y31693D01*
X41687Y49652D01*
X8268Y49652D01*
X8268Y59055D01*
X51181Y59055D01*
X70079Y40157D01*
D02*
G37*
G36*
X121781Y72832D02*
Y40264D01*
X108804Y31846D01*
Y9661D01*
X106623Y6905D01*
X102982D01*
X101590Y8761D01*
X101590Y35335D01*
X114301Y44307D01*
X114238Y72832D01*
X115388Y73982D01*
X120631D01*
X121781Y72832D01*
D02*
G37*
D10*
X154340Y125197D02*
X160924D01*
X152177Y127360D02*
X154340Y125197D01*
X160924D02*
X201081Y85039D01*
X222835D01*
D14*
X63310Y140197D02*
X63310Y140197D01*
X63171Y140336D02*
X63310Y140197D01*
X156247Y110659D02*
X160549Y114961D01*
X152035Y110659D02*
X156247D01*
X149532Y113163D02*
X152035Y110659D01*
X149393Y113163D02*
X149532D01*
X148001Y111771D02*
X150982Y108789D01*
X161114D01*
X162355Y110031D01*
X162941D01*
X170787Y106551D02*
X171957Y107720D01*
X150437Y106551D02*
X170787D01*
X146609Y110379D02*
X150437Y106551D01*
X63310Y137970D02*
Y140197D01*
X61417Y136077D02*
X63310Y137970D01*
X61417Y134252D02*
Y136077D01*
X67764Y140197D02*
X100683Y173116D01*
X101069D01*
X63310Y140197D02*
X67764D01*
X60925Y133760D02*
X61417Y134252D01*
X77793Y143583D02*
X83858Y149648D01*
X71653Y137443D02*
X77793Y143583D01*
X79399Y136879D02*
Y138549D01*
X77793Y140155D02*
X79399Y138549D01*
X77793Y140155D02*
Y143583D01*
X101053Y178740D02*
X108615D01*
X100455Y179339D02*
X101053Y178740D01*
X97137Y179339D02*
X100455D01*
X97137Y179339D02*
X97137Y179339D01*
X75984Y115835D02*
X79382Y112437D01*
X71653Y120166D02*
X75984Y115835D01*
X75476Y110630D02*
X75984Y111138D01*
Y115835D01*
X69291Y115710D02*
Y116413D01*
Y115710D02*
X71635Y113367D01*
X120024Y135977D02*
X122348Y138301D01*
X112776Y135977D02*
X120024D01*
X107536Y80653D02*
Y85387D01*
X118492Y96342D02*
Y96459D01*
X107536Y85387D02*
X118492Y96342D01*
X85265Y97356D02*
X90833D01*
X79382Y103239D02*
X85265Y97356D01*
X79382Y103239D02*
Y112437D01*
X101969Y80630D02*
X105899Y76700D01*
X109174D01*
X118144Y85670D02*
Y93327D01*
X109174Y76700D02*
X118144Y85670D01*
X101969Y80630D02*
Y86221D01*
X85265Y102924D02*
X90185Y107844D01*
X92335D02*
X94214Y109723D01*
X90185Y107844D02*
X92335D01*
X118144Y93327D02*
X119884Y95067D01*
X101530Y173577D02*
X180849D01*
X101069Y166185D02*
Y173116D01*
X101530Y173577D01*
X71653Y120166D02*
Y137443D01*
X75000Y133760D02*
X76279D01*
X79399Y136879D01*
X79382Y112437D02*
X80496Y113551D01*
X89690D01*
X137795Y129527D02*
X138601Y130333D01*
X141230D01*
X145217Y134320D01*
X112193Y127970D02*
Y133520D01*
X108748Y136965D02*
X112193Y133520D01*
X108748Y136965D02*
Y137104D01*
X71635Y112050D02*
Y113367D01*
X68683Y109098D02*
X71635Y112050D01*
X68683Y108902D02*
Y109098D01*
X59646Y133760D02*
X60925D01*
X200787Y109646D02*
Y133661D01*
X127327Y170634D02*
X176216D01*
X126772Y170079D02*
X127327Y170634D01*
X176216D02*
X196063Y150787D01*
X200787Y99606D02*
Y109646D01*
X180849Y173577D02*
X208169Y146257D01*
X159843Y130315D02*
X164173Y134646D01*
X109822Y118601D02*
X110628Y119407D01*
X107227Y118601D02*
X109822D01*
X101788Y113163D02*
X107227Y118601D01*
X113334Y114274D02*
X113944Y113664D01*
X103320Y111771D02*
X105823Y114274D01*
X113334D01*
X136675Y111634D02*
X139786D01*
X136105Y112205D02*
X136675Y111634D01*
X143307Y123942D02*
X149393Y130027D01*
X143307Y123622D02*
Y123942D01*
X226378Y97244D02*
Y113228D01*
X208169Y131437D02*
X226378Y113228D01*
X223970D02*
X224465Y113723D01*
X211221Y113228D02*
X223970D01*
X106571Y165100D02*
X111278D01*
X103122Y164132D02*
X105603D01*
X106571Y165100D01*
X111278D02*
X111417Y164961D01*
X208169Y131437D02*
Y146257D01*
X233071Y84336D02*
X234562D01*
X241732Y77165D01*
X226378Y97244D02*
X233071Y90551D01*
Y84336D02*
Y90551D01*
X236221D01*
X241732Y85039D01*
X242520D01*
X233071Y77953D02*
Y84336D01*
X241732Y77165D02*
X242520D01*
X233071Y77953D02*
X241732Y69291D01*
X242520D01*
X101069Y166185D02*
X103122Y164132D01*
Y153957D02*
X104514Y152565D01*
X103122Y153957D02*
Y164132D01*
X209842Y109646D02*
Y111850D01*
X211221Y113228D01*
X192520Y22238D02*
X201181D01*
X184646D02*
X192520D01*
X145751D02*
X153150D01*
X142710D02*
X145751D01*
X133858Y12598D02*
Y13386D01*
X142710Y22238D01*
X145751Y17404D02*
Y22238D01*
X141732Y13386D02*
X145751Y17404D01*
X176378Y22238D02*
X184646D01*
X168786D02*
X176378D01*
X173228Y12598D02*
Y13386D01*
X176378Y16535D01*
X192520Y16929D02*
Y22238D01*
X188976Y13386D02*
X192520Y16929D01*
X184646Y16929D02*
Y22238D01*
X181102Y13386D02*
X184646Y16929D01*
X181102Y12598D02*
Y13386D01*
X188976Y12598D02*
Y13386D01*
X141732Y12598D02*
Y13386D01*
X153150Y22238D02*
X161417D01*
X153150Y16929D02*
Y22238D01*
X149606Y13386D02*
X153150Y16929D01*
X149606Y12598D02*
Y13386D01*
X161417Y22238D02*
X168786D01*
X161417Y17323D02*
Y22238D01*
X157480Y13386D02*
X161417Y17323D01*
X157480Y12598D02*
Y13386D01*
X168786Y16818D02*
Y22238D01*
X165354Y13386D02*
X168786Y16818D01*
X165354Y12598D02*
Y13386D01*
X176378Y16535D02*
Y22238D01*
X157095Y32669D02*
Y74871D01*
Y32669D02*
X157480Y32283D01*
X157095Y74871D02*
X157443Y75219D01*
X165354Y32283D02*
Y76634D01*
X162941Y79047D02*
X165354Y76634D01*
X162941Y79047D02*
Y80717D01*
X163289Y81065D01*
X149606Y32283D02*
Y34136D01*
X151249Y35779D01*
Y69025D01*
X151597Y69373D01*
X139904Y56010D02*
Y57680D01*
X133858Y49964D02*
X139904Y56010D01*
X133858Y32283D02*
Y49964D01*
X188976Y32283D02*
Y88088D01*
X180480Y96585D02*
X188976Y88088D01*
X180480Y96585D02*
Y98255D01*
X180828Y98603D01*
X181102Y32283D02*
Y84270D01*
X174633Y90739D02*
X181102Y84270D01*
X174633Y90739D02*
Y92409D01*
X174981Y92757D01*
X145403Y63178D02*
X145751Y63526D01*
X145403Y36741D02*
Y63178D01*
X141732Y33071D02*
X145403Y36741D01*
X141732Y32283D02*
Y33071D01*
X173228Y32283D02*
Y80451D01*
X168786Y84894D02*
X173228Y80451D01*
X168786Y84894D02*
Y86564D01*
X169134Y86912D01*
X117425Y109196D02*
X118404D01*
X111649Y103419D02*
X117425Y109196D01*
X111532Y103419D02*
X111649D01*
X63086Y108987D02*
X63171Y108902D01*
X54793Y108987D02*
X63086D01*
X54724Y109055D02*
X54793Y108987D01*
X92234Y123908D02*
X99252Y116890D01*
X91732Y131890D02*
X92538Y131084D01*
X86720Y137795D02*
X99588D01*
X87681Y135712D02*
X96104D01*
X101671Y130144D01*
X98835Y141566D02*
Y144102D01*
Y141566D02*
X105964Y134437D01*
X99588Y137795D02*
X102426Y134958D01*
X102543D01*
X80602Y131677D02*
X86720Y137795D01*
X102543Y134958D02*
X104572Y132928D01*
X97443Y145494D02*
X98835Y144102D01*
X92538Y131084D02*
X95120D01*
X98924Y127280D01*
X81087Y129118D02*
X87681Y135712D01*
X75476Y129118D02*
X81087D01*
X75476Y131677D02*
X80602D01*
X104837Y138348D02*
Y143933D01*
Y138348D02*
X105327Y137858D01*
Y137742D02*
Y137858D01*
Y137742D02*
X107356Y135712D01*
X101671Y130144D02*
X101788D01*
X99252Y116194D02*
Y116890D01*
X99004Y115947D02*
X99252Y116194D01*
X149505Y151144D02*
X149644Y151283D01*
X149505Y148638D02*
Y151144D01*
Y148638D02*
X149644Y148499D01*
Y144316D02*
Y148499D01*
X142433Y137104D02*
X149644Y144316D01*
Y151283D02*
X157699Y159338D01*
X136865Y100635D02*
X142726Y94775D01*
Y78490D02*
Y94775D01*
X136880Y72644D02*
Y92269D01*
X138257Y102027D02*
X148572Y91712D01*
Y84336D02*
Y91712D01*
X109442Y148538D02*
Y154708D01*
X104837Y143933D02*
X109442Y148538D01*
X152330Y101874D02*
X166110D01*
X131033Y66797D02*
Y93848D01*
X141041Y104811D02*
X149824Y96028D01*
X160264D01*
X143942Y135712D02*
X154084Y145854D01*
X155074D01*
X139649Y103419D02*
X152005Y91063D01*
X153537D01*
X154418Y90182D01*
X132689Y96459D02*
X136880Y92269D01*
X145217Y108987D02*
X152330Y101874D01*
X131033Y93848D02*
X131427Y94242D01*
Y94938D01*
X131298Y95067D02*
X131427Y94938D01*
X105964Y134320D02*
Y134437D01*
X143825Y135712D02*
X143942D01*
X94214Y109723D02*
X94562Y110071D01*
X96511D01*
X101506Y105076D01*
X104720D01*
X107239Y107595D01*
X107356D01*
X75000Y131201D02*
X75476Y131677D01*
X75000Y128642D02*
X75476Y129118D01*
X108050Y156100D02*
X109442Y154708D01*
X70079Y160236D02*
Y167770D01*
Y175984D02*
X70419Y175644D01*
Y168110D02*
Y175644D01*
X70079Y167770D02*
X70419Y168110D01*
X13386Y148425D02*
X34941Y169980D01*
X154418Y90182D02*
X159113Y85487D01*
X52165Y154331D02*
X70079D01*
X42913Y163583D02*
X52165Y154331D01*
X70079D02*
X70571D01*
X42913Y171063D02*
X43996D01*
X53445Y180512D01*
X68701D01*
X41831Y169980D02*
X42913Y171063D01*
X34941Y169980D02*
X41831D01*
Y163583D02*
X42913D01*
X32874Y154626D02*
X41831Y163583D01*
X32874Y149016D02*
Y154626D01*
X32283Y148425D02*
X32874Y149016D01*
X12598Y148425D02*
X13386D01*
X68701Y180512D02*
X70079Y181890D01*
X46460Y131677D02*
X59169D01*
X45460Y132677D02*
X46460Y131677D01*
X32283Y132677D02*
X45460D01*
X44279Y124803D02*
X47641Y128165D01*
X59169D01*
X32283Y124803D02*
X44279D01*
X59169Y128165D02*
X59646Y128642D01*
X59169Y131677D02*
X59646Y131201D01*
X89690Y113551D02*
X90038Y113899D01*
X128740Y103310D02*
X134081Y97968D01*
X128740Y103310D02*
Y104331D01*
X134081Y97851D02*
Y97968D01*
X71457Y180512D02*
X76567D01*
X88785Y168294D01*
X92321Y172295D02*
X97137Y177111D01*
X92321Y171829D02*
Y172295D01*
X70571Y154331D02*
X75945Y159705D01*
Y161740D02*
X80356Y166150D01*
X75945Y159705D02*
Y161740D01*
X80356Y166150D02*
X83858D01*
X85250Y164758D01*
X97137Y177111D02*
Y179339D01*
X70079Y181890D02*
X71457Y180512D01*
X196063Y150000D02*
Y150787D01*
X188417Y141566D02*
X196063Y149213D01*
X171094Y141566D02*
X188417D01*
X164173Y134646D02*
X171094Y141566D01*
X173189Y125630D02*
X173328D01*
X178168Y132558D02*
X180041D01*
X173189Y127579D02*
X178168Y132558D01*
X173189Y125630D02*
Y127579D01*
X164173Y134646D02*
X169291Y129528D01*
X198425Y136024D02*
X200787Y133661D01*
X198425Y136024D02*
Y147638D01*
X196063Y150000D02*
X198425Y147638D01*
X196063Y149213D02*
Y150000D01*
X12598Y148425D02*
X12598Y148425D01*
X12598Y140551D02*
Y148425D01*
X32283Y140551D02*
Y148425D01*
X157699Y159338D02*
Y163672D01*
X173189Y125630D02*
X173328D01*
X103180Y111771D02*
X103320D01*
X112286Y136467D02*
X112776Y135977D01*
X112169Y136467D02*
X112286D01*
X110140Y138496D02*
X112169Y136467D01*
X149393Y130027D02*
Y130144D01*
X139786Y111634D02*
X143825Y107595D01*
X155074Y145854D02*
X155213Y145993D01*
X157719D01*
X157774Y145937D01*
X160008D01*
X167721Y153650D01*
X171957Y107475D02*
X176652Y102779D01*
X171957Y107475D02*
Y107720D01*
X166110Y101874D02*
X170806Y97179D01*
Y96933D02*
Y97179D01*
X160264Y96028D02*
X164958Y91334D01*
Y91088D02*
Y91334D01*
X159113Y85241D02*
Y85487D01*
X148572Y84336D02*
X153267Y79641D01*
Y79395D02*
Y79641D01*
X142726Y78490D02*
X147421Y73795D01*
Y73549D02*
Y73795D01*
X136880Y72644D02*
X141575Y67948D01*
Y67702D02*
Y67948D01*
X131033Y66797D02*
X135729Y62102D01*
Y61856D02*
Y62102D01*
D40*
X99283Y116225D02*
D03*
X100675Y114833D02*
D03*
X102067Y113441D02*
D03*
X103459Y112049D02*
D03*
X104851Y110657D02*
D03*
X106243Y109265D02*
D03*
X107634Y107873D02*
D03*
X109026Y106481D02*
D03*
X110418Y105089D02*
D03*
X111810Y103698D02*
D03*
X113202Y102305D02*
D03*
X114594Y100914D02*
D03*
X115986Y99522D02*
D03*
X117378Y98130D02*
D03*
X118770Y96738D02*
D03*
X120162Y95346D02*
D03*
X151898Y127082D02*
D03*
X150506Y128474D02*
D03*
X149114Y129866D02*
D03*
X147722Y131258D02*
D03*
X146330Y132650D02*
D03*
X144939Y134042D02*
D03*
X143547Y135434D02*
D03*
X142155Y136826D02*
D03*
X140763Y138218D02*
D03*
X139371Y139610D02*
D03*
X137979Y141001D02*
D03*
X136587Y142394D02*
D03*
X135195Y143785D02*
D03*
X133803Y145177D02*
D03*
X132411Y146569D02*
D03*
X131019Y147961D02*
D03*
D41*
Y95346D02*
D03*
X132411Y96738D02*
D03*
X133803Y98130D02*
D03*
X135195Y99522D02*
D03*
X136587Y100914D02*
D03*
X137979Y102305D02*
D03*
X139371Y103698D02*
D03*
X140763Y105089D02*
D03*
X142155Y106481D02*
D03*
X143547Y107873D02*
D03*
X144939Y109265D02*
D03*
X146330Y110657D02*
D03*
X147722Y112049D02*
D03*
X149114Y113441D02*
D03*
X150506Y114833D02*
D03*
X151898Y116225D02*
D03*
X120162Y147961D02*
D03*
X118770Y146569D02*
D03*
X117378Y145177D02*
D03*
X115986Y143785D02*
D03*
X114594Y142394D02*
D03*
X113202Y141001D02*
D03*
X111810Y139610D02*
D03*
X110418Y138218D02*
D03*
X109026Y136826D02*
D03*
X107634Y135434D02*
D03*
X106243Y134042D02*
D03*
X104851Y132650D02*
D03*
X103459Y131258D02*
D03*
X102067Y129866D02*
D03*
X100675Y128474D02*
D03*
X99283Y127082D02*
D03*
D42*
X157699Y163672D02*
D03*
X167721Y153650D02*
D03*
D43*
X79068Y138323D02*
D03*
X83105Y142360D02*
D03*
X63171Y140336D02*
D03*
X67207Y144373D02*
D03*
X111417Y164961D02*
D03*
X115454Y168997D02*
D03*
X96997Y179478D02*
D03*
X101034Y183514D02*
D03*
D44*
X184252Y150000D02*
D03*
X196063D02*
D03*
D45*
X200787Y133661D02*
D03*
D46*
X209842Y109646D02*
D03*
X200787Y109646D02*
D03*
X191732Y109646D02*
D03*
D47*
X175865Y136734D02*
D03*
X180041Y132558D02*
D03*
X94214Y109723D02*
D03*
X90038Y113899D02*
D03*
X176652Y102779D02*
D03*
X180828Y98603D02*
D03*
X170806Y96933D02*
D03*
X174981Y92757D02*
D03*
X164958Y91088D02*
D03*
X169134Y86912D02*
D03*
X159113Y85241D02*
D03*
X163289Y81065D02*
D03*
X153267Y79395D02*
D03*
X157443Y75219D02*
D03*
X147421Y73549D02*
D03*
X151597Y69373D02*
D03*
X141575Y67702D02*
D03*
X145751Y63526D02*
D03*
X135729Y61856D02*
D03*
X139904Y57680D02*
D03*
D48*
X173189Y125630D02*
D03*
X169291Y129528D02*
D03*
D49*
X155074Y145854D02*
D03*
X159111Y141817D02*
D03*
X149644Y151283D02*
D03*
X145608Y155319D02*
D03*
D50*
X75000Y133760D02*
D03*
Y131201D02*
D03*
Y128642D02*
D03*
Y126083D02*
D03*
X59646D02*
D03*
Y128642D02*
D03*
Y131201D02*
D03*
Y133760D02*
D03*
D51*
X63171Y108902D02*
D03*
X68683D02*
D03*
D52*
X54724Y109055D02*
D03*
Y103150D02*
D03*
X70079Y175984D02*
D03*
Y181890D02*
D03*
Y154331D02*
D03*
Y160236D02*
D03*
D53*
X92321Y171829D02*
D03*
X88785Y168294D02*
D03*
X85250Y164758D02*
D03*
X81714Y161223D02*
D03*
X108050Y156100D02*
D03*
X104514Y152565D02*
D03*
X100979Y149029D02*
D03*
X97443Y145494D02*
D03*
D54*
X70419Y168110D02*
D03*
X64710D02*
D03*
D55*
X53150Y167323D02*
D03*
X42913Y163583D02*
D03*
Y171063D02*
D03*
D56*
X104331Y31496D02*
D03*
Y11811D02*
D03*
X96457Y31496D02*
D03*
Y11811D02*
D03*
X88583Y31496D02*
D03*
X88583Y11811D02*
D03*
X80709Y31496D02*
D03*
X80709Y11811D02*
D03*
X72835Y31496D02*
D03*
X72835Y11811D02*
D03*
X64961Y31496D02*
D03*
X133858Y31890D02*
D03*
X141732Y12205D02*
D03*
Y31890D02*
D03*
X149606Y12205D02*
D03*
X149606Y31890D02*
D03*
X157480Y12205D02*
D03*
Y31890D02*
D03*
X165354Y12205D02*
D03*
X165354Y31890D02*
D03*
X173228Y12205D02*
D03*
Y31890D02*
D03*
X181102Y12205D02*
D03*
Y31890D02*
D03*
X188976Y12205D02*
D03*
X188976Y31890D02*
D03*
D57*
X64961Y11811D02*
D03*
X133858Y12205D02*
D03*
D58*
X107536Y80653D02*
D03*
X101969Y86221D02*
D03*
X85265Y102924D02*
D03*
X90833Y97356D02*
D03*
X96401Y91788D02*
D03*
D59*
X32283Y124803D02*
D03*
X12598D02*
D03*
X32283Y132677D02*
D03*
X12598Y132677D02*
D03*
X32283Y140551D02*
D03*
X12598D02*
D03*
X32283Y148425D02*
D03*
X222835Y53543D02*
D03*
X242520Y61417D02*
D03*
X222835D02*
D03*
X242520Y69291D02*
D03*
X222835D02*
D03*
X242520Y77165D02*
D03*
X222835D02*
D03*
X242520Y85039D02*
D03*
X222835D02*
D03*
X32283Y96063D02*
D03*
X12598Y88189D02*
D03*
X32283Y88189D02*
D03*
X12598Y80315D02*
D03*
X32283D02*
D03*
X12598Y72441D02*
D03*
X32283D02*
D03*
X12598Y64567D02*
D03*
X32283D02*
D03*
X12598Y56693D02*
D03*
X32283Y56693D02*
D03*
D60*
X12598Y148425D02*
D03*
X242520Y53543D02*
D03*
X12598Y96063D02*
D03*
D61*
X226378Y133228D02*
D03*
Y123228D02*
D03*
Y113228D02*
D03*
D62*
X237795Y178740D02*
D03*
X18110D02*
D03*
X237795Y18110D02*
D03*
X18110D02*
D03*
D63*
X160549Y114961D02*
D03*
X162941Y110031D02*
D03*
X108615Y178740D02*
D03*
X75476Y110630D02*
D03*
X69291Y116413D02*
D03*
X89889Y66929D02*
D03*
X103543Y69142D02*
D03*
X91732Y77016D02*
D03*
X95669Y69142D02*
D03*
X87795Y84890D02*
D03*
X83858Y77016D02*
D03*
X75984Y92764D02*
D03*
X79921Y84890D02*
D03*
X75984Y77016D02*
D03*
X72047Y84890D02*
D03*
X60236Y92764D02*
D03*
X64173Y84890D02*
D03*
X52362Y92764D02*
D03*
X44488D02*
D03*
X48425Y84890D02*
D03*
X40551D02*
D03*
X20866Y92764D02*
D03*
X24803Y84890D02*
D03*
X122348Y138301D02*
D03*
X110236Y37633D02*
D03*
X103740Y24641D02*
D03*
X116732Y41964D02*
D03*
Y67948D02*
D03*
X118898Y63618D02*
D03*
X105905Y20311D02*
D03*
X119348Y71575D02*
D03*
X244094Y157480D02*
D03*
Y94488D02*
D03*
X236220Y47244D02*
D03*
X220472Y173228D02*
D03*
X228346Y157480D02*
D03*
X220472Y110236D02*
D03*
Y47244D02*
D03*
Y15748D02*
D03*
X204724Y173228D02*
D03*
X212598Y157480D02*
D03*
Y94488D02*
D03*
Y62992D02*
D03*
X204724Y47244D02*
D03*
X212598Y31496D02*
D03*
X204724Y15748D02*
D03*
X188976Y173228D02*
D03*
X196850Y62992D02*
D03*
Y31496D02*
D03*
X181102Y157480D02*
D03*
X165354Y125984D02*
D03*
X125984Y78740D02*
D03*
Y47244D02*
D03*
Y15748D02*
D03*
X118110Y125984D02*
D03*
Y31496D02*
D03*
X94488Y141732D02*
D03*
X62992Y173228D02*
D03*
X47244Y141732D02*
D03*
Y110236D02*
D03*
Y15748D02*
D03*
X31496Y110236D02*
D03*
X39370Y31496D02*
D03*
X83858Y149648D02*
D03*
X126772Y170079D02*
D03*
X159843Y130315D02*
D03*
X110628Y119407D02*
D03*
X113944Y113664D02*
D03*
X112193Y127970D02*
D03*
X136105Y112205D02*
D03*
X143307Y123622D02*
D03*
X137795Y129527D02*
D03*
X75587Y166477D02*
D03*
X62320Y157934D02*
D03*
X56808D02*
D03*
X51668Y159923D02*
D03*
X29271Y154151D02*
D03*
X26092Y149648D02*
D03*
X27362Y144285D02*
D03*
X26193Y138898D02*
D03*
X38649Y140341D02*
D03*
X37973Y145812D02*
D03*
X37798Y151321D02*
D03*
X39800Y156456D02*
D03*
X45300Y156101D02*
D03*
X49197Y152203D02*
D03*
X54508Y150728D02*
D03*
X60020D02*
D03*
X65532D02*
D03*
X70922Y149579D02*
D03*
X75323Y152899D02*
D03*
X78616Y157318D02*
D03*
X65167Y184827D02*
D03*
X59701Y184115D02*
D03*
X54189D02*
D03*
X49338Y181500D02*
D03*
X45440Y177602D02*
D03*
X40348Y175493D02*
D03*
X35177Y173583D02*
D03*
X18820Y158955D02*
D03*
X14923Y155058D02*
D03*
X9521Y153964D02*
D03*
X6272Y149511D02*
D03*
X7023Y144051D02*
D03*
X6604Y138555D02*
D03*
X18961Y140717D02*
D03*
X18925Y146229D02*
D03*
X21272Y151216D02*
D03*
X29067Y159011D02*
D03*
X32964Y162908D02*
D03*
X37248Y166377D02*
D03*
X50904Y172875D02*
D03*
X54801Y176773D02*
D03*
X60311Y176909D02*
D03*
X76621Y175363D02*
D03*
X80518Y171465D02*
D03*
X85836Y176339D02*
D03*
X81938Y180236D02*
D03*
X77793Y183869D02*
D03*
X72968Y186533D02*
D03*
X92234Y123908D02*
D03*
X91732Y131890D02*
D03*
X201181Y22238D02*
D03*
X154418Y90182D02*
D03*
X200787Y99606D02*
D03*
X118404Y109196D02*
D03*
X128740Y104331D02*
D03*
X131033Y66797D02*
D03*
X136880Y72644D02*
D03*
X142726Y78490D02*
D03*
X148572Y84336D02*
D03*
X160264Y96028D02*
D03*
X166110Y101874D02*
D03*
X171957Y107720D02*
D03*
M02*
